{
    "info": {
        "count": 826,
        "pages": 42,
        "next": "https://rickandmortyapi.com/api/character?page=37",
        "prev": "https://rickandmortyapi.com/api/character?page=35"
    },
    "results": [
        {
            "id": 701,
            "name": "Metal Rick",
            "status": "Dead",
            "species": "Robot",
            "type": "Decoy",
            "gender": "Male",
            "origin": {
                "name": "Earth (Replacement Dimension)",
                "url": "https://rickandmortyapi.com/api/location/20"
            },
            "location": {
                "name": "Earth (Replacement Dimension)",
                "url": "https://rickandmortyapi.com/api/location/20"
            },
            "image": "https://rickandmortyapi.com/api/character/avatar/701.jpeg",
            "episode": [
                "https://rickandmortyapi.com/api/episode/43"
            ],
            "url": "https://rickandmortyapi.com/api/character/701",
            "created": "2021-10-16T15:43:50.568Z"
        },
        {
            "id": 702,
            "name": "Gun Brain Rick",
            "status": "Dead",
            "species": "Robot",
            "type": "Decoy",
            "gender": "Male",
            "origin": {
                "name": "Earth (Replacement Dimension)",
                "url": "https://rickandmortyapi.com/api/location/20"
            },
            "location": {
                "name": "Earth (Replacement Dimension)",
                "url": "https://rickandmortyapi.com/api/location/20"
            },
            "image": "https://rickandmortyapi.com/api/character/avatar/702.jpeg",
            "episode": [
                "https://rickandmortyapi.com/api/episode/43"
            ],
            "url": "https://rickandmortyapi.com/api/character/702",
            "created": "2021-10-16T15:46:56.288Z"
        },
        {
            "id": 703,
            "name": "Mr. Always Wants to be Hunted",
            "status": "Alive",
            "species": "Poopybutthole",
            "type": "",
            "gender": "Male",
            "origin": {
                "name": "unknown",
                "url": ""
            },
            "location": {
                "name": "Earth (Replacement Dimension)",
                "url": "https://rickandmortyapi.com/api/location/20"
            },
            "image": "https://rickandmortyapi.com/api/character/avatar/703.jpeg",
            "episode": [
                "https://rickandmortyapi.com/api/episode/43"
            ],
            "url": "https://rickandmortyapi.com/api/character/703",
            "created": "2021-10-16T15:51:02.924Z"
        },
        {
            "id": 704,
            "name": "Squid Costume Beth",
            "status": "Dead",
            "species": "Robot",
            "type": "Decoy",
            "gender": "Female",
            "origin": {
                "name": "Earth (Replacement Dimension)",
                "url": "https://rickandmortyapi.com/api/location/20"
            },
            "location": {
                "name": "Earth (Replacement Dimension)",
                "url": "https://rickandmortyapi.com/api/location/20"
            },
            "image": "https://rickandmortyapi.com/api/character/avatar/704.jpeg",
            "episode": [
                "https://rickandmortyapi.com/api/episode/43"
            ],
            "url": "https://rickandmortyapi.com/api/character/704",
            "created": "2021-10-16T15:55:49.506Z"
        },
        {
            "id": 705,
            "name": "Squid Costume Jerry",
            "status": "Dead",
            "species": "Robot",
            "type": "Decoy",
            "gender": "Male",
            "origin": {
                "name": "Earth (Replacement Dimension)",
                "url": "https://rickandmortyapi.com/api/location/20"
            },
            "location": {
                "name": "Earth (Replacement Dimension)",
                "url": "https://rickandmortyapi.com/api/location/20"
            },
            "image": "https://rickandmortyapi.com/api/character/avatar/705.jpeg",
            "episode": [
                "https://rickandmortyapi.com/api/episode/43"
            ],
            "url": "https://rickandmortyapi.com/api/character/705",
            "created": "2021-10-16T16:00:00.400Z"
        },
        {
            "id": 706,
            "name": "Squid Costume Morty",
            "status": "Dead",
            "species": "Robot",
            "type": "Decoy",
            "gender": "Male",
            "origin": {
                "name": "Earth (Replacement Dimension)",
                "url": "https://rickandmortyapi.com/api/location/20"
            },
            "location": {
                "name": "Earth (Replacement Dimension)",
                "url": "https://rickandmortyapi.com/api/location/20"
            },
            "image": "https://rickandmortyapi.com/api/character/avatar/706.jpeg",
            "episode": [
                "https://rickandmortyapi.com/api/episode/43"
            ],
            "url": "https://rickandmortyapi.com/api/character/706",
            "created": "2021-10-16T16:01:02.238Z"
        },
        {
            "id": 707,
            "name": "Squid Costume Rick",
            "status": "Dead",
            "species": "Robot",
            "type": "Decoy",
            "gender": "Male",
            "origin": {
                "name": "Earth (Replacement Dimension)",
                "url": "https://rickandmortyapi.com/api/location/20"
            },
            "location": {
                "name": "Earth (Replacement Dimension)",
                "url": "https://rickandmortyapi.com/api/location/20"
            },
            "image": "https://rickandmortyapi.com/api/character/avatar/707.jpeg",
            "episode": [
                "https://rickandmortyapi.com/api/episode/43"
            ],
            "url": "https://rickandmortyapi.com/api/character/707",
            "created": "2021-10-16T16:01:52.437Z"
        },
        {
            "id": 708,
            "name": "Squid Costume Summer",
            "status": "Dead",
            "species": "Robot",
            "type": "Decoy",
            "gender": "Female",
            "origin": {
                "name": "Earth (Replacement Dimension)",
                "url": "https://rickandmortyapi.com/api/location/20"
            },
            "location": {
                "name": "Earth (Replacement Dimension)",
                "url": "https://rickandmortyapi.com/api/location/20"
            },
            "image": "https://rickandmortyapi.com/api/character/avatar/708.jpeg",
            "episode": [
                "https://rickandmortyapi.com/api/episode/43"
            ],
            "url": "https://rickandmortyapi.com/api/character/708",
            "created": "2021-10-16T16:03:02.153Z"
        },
        {
            "id": 709,
            "name": "Dracula",
            "status": "Alive",
            "species": "Mythological Creature",
            "type": "Vampire",
            "gender": "Male",
            "origin": {
                "name": "Interdimensional Cable",
                "url": "https://rickandmortyapi.com/api/location/6"
            },
            "location": {
                "name": "Interdimensional Cable",
                "url": "https://rickandmortyapi.com/api/location/6"
            },
            "image": "https://rickandmortyapi.com/api/character/avatar/709.jpeg",
            "episode": [
                "https://rickandmortyapi.com/api/episode/43"
            ],
            "url": "https://rickandmortyapi.com/api/character/709",
            "created": "2021-10-16T16:04:24.097Z"
        },
        {
            "id": 710,
            "name": "Steve",
            "status": "Alive",
            "species": "Human",
            "type": "",
            "gender": "Male",
            "origin": {
                "name": "Earth (Replacement Dimension)",
                "url": "https://rickandmortyapi.com/api/location/20"
            },
            "location": {
                "name": "Earth (Replacement Dimension)",
                "url": "https://rickandmortyapi.com/api/location/20"
            },
            "image": "https://rickandmortyapi.com/api/character/avatar/710.jpeg",
            "episode": [
                "https://rickandmortyapi.com/api/episode/43"
            ],
            "url": "https://rickandmortyapi.com/api/character/710",
            "created": "2021-10-16T16:06:00.878Z"
        },
        {
            "id": 711,
            "name": "When Wolf",
            "status": "Alive",
            "species": "Mythological Creature",
            "type": "Whenwolf",
            "gender": "Male",
            "origin": {
                "name": "Interdimensional Cable",
                "url": "https://rickandmortyapi.com/api/location/6"
            },
            "location": {
                "name": "Interdimensional Cable",
                "url": "https://rickandmortyapi.com/api/location/6"
            },
            "image": "https://rickandmortyapi.com/api/character/avatar/711.jpeg",
            "episode": [
                "https://rickandmortyapi.com/api/episode/43"
            ],
            "url": "https://rickandmortyapi.com/api/character/711",
            "created": "2021-10-16T16:11:18.457Z"
        },
        {
            "id": 712,
            "name": "Too Cute to Murder Beth",
            "status": "Dead",
            "species": "Robot",
            "type": "Decoy",
            "gender": "Female",
            "origin": {
                "name": "Earth (Replacement Dimension)",
                "url": "https://rickandmortyapi.com/api/location/20"
            },
            "location": {
                "name": "Earth (Replacement Dimension)",
                "url": "https://rickandmortyapi.com/api/location/20"
            },
            "image": "https://rickandmortyapi.com/api/character/avatar/712.jpeg",
            "episode": [
                "https://rickandmortyapi.com/api/episode/43"
            ],
            "url": "https://rickandmortyapi.com/api/character/712",
            "created": "2021-10-17T09:40:13.581Z"
        },
        {
            "id": 713,
            "name": "Too Cute to Murder Rick",
            "status": "Dead",
            "species": "Robot",
            "type": "Decoy",
            "gender": "Male",
            "origin": {
                "name": "Earth (Replacement Dimension)",
                "url": "https://rickandmortyapi.com/api/location/20"
            },
            "location": {
                "name": "Earth (Replacement Dimension)",
                "url": "https://rickandmortyapi.com/api/location/20"
            },
            "image": "https://rickandmortyapi.com/api/character/avatar/713.jpeg",
            "episode": [
                "https://rickandmortyapi.com/api/episode/43"
            ],
            "url": "https://rickandmortyapi.com/api/character/713",
            "created": "2021-10-17T09:40:51.620Z"
        },
        {
            "id": 714,
            "name": "Too Cute to Murder Jerry",
            "status": "Dead",
            "species": "Robot",
            "type": "Decoy",
            "gender": "Male",
            "origin": {
                "name": "Earth (Replacement Dimension)",
                "url": "https://rickandmortyapi.com/api/location/20"
            },
            "location": {
                "name": "Earth (Replacement Dimension)",
                "url": "https://rickandmortyapi.com/api/location/20"
            },
            "image": "https://rickandmortyapi.com/api/character/avatar/714.jpeg",
            "episode": [
                "https://rickandmortyapi.com/api/episode/43"
            ],
            "url": "https://rickandmortyapi.com/api/character/714",
            "created": "2021-10-17T09:41:30.782Z"
        },
        {
            "id": 715,
            "name": "Too Cute to Murder Morty",
            "status": "Dead",
            "species": "Robot",
            "type": "Decoy",
            "gender": "Male",
            "origin": {
                "name": "Earth (Replacement Dimension)",
                "url": "https://rickandmortyapi.com/api/location/20"
            },
            "location": {
                "name": "Earth (Replacement Dimension)",
                "url": "https://rickandmortyapi.com/api/location/20"
            },
            "image": "https://rickandmortyapi.com/api/character/avatar/715.jpeg",
            "episode": [
                "https://rickandmortyapi.com/api/episode/43"
            ],
            "url": "https://rickandmortyapi.com/api/character/715",
            "created": "2021-10-17T09:42:15.208Z"
        },
        {
            "id": 716,
            "name": "Too Cute to Murder Summer",
            "status": "Dead",
            "species": "Robot",
            "type": "Decoy",
            "gender": "Female",
            "origin": {
                "name": "Earth (Replacement Dimension)",
                "url": "https://rickandmortyapi.com/api/location/20"
            },
            "location": {
                "name": "Earth (Replacement Dimension)",
                "url": "https://rickandmortyapi.com/api/location/20"
            },
            "image": "https://rickandmortyapi.com/api/character/avatar/716.jpeg",
            "episode": [
                "https://rickandmortyapi.com/api/episode/43"
            ],
            "url": "https://rickandmortyapi.com/api/character/716",
            "created": "2021-10-17T09:42:51.073Z"
        },
        {
            "id": 717,
            "name": "Planetina",
            "status": "Alive",
            "species": "Humanoid",
            "type": "Summon",
            "gender": "Female",
            "origin": {
                "name": "Elemental Rings",
                "url": "https://rickandmortyapi.com/api/location/111"
            },
            "location": {
                "name": "Earth (Replacement Dimension)",
                "url": "https://rickandmortyapi.com/api/location/20"
            },
            "image": "https://rickandmortyapi.com/api/character/avatar/717.jpeg",
            "episode": [
                "https://rickandmortyapi.com/api/episode/44"
            ],
            "url": "https://rickandmortyapi.com/api/character/717",
            "created": "2021-10-17T09:50:18.307Z"
        },
        {
            "id": 718,
            "name": "Daphne",
            "status": "Alive",
            "species": "Alien",
            "type": "Morglutzian",
            "gender": "Female",
            "origin": {
                "name": "Morglutz",
                "url": "https://rickandmortyapi.com/api/location/112"
            },
            "location": {
                "name": "Ferkus 9",
                "url": "https://rickandmortyapi.com/api/location/113"
            },
            "image": "https://rickandmortyapi.com/api/character/avatar/718.jpeg",
            "episode": [
                "https://rickandmortyapi.com/api/episode/44"
            ],
            "url": "https://rickandmortyapi.com/api/character/718",
            "created": "2021-10-17T09:53:07.883Z"
        },
        {
            "id": 719,
            "name": "Diesel Weasel",
            "status": "Alive",
            "species": "Animal",
            "type": "Weasel",
            "gender": "Male",
            "origin": {
                "name": "Earth (Replacement Dimension)",
                "url": "https://rickandmortyapi.com/api/location/20"
            },
            "location": {
                "name": "Earth (Replacement Dimension)",
                "url": "https://rickandmortyapi.com/api/location/20"
            },
            "image": "https://rickandmortyapi.com/api/character/avatar/719.jpeg",
            "episode": [
                "https://rickandmortyapi.com/api/episode/44"
            ],
            "url": "https://rickandmortyapi.com/api/character/719",
            "created": "2021-10-17T09:55:17.683Z"
        },
        {
            "id": 720,
            "name": "Eddie",
            "status": "Dead",
            "species": "Human",
            "type": "",
            "gender": "Male",
            "origin": {
                "name": "Earth (Replacement Dimension)",
                "url": "https://rickandmortyapi.com/api/location/20"
            },
            "location": {
                "name": "Earth (Replacement Dimension)",
                "url": "https://rickandmortyapi.com/api/location/20"
            },
            "image": "https://rickandmortyapi.com/api/character/avatar/720.jpeg",
            "episode": [
                "https://rickandmortyapi.com/api/episode/44"
            ],
            "url": "https://rickandmortyapi.com/api/character/720",
            "created": "2021-10-17T09:57:07.971Z"
        }
    ]
}