{
    "info": {
        "count": 826,
        "pages": 42,
        "next": "https://rickandmortyapi.com/api/character?page=13",
        "prev": "https://rickandmortyapi.com/api/character?page=11"
    },
    "results": [
        {
            "id": 221,
            "name": "Melissa",
            "status": "Alive",
            "species": "Mythological Creature",
            "type": "Monster",
            "gender": "Female",
            "origin": {
                "name": "Mr. Goldenfold's dream",
                "url": "https://rickandmortyapi.com/api/location/18"
            },
            "location": {
                "name": "Mr. Goldenfold's dream",
                "url": "https://rickandmortyapi.com/api/location/18"
            },
            "image": "https://rickandmortyapi.com/api/character/avatar/221.jpeg",
            "episode": [
                "https://rickandmortyapi.com/api/episode/2"
            ],
            "url": "https://rickandmortyapi.com/api/character/221",
            "created": "2017-12-30T14:38:04.718Z"
        },
        {
            "id": 222,
            "name": "Michael Denny and the Denny Singers",
            "status": "Alive",
            "species": "Human",
            "type": "",
            "gender": "Male",
            "origin": {
                "name": "unknown",
                "url": ""
            },
            "location": {
                "name": "Interdimensional Cable",
                "url": "https://rickandmortyapi.com/api/location/6"
            },
            "image": "https://rickandmortyapi.com/api/character/avatar/222.jpeg",
            "episode": [
                "https://rickandmortyapi.com/api/episode/8"
            ],
            "url": "https://rickandmortyapi.com/api/character/222",
            "created": "2017-12-30T14:44:05.245Z"
        },
        {
            "id": 223,
            "name": "Michael Jenkins",
            "status": "Dead",
            "species": "Human",
            "type": "",
            "gender": "Male",
            "origin": {
                "name": "unknown",
                "url": ""
            },
            "location": {
                "name": "Interdimensional Cable",
                "url": "https://rickandmortyapi.com/api/location/6"
            },
            "image": "https://rickandmortyapi.com/api/character/avatar/223.jpeg",
            "episode": [
                "https://rickandmortyapi.com/api/episode/19"
            ],
            "url": "https://rickandmortyapi.com/api/character/223",
            "created": "2017-12-30T14:44:51.373Z"
        },
        {
            "id": 224,
            "name": "Michael McLick",
            "status": "Alive",
            "species": "Human",
            "type": "",
            "gender": "Male",
            "origin": {
                "name": "unknown",
                "url": ""
            },
            "location": {
                "name": "Interdimensional Cable",
                "url": "https://rickandmortyapi.com/api/location/6"
            },
            "image": "https://rickandmortyapi.com/api/character/avatar/224.jpeg",
            "episode": [
                "https://rickandmortyapi.com/api/episode/19"
            ],
            "url": "https://rickandmortyapi.com/api/character/224",
            "created": "2017-12-30T15:49:28.666Z"
        },
        {
            "id": 225,
            "name": "Michael Thompson",
            "status": "Alive",
            "species": "Humanoid",
            "type": "Conjoined twin",
            "gender": "Male",
            "origin": {
                "name": "unknown",
                "url": ""
            },
            "location": {
                "name": "Interdimensional Cable",
                "url": "https://rickandmortyapi.com/api/location/6"
            },
            "image": "https://rickandmortyapi.com/api/character/avatar/225.jpeg",
            "episode": [
                "https://rickandmortyapi.com/api/episode/19"
            ],
            "url": "https://rickandmortyapi.com/api/character/225",
            "created": "2017-12-30T15:59:31.558Z"
        },
        {
            "id": 226,
            "name": "Million Ants",
            "status": "Dead",
            "species": "Animal",
            "type": "Sentient ant colony",
            "gender": "Male",
            "origin": {
                "name": "unknown",
                "url": ""
            },
            "location": {
                "name": "Worldender's lair",
                "url": "https://rickandmortyapi.com/api/location/4"
            },
            "image": "https://rickandmortyapi.com/api/character/avatar/226.jpeg",
            "episode": [
                "https://rickandmortyapi.com/api/episode/25"
            ],
            "url": "https://rickandmortyapi.com/api/character/226",
            "created": "2017-12-30T16:04:56.879Z"
        },
        {
            "id": 227,
            "name": "Mitch",
            "status": "Alive",
            "species": "Human",
            "type": "",
            "gender": "Male",
            "origin": {
                "name": "Earth (Replacement Dimension)",
                "url": "https://rickandmortyapi.com/api/location/20"
            },
            "location": {
                "name": "Earth (Replacement Dimension)",
                "url": "https://rickandmortyapi.com/api/location/20"
            },
            "image": "https://rickandmortyapi.com/api/character/avatar/227.jpeg",
            "episode": [
                "https://rickandmortyapi.com/api/episode/27"
            ],
            "url": "https://rickandmortyapi.com/api/character/227",
            "created": "2017-12-30T16:08:38.157Z"
        },
        {
            "id": 228,
            "name": "Mohawk Guy",
            "status": "Dead",
            "species": "Human",
            "type": "",
            "gender": "Male",
            "origin": {
                "name": "Post-Apocalyptic Earth",
                "url": "https://rickandmortyapi.com/api/location/8"
            },
            "location": {
                "name": "Post-Apocalyptic Earth",
                "url": "https://rickandmortyapi.com/api/location/8"
            },
            "image": "https://rickandmortyapi.com/api/character/avatar/228.jpeg",
            "episode": [
                "https://rickandmortyapi.com/api/episode/23"
            ],
            "url": "https://rickandmortyapi.com/api/character/228",
            "created": "2017-12-30T16:10:03.881Z"
        },
        {
            "id": 229,
            "name": "Morty Mart Manager Morty",
            "status": "Alive",
            "species": "Human",
            "type": "",
            "gender": "Male",
            "origin": {
                "name": "unknown",
                "url": ""
            },
            "location": {
                "name": "Citadel of Ricks",
                "url": "https://rickandmortyapi.com/api/location/3"
            },
            "image": "https://rickandmortyapi.com/api/character/avatar/229.jpeg",
            "episode": [
                "https://rickandmortyapi.com/api/episode/28"
            ],
            "url": "https://rickandmortyapi.com/api/character/229",
            "created": "2017-12-30T16:12:33.382Z"
        },
        {
            "id": 230,
            "name": "Morty Jr.",
            "status": "Alive",
            "species": "Humanoid",
            "type": "Human Gazorpian",
            "gender": "Male",
            "origin": {
                "name": "Earth (Replacement Dimension)",
                "url": "https://rickandmortyapi.com/api/location/20"
            },
            "location": {
                "name": "Earth (Replacement Dimension)",
                "url": "https://rickandmortyapi.com/api/location/20"
            },
            "image": "https://rickandmortyapi.com/api/character/avatar/230.jpeg",
            "episode": [
                "https://rickandmortyapi.com/api/episode/7"
            ],
            "url": "https://rickandmortyapi.com/api/character/230",
            "created": "2017-12-30T16:20:51.391Z"
        },
        {
            "id": 231,
            "name": "Morty Rick",
            "status": "unknown",
            "species": "Human",
            "type": "",
            "gender": "Male",
            "origin": {
                "name": "unknown",
                "url": ""
            },
            "location": {
                "name": "Citadel of Ricks",
                "url": "https://rickandmortyapi.com/api/location/3"
            },
            "image": "https://rickandmortyapi.com/api/character/avatar/231.jpeg",
            "episode": [
                "https://rickandmortyapi.com/api/episode/22"
            ],
            "url": "https://rickandmortyapi.com/api/character/231",
            "created": "2017-12-30T16:23:45.894Z"
        },
        {
            "id": 232,
            "name": "Morty Smith",
            "status": "Alive",
            "species": "Human",
            "type": "",
            "gender": "Male",
            "origin": {
                "name": "Earth (Evil Rick's Target Dimension)",
                "url": "https://rickandmortyapi.com/api/location/34"
            },
            "location": {
                "name": "Earth (Evil Rick's Target Dimension)",
                "url": "https://rickandmortyapi.com/api/location/34"
            },
            "image": "https://rickandmortyapi.com/api/character/avatar/232.jpeg",
            "episode": [
                "https://rickandmortyapi.com/api/episode/10"
            ],
            "url": "https://rickandmortyapi.com/api/character/232",
            "created": "2017-12-30T16:29:27.863Z"
        },
        {
            "id": 233,
            "name": "Morty K-22",
            "status": "Alive",
            "species": "Human",
            "type": "",
            "gender": "Male",
            "origin": {
                "name": "Earth (K-22)",
                "url": "https://rickandmortyapi.com/api/location/52"
            },
            "location": {
                "name": "Earth (Replacement Dimension)",
                "url": "https://rickandmortyapi.com/api/location/20"
            },
            "image": "https://rickandmortyapi.com/api/character/avatar/233.jpeg",
            "episode": [
                "https://rickandmortyapi.com/api/episode/28"
            ],
            "url": "https://rickandmortyapi.com/api/character/233",
            "created": "2017-12-30T16:33:49.577Z"
        },
        {
            "id": 234,
            "name": "Morty Smith",
            "status": "Dead",
            "species": "Human",
            "type": "",
            "gender": "Male",
            "origin": {
                "name": "Earth (Replacement Dimension)",
                "url": "https://rickandmortyapi.com/api/location/20"
            },
            "location": {
                "name": "Earth (Replacement Dimension)",
                "url": "https://rickandmortyapi.com/api/location/20"
            },
            "image": "https://rickandmortyapi.com/api/character/avatar/234.jpeg",
            "episode": [
                "https://rickandmortyapi.com/api/episode/6"
            ],
            "url": "https://rickandmortyapi.com/api/character/234",
            "created": "2017-12-30T16:35:01.223Z"
        },
        {
            "id": 235,
            "name": "Mortytown Loco",
            "status": "Dead",
            "species": "Human",
            "type": "",
            "gender": "Male",
            "origin": {
                "name": "unknown",
                "url": ""
            },
            "location": {
                "name": "Citadel of Ricks",
                "url": "https://rickandmortyapi.com/api/location/3"
            },
            "image": "https://rickandmortyapi.com/api/character/avatar/235.jpeg",
            "episode": [
                "https://rickandmortyapi.com/api/episode/28"
            ],
            "url": "https://rickandmortyapi.com/api/character/235",
            "created": "2017-12-30T16:37:07.150Z"
        },
        {
            "id": 236,
            "name": "Mr. Beauregard",
            "status": "Dead",
            "species": "Alien",
            "type": "Parasite",
            "gender": "Male",
            "origin": {
                "name": "unknown",
                "url": ""
            },
            "location": {
                "name": "Earth (Replacement Dimension)",
                "url": "https://rickandmortyapi.com/api/location/20"
            },
            "image": "https://rickandmortyapi.com/api/character/avatar/236.jpeg",
            "episode": [
                "https://rickandmortyapi.com/api/episode/15"
            ],
            "url": "https://rickandmortyapi.com/api/character/236",
            "created": "2017-12-30T17:28:28.409Z"
        },
        {
            "id": 237,
            "name": "Mr. Benson",
            "status": "Alive",
            "species": "Human",
            "type": "",
            "gender": "Male",
            "origin": {
                "name": "Earth (Replacement Dimension)",
                "url": "https://rickandmortyapi.com/api/location/20"
            },
            "location": {
                "name": "Earth (Replacement Dimension)",
                "url": "https://rickandmortyapi.com/api/location/20"
            },
            "image": "https://rickandmortyapi.com/api/character/avatar/237.jpeg",
            "episode": [
                "https://rickandmortyapi.com/api/episode/12"
            ],
            "url": "https://rickandmortyapi.com/api/character/237",
            "created": "2017-12-30T17:30:31.757Z"
        },
        {
            "id": 238,
            "name": "Mr. Booby Buyer",
            "status": "Alive",
            "species": "Mythological Creature",
            "type": "Boobie buyer reptilian",
            "gender": "Male",
            "origin": {
                "name": "Fantasy World",
                "url": "https://rickandmortyapi.com/api/location/48"
            },
            "location": {
                "name": "Fantasy World",
                "url": "https://rickandmortyapi.com/api/location/48"
            },
            "image": "https://rickandmortyapi.com/api/character/avatar/238.jpeg",
            "episode": [
                "https://rickandmortyapi.com/api/episode/5"
            ],
            "url": "https://rickandmortyapi.com/api/character/238",
            "created": "2017-12-30T17:36:12.853Z"
        },
        {
            "id": 239,
            "name": "Mr. Goldenfold",
            "status": "Alive",
            "species": "Cronenberg",
            "type": "",
            "gender": "Male",
            "origin": {
                "name": "Earth (C-137)",
                "url": "https://rickandmortyapi.com/api/location/1"
            },
            "location": {
                "name": "Earth (C-137)",
                "url": "https://rickandmortyapi.com/api/location/1"
            },
            "image": "https://rickandmortyapi.com/api/character/avatar/239.jpeg",
            "episode": [
                "https://rickandmortyapi.com/api/episode/1",
                "https://rickandmortyapi.com/api/episode/2",
                "https://rickandmortyapi.com/api/episode/4",
                "https://rickandmortyapi.com/api/episode/6"
            ],
            "url": "https://rickandmortyapi.com/api/character/239",
            "created": "2017-12-30T17:42:11.894Z"
        },
        {
            "id": 240,
            "name": "Mr. Goldenfold",
            "status": "Alive",
            "species": "Human",
            "type": "",
            "gender": "Male",
            "origin": {
                "name": "Earth (Replacement Dimension)",
                "url": "https://rickandmortyapi.com/api/location/20"
            },
            "location": {
                "name": "Earth (Replacement Dimension)",
                "url": "https://rickandmortyapi.com/api/location/20"
            },
            "image": "https://rickandmortyapi.com/api/character/avatar/240.jpeg",
            "episode": [
                "https://rickandmortyapi.com/api/episode/9",
                "https://rickandmortyapi.com/api/episode/16",
                "https://rickandmortyapi.com/api/episode/17",
                "https://rickandmortyapi.com/api/episode/18",
                "https://rickandmortyapi.com/api/episode/21",
                "https://rickandmortyapi.com/api/episode/22",
                "https://rickandmortyapi.com/api/episode/24",
                "https://rickandmortyapi.com/api/episode/27",
                "https://rickandmortyapi.com/api/episode/30",
                "https://rickandmortyapi.com/api/episode/39"
            ],
            "url": "https://rickandmortyapi.com/api/character/240",
            "created": "2017-12-30T17:42:56.349Z"
        }
    ]
}