{
    "info": {
        "count": 826,
        "pages": 42,
        "next": "https://rickandmortyapi.com/api/character?page=31",
        "prev": "https://rickandmortyapi.com/api/character?page=29"
    },
    "results": [
        {
            "id": 581,
            "name": "Anchosnake",
            "status": "Alive",
            "species": "Animal",
            "type": "Snake",
            "gender": "Male",
            "origin": {
                "name": "Snake Planet",
                "url": "https://rickandmortyapi.com/api/location/78"
            },
            "location": {
                "name": "Snake Planet",
                "url": "https://rickandmortyapi.com/api/location/78"
            },
            "image": "https://rickandmortyapi.com/api/character/avatar/581.jpeg",
            "episode": [
                "https://rickandmortyapi.com/api/episode/36"
            ],
            "url": "https://rickandmortyapi.com/api/character/581",
            "created": "2020-05-07T12:24:45.750Z"
        },
        {
            "id": 582,
            "name": "Anchosnake",
            "status": "Alive",
            "species": "Animal",
            "type": "Snake",
            "gender": "Female",
            "origin": {
                "name": "Snake Planet",
                "url": "https://rickandmortyapi.com/api/location/78"
            },
            "location": {
                "name": "Snake Planet",
                "url": "https://rickandmortyapi.com/api/location/78"
            },
            "image": "https://rickandmortyapi.com/api/character/avatar/582.jpeg",
            "episode": [
                "https://rickandmortyapi.com/api/episode/36"
            ],
            "url": "https://rickandmortyapi.com/api/character/582",
            "created": "2020-05-07T12:25:29.472Z"
        },
        {
            "id": 583,
            "name": "80's snake",
            "status": "unknown",
            "species": "Animal",
            "type": "Snake",
            "gender": "Male",
            "origin": {
                "name": "Snake Planet",
                "url": "https://rickandmortyapi.com/api/location/78"
            },
            "location": {
                "name": "Snake Planet",
                "url": "https://rickandmortyapi.com/api/location/78"
            },
            "image": "https://rickandmortyapi.com/api/character/avatar/583.jpeg",
            "episode": [
                "https://rickandmortyapi.com/api/episode/36"
            ],
            "url": "https://rickandmortyapi.com/api/character/583",
            "created": "2020-05-07T12:29:30.948Z"
        },
        {
            "id": 584,
            "name": "Bar Customer",
            "status": "Alive",
            "species": "Human",
            "type": "",
            "gender": "Male",
            "origin": {
                "name": "Earth (Replacement Dimension)",
                "url": "https://rickandmortyapi.com/api/location/20"
            },
            "location": {
                "name": "Earth (Replacement Dimension)",
                "url": "https://rickandmortyapi.com/api/location/20"
            },
            "image": "https://rickandmortyapi.com/api/character/avatar/584.jpeg",
            "episode": [
                "https://rickandmortyapi.com/api/episode/36"
            ],
            "url": "https://rickandmortyapi.com/api/character/584",
            "created": "2020-05-07T12:37:52.695Z"
        },
        {
            "id": 585,
            "name": "Bartender",
            "status": "Alive",
            "species": "Human",
            "type": "",
            "gender": "Female",
            "origin": {
                "name": "Earth (Replacement Dimension)",
                "url": "https://rickandmortyapi.com/api/location/20"
            },
            "location": {
                "name": "Earth (Replacement Dimension)",
                "url": "https://rickandmortyapi.com/api/location/20"
            },
            "image": "https://rickandmortyapi.com/api/character/avatar/585.jpeg",
            "episode": [
                "https://rickandmortyapi.com/api/episode/36"
            ],
            "url": "https://rickandmortyapi.com/api/character/585",
            "created": "2020-05-07T12:38:23.983Z"
        },
        {
            "id": 586,
            "name": "PC Basketball Player",
            "status": "Alive",
            "species": "Human",
            "type": "",
            "gender": "Male",
            "origin": {
                "name": "Earth (Replacement Dimension)",
                "url": "https://rickandmortyapi.com/api/location/20"
            },
            "location": {
                "name": "Earth (Replacement Dimension)",
                "url": "https://rickandmortyapi.com/api/location/20"
            },
            "image": "https://rickandmortyapi.com/api/character/avatar/586.jpeg",
            "episode": [
                "https://rickandmortyapi.com/api/episode/36"
            ],
            "url": "https://rickandmortyapi.com/api/character/586",
            "created": "2020-05-07T12:42:24.982Z"
        },
        {
            "id": 587,
            "name": "Cavesnake",
            "status": "Dead",
            "species": "Animal",
            "type": "Snake",
            "gender": "Male",
            "origin": {
                "name": "Snake Planet",
                "url": "https://rickandmortyapi.com/api/location/78"
            },
            "location": {
                "name": "Snake Planet",
                "url": "https://rickandmortyapi.com/api/location/78"
            },
            "image": "https://rickandmortyapi.com/api/character/avatar/587.jpeg",
            "episode": [
                "https://rickandmortyapi.com/api/episode/36"
            ],
            "url": "https://rickandmortyapi.com/api/character/587",
            "created": "2020-05-07T12:45:42.686Z"
        },
        {
            "id": 588,
            "name": "Pet Shop Employee",
            "status": "Alive",
            "species": "Human",
            "type": "",
            "gender": "Male",
            "origin": {
                "name": "Earth (Replacement Dimension)",
                "url": "https://rickandmortyapi.com/api/location/20"
            },
            "location": {
                "name": "Earth (Replacement Dimension)",
                "url": "https://rickandmortyapi.com/api/location/20"
            },
            "image": "https://rickandmortyapi.com/api/character/avatar/588.jpeg",
            "episode": [
                "https://rickandmortyapi.com/api/episode/36"
            ],
            "url": "https://rickandmortyapi.com/api/character/588",
            "created": "2020-05-07T12:46:51.424Z"
        },
        {
            "id": 589,
            "name": "Snake Reporter",
            "status": "Alive",
            "species": "Animal",
            "type": "Snake",
            "gender": "Male",
            "origin": {
                "name": "Snake Planet",
                "url": "https://rickandmortyapi.com/api/location/78"
            },
            "location": {
                "name": "Snake Planet",
                "url": "https://rickandmortyapi.com/api/location/78"
            },
            "image": "https://rickandmortyapi.com/api/character/avatar/589.jpeg",
            "episode": [
                "https://rickandmortyapi.com/api/episode/36"
            ],
            "url": "https://rickandmortyapi.com/api/character/589",
            "created": "2020-05-07T12:50:06.523Z"
        },
        {
            "id": 590,
            "name": "High Pilot",
            "status": "unknown",
            "species": "Human",
            "type": "",
            "gender": "Male",
            "origin": {
                "name": "Earth (Replacement Dimension)",
                "url": "https://rickandmortyapi.com/api/location/20"
            },
            "location": {
                "name": "Earth (Replacement Dimension)",
                "url": "https://rickandmortyapi.com/api/location/20"
            },
            "image": "https://rickandmortyapi.com/api/character/avatar/590.jpeg",
            "episode": [
                "https://rickandmortyapi.com/api/episode/36"
            ],
            "url": "https://rickandmortyapi.com/api/character/590",
            "created": "2020-05-07T12:55:35.833Z"
        },
        {
            "id": 591,
            "name": "High Pilot",
            "status": "unknown",
            "species": "Human",
            "type": "",
            "gender": "Male",
            "origin": {
                "name": "Earth (Replacement Dimension)",
                "url": "https://rickandmortyapi.com/api/location/20"
            },
            "location": {
                "name": "Earth (Replacement Dimension)",
                "url": "https://rickandmortyapi.com/api/location/20"
            },
            "image": "https://rickandmortyapi.com/api/character/avatar/591.jpeg",
            "episode": [
                "https://rickandmortyapi.com/api/episode/36"
            ],
            "url": "https://rickandmortyapi.com/api/character/591",
            "created": "2020-05-07T12:56:10.200Z"
        },
        {
            "id": 592,
            "name": "Phoenixperson",
            "status": "Dead",
            "species": "Alien",
            "type": "Cyborg",
            "gender": "Male",
            "origin": {
                "name": "Bird World",
                "url": "https://rickandmortyapi.com/api/location/15"
            },
            "location": {
                "name": "Earth (Replacement Dimension)",
                "url": "https://rickandmortyapi.com/api/location/20"
            },
            "image": "https://rickandmortyapi.com/api/character/avatar/592.jpeg",
            "episode": [
                "https://rickandmortyapi.com/api/episode/22",
                "https://rickandmortyapi.com/api/episode/41",
                "https://rickandmortyapi.com/api/episode/49"
            ],
            "url": "https://rickandmortyapi.com/api/character/592",
            "created": "2020-08-05T12:43:16.671Z"
        },
        {
            "id": 593,
            "name": "Tickets Please Guy",
            "status": "Dead",
            "species": "Human",
            "type": "Soulless Puppet",
            "gender": "Male",
            "origin": {
                "name": "Story Train",
                "url": "https://rickandmortyapi.com/api/location/96"
            },
            "location": {
                "name": "Non-Diegetic Alternative Reality",
                "url": "https://rickandmortyapi.com/api/location/97"
            },
            "image": "https://rickandmortyapi.com/api/character/avatar/593.jpeg",
            "episode": [
                "https://rickandmortyapi.com/api/episode/37"
            ],
            "url": "https://rickandmortyapi.com/api/character/593",
            "created": "2020-08-06T09:51:15.102Z"
        },
        {
            "id": 594,
            "name": "Floaty Bloody Man",
            "status": "Dead",
            "species": "Human",
            "type": "Half Soulless Puppet",
            "gender": "Male",
            "origin": {
                "name": "Tickets Please Guy Nightmare",
                "url": "https://rickandmortyapi.com/api/location/98"
            },
            "location": {
                "name": "Tickets Please Guy Nightmare",
                "url": "https://rickandmortyapi.com/api/location/98"
            },
            "image": "https://rickandmortyapi.com/api/character/avatar/594.jpeg",
            "episode": [
                "https://rickandmortyapi.com/api/episode/37"
            ],
            "url": "https://rickandmortyapi.com/api/character/594",
            "created": "2020-08-06T09:54:08.973Z"
        },
        {
            "id": 595,
            "name": "Floaty Non-Gasm Brotherhood Member",
            "status": "Dead",
            "species": "Alien",
            "type": "Soulless Puppet",
            "gender": "Male",
            "origin": {
                "name": "Tickets Please Guy Nightmare",
                "url": "https://rickandmortyapi.com/api/location/98"
            },
            "location": {
                "name": "Tickets Please Guy Nightmare",
                "url": "https://rickandmortyapi.com/api/location/98"
            },
            "image": "https://rickandmortyapi.com/api/character/avatar/595.jpeg",
            "episode": [
                "https://rickandmortyapi.com/api/episode/37"
            ],
            "url": "https://rickandmortyapi.com/api/character/595",
            "created": "2020-08-06T11:30:50.675Z"
        },
        {
            "id": 596,
            "name": "Floaty Non-Gasm Brotherhood Member Friend",
            "status": "Dead",
            "species": "Alien",
            "type": "Soulless Puppet",
            "gender": "Female",
            "origin": {
                "name": "Tickets Please Guy Nightmare",
                "url": "https://rickandmortyapi.com/api/location/98"
            },
            "location": {
                "name": "Tickets Please Guy Nightmare",
                "url": "https://rickandmortyapi.com/api/location/98"
            },
            "image": "https://rickandmortyapi.com/api/character/avatar/596.jpeg",
            "episode": [
                "https://rickandmortyapi.com/api/episode/37"
            ],
            "url": "https://rickandmortyapi.com/api/character/596",
            "created": "2020-08-06T11:31:40.334Z"
        },
        {
            "id": 597,
            "name": "Abradolf Lincler",
            "status": "Alive",
            "species": "Human",
            "type": "Soulless Puppet",
            "gender": "Male",
            "origin": {
                "name": "Story Train",
                "url": "https://rickandmortyapi.com/api/location/96"
            },
            "location": {
                "name": "Story Train",
                "url": "https://rickandmortyapi.com/api/location/96"
            },
            "image": "https://rickandmortyapi.com/api/character/avatar/597.jpeg",
            "episode": [
                "https://rickandmortyapi.com/api/episode/37"
            ],
            "url": "https://rickandmortyapi.com/api/character/597",
            "created": "2020-08-06T11:33:03.426Z"
        },
        {
            "id": 598,
            "name": "Biblesaurus",
            "status": "Alive",
            "species": "Animal",
            "type": "Soulless Puppet",
            "gender": "Male",
            "origin": {
                "name": "Story Train",
                "url": "https://rickandmortyapi.com/api/location/96"
            },
            "location": {
                "name": "Story Train",
                "url": "https://rickandmortyapi.com/api/location/96"
            },
            "image": "https://rickandmortyapi.com/api/character/avatar/598.jpeg",
            "episode": [
                "https://rickandmortyapi.com/api/episode/37"
            ],
            "url": "https://rickandmortyapi.com/api/character/598",
            "created": "2020-08-06T11:37:30.354Z"
        },
        {
            "id": 599,
            "name": "Birdperson",
            "status": "Alive",
            "species": "Alien",
            "type": "Soulless Puppet",
            "gender": "Male",
            "origin": {
                "name": "Story Train",
                "url": "https://rickandmortyapi.com/api/location/96"
            },
            "location": {
                "name": "Story Train",
                "url": "https://rickandmortyapi.com/api/location/96"
            },
            "image": "https://rickandmortyapi.com/api/character/avatar/599.jpeg",
            "episode": [
                "https://rickandmortyapi.com/api/episode/37"
            ],
            "url": "https://rickandmortyapi.com/api/character/599",
            "created": "2020-08-06T11:39:56.623Z"
        },
        {
            "id": 600,
            "name": "Cats Fan",
            "status": "Alive",
            "species": "Alien",
            "type": "Soulless Puppet",
            "gender": "Female",
            "origin": {
                "name": "Story Train",
                "url": "https://rickandmortyapi.com/api/location/96"
            },
            "location": {
                "name": "Story Train",
                "url": "https://rickandmortyapi.com/api/location/96"
            },
            "image": "https://rickandmortyapi.com/api/character/avatar/600.jpeg",
            "episode": [
                "https://rickandmortyapi.com/api/episode/37"
            ],
            "url": "https://rickandmortyapi.com/api/character/600",
            "created": "2020-08-06T11:40:42.974Z"
        }
    ]
}