{
    "info": {
        "count": 826,
        "pages": 42,
        "next": "https://rickandmortyapi.com/api/character?page=22",
        "prev": "https://rickandmortyapi.com/api/character?page=20"
    },
    "results": [
        {
            "id": 401,
            "name": "Morty Jr's interviewer",
            "status": "Alive",
            "species": "Human",
            "type": "",
            "gender": "Male",
            "origin": {
                "name": "Earth (Replacement Dimension)",
                "url": "https://rickandmortyapi.com/api/location/20"
            },
            "location": {
                "name": "Earth (Replacement Dimension)",
                "url": "https://rickandmortyapi.com/api/location/20"
            },
            "image": "https://rickandmortyapi.com/api/character/avatar/401.jpeg",
            "episode": [
                "https://rickandmortyapi.com/api/episode/7"
            ],
            "url": "https://rickandmortyapi.com/api/character/401",
            "created": "2018-04-15T17:43:56.832Z"
        },
        {
            "id": 402,
            "name": "Guy from The Bachelor",
            "status": "Alive",
            "species": "Human",
            "type": "",
            "gender": "Male",
            "origin": {
                "name": "Earth (Replacement Dimension)",
                "url": "https://rickandmortyapi.com/api/location/20"
            },
            "location": {
                "name": "Earth (Replacement Dimension)",
                "url": "https://rickandmortyapi.com/api/location/20"
            },
            "image": "https://rickandmortyapi.com/api/character/avatar/402.jpeg",
            "episode": [
                "https://rickandmortyapi.com/api/episode/8"
            ],
            "url": "https://rickandmortyapi.com/api/character/402",
            "created": "2018-04-15T17:45:38.589Z"
        },
        {
            "id": 403,
            "name": "Corn detective",
            "status": "Dead",
            "species": "Humanoid",
            "type": "Corn-person",
            "gender": "Male",
            "origin": {
                "name": "Interdimensional Cable",
                "url": "https://rickandmortyapi.com/api/location/6"
            },
            "location": {
                "name": "Interdimensional Cable",
                "url": "https://rickandmortyapi.com/api/location/6"
            },
            "image": "https://rickandmortyapi.com/api/character/avatar/403.jpeg",
            "episode": [
                "https://rickandmortyapi.com/api/episode/8"
            ],
            "url": "https://rickandmortyapi.com/api/character/403",
            "created": "2018-04-15T17:48:50.629Z"
        },
        {
            "id": 404,
            "name": "Michael Jackson",
            "status": "Alive",
            "species": "Humanoid",
            "type": "Phone-Person",
            "gender": "Male",
            "origin": {
                "name": "Earth (Phone Dimension)",
                "url": "https://rickandmortyapi.com/api/location/72"
            },
            "location": {
                "name": "Earth (Phone Dimension)",
                "url": "https://rickandmortyapi.com/api/location/72"
            },
            "image": "https://rickandmortyapi.com/api/character/avatar/404.jpeg",
            "episode": [
                "https://rickandmortyapi.com/api/episode/8"
            ],
            "url": "https://rickandmortyapi.com/api/character/404",
            "created": "2018-04-15T18:01:09.637Z"
        },
        {
            "id": 405,
            "name": "Trunkphobic suspenders guy",
            "status": "Alive",
            "species": "Human",
            "type": "",
            "gender": "Male",
            "origin": {
                "name": "unknown",
                "url": ""
            },
            "location": {
                "name": "Earth (Replacement Dimension)",
                "url": "https://rickandmortyapi.com/api/location/20"
            },
            "image": "https://rickandmortyapi.com/api/character/avatar/405.jpeg",
            "episode": [
                "https://rickandmortyapi.com/api/episode/2",
                "https://rickandmortyapi.com/api/episode/8",
                "https://rickandmortyapi.com/api/episode/10",
                "https://rickandmortyapi.com/api/episode/11"
            ],
            "url": "https://rickandmortyapi.com/api/character/405",
            "created": "2018-04-15T20:31:46.065Z"
        },
        {
            "id": 406,
            "name": "Spiderweb teddy bear",
            "status": "Alive",
            "species": "Animal",
            "type": "Teddy Bear",
            "gender": "unknown",
            "origin": {
                "name": "Interdimensional Cable",
                "url": "https://rickandmortyapi.com/api/location/6"
            },
            "location": {
                "name": "Interdimensional Cable",
                "url": "https://rickandmortyapi.com/api/location/6"
            },
            "image": "https://rickandmortyapi.com/api/character/avatar/406.jpeg",
            "episode": [
                "https://rickandmortyapi.com/api/episode/8"
            ],
            "url": "https://rickandmortyapi.com/api/character/406",
            "created": "2018-04-15T20:45:04.863Z"
        },
        {
            "id": 407,
            "name": "Regular Tyrion Lannister",
            "status": "Alive",
            "species": "Human",
            "type": "",
            "gender": "Male",
            "origin": {
                "name": "Interdimensional Cable",
                "url": "https://rickandmortyapi.com/api/location/6"
            },
            "location": {
                "name": "Interdimensional Cable",
                "url": "https://rickandmortyapi.com/api/location/6"
            },
            "image": "https://rickandmortyapi.com/api/character/avatar/407.jpeg",
            "episode": [
                "https://rickandmortyapi.com/api/episode/8"
            ],
            "url": "https://rickandmortyapi.com/api/character/407",
            "created": "2018-04-15T20:50:10.475Z"
        },
        {
            "id": 408,
            "name": "Quick Mystery Presenter",
            "status": "Alive",
            "species": "Human",
            "type": "",
            "gender": "Male",
            "origin": {
                "name": "Interdimensional Cable",
                "url": "https://rickandmortyapi.com/api/location/6"
            },
            "location": {
                "name": "Interdimensional Cable",
                "url": "https://rickandmortyapi.com/api/location/6"
            },
            "image": "https://rickandmortyapi.com/api/character/avatar/408.jpeg",
            "episode": [
                "https://rickandmortyapi.com/api/episode/8"
            ],
            "url": "https://rickandmortyapi.com/api/character/408",
            "created": "2018-04-15T20:51:47.778Z"
        },
        {
            "id": 409,
            "name": "Mr. Sneezy",
            "status": "Alive",
            "species": "Human",
            "type": "Little Human",
            "gender": "Male",
            "origin": {
                "name": "Interdimensional Cable",
                "url": "https://rickandmortyapi.com/api/location/6"
            },
            "location": {
                "name": "Interdimensional Cable",
                "url": "https://rickandmortyapi.com/api/location/6"
            },
            "image": "https://rickandmortyapi.com/api/character/avatar/409.jpeg",
            "episode": [
                "https://rickandmortyapi.com/api/episode/8"
            ],
            "url": "https://rickandmortyapi.com/api/character/409",
            "created": "2018-04-15T21:04:09.405Z"
        },
        {
            "id": 410,
            "name": "Two Brothers",
            "status": "Alive",
            "species": "Human",
            "type": "",
            "gender": "Male",
            "origin": {
                "name": "Interdimensional Cable",
                "url": "https://rickandmortyapi.com/api/location/6"
            },
            "location": {
                "name": "Interdimensional Cable",
                "url": "https://rickandmortyapi.com/api/location/6"
            },
            "image": "https://rickandmortyapi.com/api/character/avatar/410.jpeg",
            "episode": [
                "https://rickandmortyapi.com/api/episode/8"
            ],
            "url": "https://rickandmortyapi.com/api/character/410",
            "created": "2018-04-15T21:06:18.686Z"
        },
        {
            "id": 411,
            "name": "Alien Mexican Armada",
            "status": "unknown",
            "species": "Alien",
            "type": "Mexican",
            "gender": "Male",
            "origin": {
                "name": "Interdimensional Cable",
                "url": "https://rickandmortyapi.com/api/location/6"
            },
            "location": {
                "name": "Interdimensional Cable",
                "url": "https://rickandmortyapi.com/api/location/6"
            },
            "image": "https://rickandmortyapi.com/api/character/avatar/411.jpeg",
            "episode": [
                "https://rickandmortyapi.com/api/episode/8"
            ],
            "url": "https://rickandmortyapi.com/api/character/411",
            "created": "2018-04-15T21:10:27.986Z"
        },
        {
            "id": 412,
            "name": "Giant Cat Monster",
            "status": "unknown",
            "species": "Animal",
            "type": "Giant Cat Monster",
            "gender": "unknown",
            "origin": {
                "name": "Interdimensional Cable",
                "url": "https://rickandmortyapi.com/api/location/6"
            },
            "location": {
                "name": "Interdimensional Cable",
                "url": "https://rickandmortyapi.com/api/location/6"
            },
            "image": "https://rickandmortyapi.com/api/character/avatar/412.jpeg",
            "episode": [
                "https://rickandmortyapi.com/api/episode/8"
            ],
            "url": "https://rickandmortyapi.com/api/character/412",
            "created": "2018-04-15T21:14:09.223Z"
        },
        {
            "id": 413,
            "name": "Old Women",
            "status": "unknown",
            "species": "Human",
            "type": "Old Amazons",
            "gender": "Female",
            "origin": {
                "name": "Interdimensional Cable",
                "url": "https://rickandmortyapi.com/api/location/6"
            },
            "location": {
                "name": "Interdimensional Cable",
                "url": "https://rickandmortyapi.com/api/location/6"
            },
            "image": "https://rickandmortyapi.com/api/character/avatar/413.jpeg",
            "episode": [
                "https://rickandmortyapi.com/api/episode/8"
            ],
            "url": "https://rickandmortyapi.com/api/character/413",
            "created": "2018-04-15T21:21:32.623Z"
        },
        {
            "id": 414,
            "name": "Trunkphobic guy",
            "status": "Alive",
            "species": "Human",
            "type": "",
            "gender": "Male",
            "origin": {
                "name": "Interdimensional Cable",
                "url": "https://rickandmortyapi.com/api/location/6"
            },
            "location": {
                "name": "Interdimensional Cable",
                "url": "https://rickandmortyapi.com/api/location/6"
            },
            "image": "https://rickandmortyapi.com/api/character/avatar/414.jpeg",
            "episode": [
                "https://rickandmortyapi.com/api/episode/8"
            ],
            "url": "https://rickandmortyapi.com/api/character/414",
            "created": "2018-04-15T21:33:59.719Z"
        },
        {
            "id": 415,
            "name": "Pro trunk people marriage guy",
            "status": "Alive",
            "species": "Human",
            "type": "",
            "gender": "Male",
            "origin": {
                "name": "Interdimensional Cable",
                "url": "https://rickandmortyapi.com/api/location/6"
            },
            "location": {
                "name": "Interdimensional Cable",
                "url": "https://rickandmortyapi.com/api/location/6"
            },
            "image": "https://rickandmortyapi.com/api/character/avatar/415.jpeg",
            "episode": [
                "https://rickandmortyapi.com/api/episode/8"
            ],
            "url": "https://rickandmortyapi.com/api/character/415",
            "created": "2018-04-15T21:34:21.911Z"
        },
        {
            "id": 416,
            "name": "Muscular Mannie",
            "status": "Alive",
            "species": "Human",
            "type": "Mannie",
            "gender": "Male",
            "origin": {
                "name": "Interdimensional Cable",
                "url": "https://rickandmortyapi.com/api/location/6"
            },
            "location": {
                "name": "Interdimensional Cable",
                "url": "https://rickandmortyapi.com/api/location/6"
            },
            "image": "https://rickandmortyapi.com/api/character/avatar/416.jpeg",
            "episode": [
                "https://rickandmortyapi.com/api/episode/8"
            ],
            "url": "https://rickandmortyapi.com/api/character/416",
            "created": "2018-04-15T21:39:22.608Z"
        },
        {
            "id": 417,
            "name": "Baby Legs Chief",
            "status": "Alive",
            "species": "Human",
            "type": "",
            "gender": "Male",
            "origin": {
                "name": "Interdimensional Cable",
                "url": "https://rickandmortyapi.com/api/location/6"
            },
            "location": {
                "name": "Interdimensional Cable",
                "url": "https://rickandmortyapi.com/api/location/6"
            },
            "image": "https://rickandmortyapi.com/api/character/avatar/417.jpeg",
            "episode": [
                "https://rickandmortyapi.com/api/episode/8"
            ],
            "url": "https://rickandmortyapi.com/api/character/417",
            "created": "2018-04-15T21:40:39.871Z"
        },
        {
            "id": 418,
            "name": "Mrs. Sullivan's Boyfriend",
            "status": "Alive",
            "species": "Human",
            "type": "Necrophiliac",
            "gender": "Male",
            "origin": {
                "name": "Interdimensional Cable",
                "url": "https://rickandmortyapi.com/api/location/6"
            },
            "location": {
                "name": "Interdimensional Cable",
                "url": "https://rickandmortyapi.com/api/location/6"
            },
            "image": "https://rickandmortyapi.com/api/character/avatar/418.jpeg",
            "episode": [
                "https://rickandmortyapi.com/api/episode/8"
            ],
            "url": "https://rickandmortyapi.com/api/character/418",
            "created": "2018-04-15T21:43:43.867Z"
        },
        {
            "id": 419,
            "name": "Plutonian Hostess",
            "status": "Alive",
            "species": "Alien",
            "type": "Plutonian",
            "gender": "Female",
            "origin": {
                "name": "Pluto",
                "url": "https://rickandmortyapi.com/api/location/47"
            },
            "location": {
                "name": "Pluto",
                "url": "https://rickandmortyapi.com/api/location/47"
            },
            "image": "https://rickandmortyapi.com/api/character/avatar/419.jpeg",
            "episode": [
                "https://rickandmortyapi.com/api/episode/9"
            ],
            "url": "https://rickandmortyapi.com/api/character/419",
            "created": "2018-04-15T21:48:45.783Z"
        },
        {
            "id": 420,
            "name": "Plutonian Host",
            "status": "Alive",
            "species": "Alien",
            "type": "Plutonian",
            "gender": "Male",
            "origin": {
                "name": "Pluto",
                "url": "https://rickandmortyapi.com/api/location/47"
            },
            "location": {
                "name": "Pluto",
                "url": "https://rickandmortyapi.com/api/location/47"
            },
            "image": "https://rickandmortyapi.com/api/character/avatar/420.jpeg",
            "episode": [
                "https://rickandmortyapi.com/api/episode/9"
            ],
            "url": "https://rickandmortyapi.com/api/character/420",
            "created": "2018-04-15T21:49:04.730Z"
        }
    ]
}