{
    "info": {
        "count": 826,
        "pages": 42,
        "next": "https://rickandmortyapi.com/api/character?page=28",
        "prev": "https://rickandmortyapi.com/api/character?page=26"
    },
    "results": [
        {
            "id": 521,
            "name": "Wasp Beth",
            "status": "Alive",
            "species": "Animal",
            "type": "Wasp",
            "gender": "Female",
            "origin": {
                "name": "Earth (Wasp Dimension)",
                "url": "https://rickandmortyapi.com/api/location/82"
            },
            "location": {
                "name": "Earth (Wasp Dimension)",
                "url": "https://rickandmortyapi.com/api/location/82"
            },
            "image": "https://rickandmortyapi.com/api/character/avatar/521.jpeg",
            "episode": [
                "https://rickandmortyapi.com/api/episode/32"
            ],
            "url": "https://rickandmortyapi.com/api/character/521",
            "created": "2020-05-02T12:41:48.912Z"
        },
        {
            "id": 522,
            "name": "Caterpillar Mr. Goldenfold’s Larvae",
            "status": "Dead",
            "species": "Animal",
            "type": "Caterpillar",
            "gender": "unknown",
            "origin": {
                "name": "Earth (Wasp Dimension)",
                "url": "https://rickandmortyapi.com/api/location/82"
            },
            "location": {
                "name": "Earth (Wasp Dimension)",
                "url": "https://rickandmortyapi.com/api/location/82"
            },
            "image": "https://rickandmortyapi.com/api/character/avatar/522.jpeg",
            "episode": [
                "https://rickandmortyapi.com/api/episode/32"
            ],
            "url": "https://rickandmortyapi.com/api/character/522",
            "created": "2020-05-02T12:43:21.266Z"
        },
        {
            "id": 523,
            "name": "Boglin",
            "status": "unknown",
            "species": "unknown",
            "type": "Toy",
            "gender": "unknown",
            "origin": {
                "name": "Earth (Replacement Dimension)",
                "url": "https://rickandmortyapi.com/api/location/20"
            },
            "location": {
                "name": "Earth (Replacement Dimension)",
                "url": "https://rickandmortyapi.com/api/location/20"
            },
            "image": "https://rickandmortyapi.com/api/character/avatar/523.jpeg",
            "episode": [
                "https://rickandmortyapi.com/api/episode/32"
            ],
            "url": "https://rickandmortyapi.com/api/character/523",
            "created": "2020-05-02T12:50:15.005Z"
        },
        {
            "id": 524,
            "name": "Kirkland Brand Mr. Meeseeks",
            "status": "unknown",
            "species": "Humanoid",
            "type": "Meeseeks",
            "gender": "Male",
            "origin": {
                "name": "Mr. Meeseeks Box",
                "url": "https://rickandmortyapi.com/api/location/53"
            },
            "location": {
                "name": "Earth (Replacement Dimension)",
                "url": "https://rickandmortyapi.com/api/location/20"
            },
            "image": "https://rickandmortyapi.com/api/character/avatar/524.jpeg",
            "episode": [
                "https://rickandmortyapi.com/api/episode/32"
            ],
            "url": "https://rickandmortyapi.com/api/character/524",
            "created": "2020-05-02T12:52:58.134Z"
        },
        {
            "id": 525,
            "name": "Glootie",
            "status": "Alive",
            "species": "Alien",
            "type": "Monogatron",
            "gender": "Male",
            "origin": {
                "name": "unknown",
                "url": ""
            },
            "location": {
                "name": "Monogatron Mothership",
                "url": "https://rickandmortyapi.com/api/location/83"
            },
            "image": "https://rickandmortyapi.com/api/character/avatar/525.jpeg",
            "episode": [
                "https://rickandmortyapi.com/api/episode/33"
            ],
            "url": "https://rickandmortyapi.com/api/character/525",
            "created": "2020-05-02T13:13:31.593Z"
        },
        {
            "id": 526,
            "name": "Danny Publitz",
            "status": "Alive",
            "species": "Human",
            "type": "",
            "gender": "Male",
            "origin": {
                "name": "Earth (Replacement Dimension)",
                "url": "https://rickandmortyapi.com/api/location/20"
            },
            "location": {
                "name": "Earth (Replacement Dimension)",
                "url": "https://rickandmortyapi.com/api/location/20"
            },
            "image": "https://rickandmortyapi.com/api/character/avatar/526.jpeg",
            "episode": [
                "https://rickandmortyapi.com/api/episode/33"
            ],
            "url": "https://rickandmortyapi.com/api/character/526",
            "created": "2020-05-02T13:14:28.386Z"
        },
        {
            "id": 527,
            "name": "Mothership Intern",
            "status": "Alive",
            "species": "Alien",
            "type": "Monogatron",
            "gender": "Male",
            "origin": {
                "name": "unknown",
                "url": ""
            },
            "location": {
                "name": "Monogatron Mothership",
                "url": "https://rickandmortyapi.com/api/location/83"
            },
            "image": "https://rickandmortyapi.com/api/character/avatar/527.jpeg",
            "episode": [
                "https://rickandmortyapi.com/api/episode/33"
            ],
            "url": "https://rickandmortyapi.com/api/character/527",
            "created": "2020-05-02T13:26:53.358Z"
        },
        {
            "id": 528,
            "name": "Monogatron Leader",
            "status": "Alive",
            "species": "Alien",
            "type": "Monogatron",
            "gender": "Male",
            "origin": {
                "name": "unknown",
                "url": ""
            },
            "location": {
                "name": "Monogatron Mothership",
                "url": "https://rickandmortyapi.com/api/location/83"
            },
            "image": "https://rickandmortyapi.com/api/character/avatar/528.jpeg",
            "episode": [
                "https://rickandmortyapi.com/api/episode/33"
            ],
            "url": "https://rickandmortyapi.com/api/character/528",
            "created": "2020-05-02T13:27:50.476Z"
        },
        {
            "id": 529,
            "name": "Lizard",
            "status": "Dead",
            "species": "Alien",
            "type": "Lizard",
            "gender": "Male",
            "origin": {
                "name": "Midland Quasar",
                "url": "https://rickandmortyapi.com/api/location/85"
            },
            "location": {
                "name": "Midland Quasar",
                "url": "https://rickandmortyapi.com/api/location/85"
            },
            "image": "https://rickandmortyapi.com/api/character/avatar/529.jpeg",
            "episode": [
                "https://rickandmortyapi.com/api/episode/33"
            ],
            "url": "https://rickandmortyapi.com/api/character/529",
            "created": "2020-05-02T13:31:49.867Z"
        },
        {
            "id": 530,
            "name": "Deliverance",
            "status": "Dead",
            "species": "Robot",
            "type": "",
            "gender": "Genderless",
            "origin": {
                "name": "Midland Quasar",
                "url": "https://rickandmortyapi.com/api/location/85"
            },
            "location": {
                "name": "Midland Quasar",
                "url": "https://rickandmortyapi.com/api/location/85"
            },
            "image": "https://rickandmortyapi.com/api/character/avatar/530.jpeg",
            "episode": [
                "https://rickandmortyapi.com/api/episode/33"
            ],
            "url": "https://rickandmortyapi.com/api/character/530",
            "created": "2020-05-02T13:32:41.259Z"
        },
        {
            "id": 531,
            "name": "Tony",
            "status": "Dead",
            "species": "Alien",
            "type": "",
            "gender": "Male",
            "origin": {
                "name": "unknown",
                "url": ""
            },
            "location": {
                "name": "Mount Space Everest",
                "url": "https://rickandmortyapi.com/api/location/86"
            },
            "image": "https://rickandmortyapi.com/api/character/avatar/531.jpeg",
            "episode": [
                "https://rickandmortyapi.com/api/episode/33"
            ],
            "url": "https://rickandmortyapi.com/api/character/531",
            "created": "2020-05-02T13:35:07.498Z"
        },
        {
            "id": 532,
            "name": "Tony’s Wife",
            "status": "Dead",
            "species": "Alien",
            "type": "",
            "gender": "Female",
            "origin": {
                "name": "Globaflyn",
                "url": "https://rickandmortyapi.com/api/location/87"
            },
            "location": {
                "name": "Globaflyn",
                "url": "https://rickandmortyapi.com/api/location/87"
            },
            "image": "https://rickandmortyapi.com/api/character/avatar/532.jpeg",
            "episode": [
                "https://rickandmortyapi.com/api/episode/33"
            ],
            "url": "https://rickandmortyapi.com/api/character/532",
            "created": "2020-05-02T13:45:32.092Z"
        },
        {
            "id": 533,
            "name": "Monogatron Queen",
            "status": "Alive",
            "species": "Alien",
            "type": "Monogatron",
            "gender": "Female",
            "origin": {
                "name": "unknown",
                "url": ""
            },
            "location": {
                "name": "Monogatron Mothership",
                "url": "https://rickandmortyapi.com/api/location/83"
            },
            "image": "https://rickandmortyapi.com/api/character/avatar/533.jpeg",
            "episode": [
                "https://rickandmortyapi.com/api/episode/33"
            ],
            "url": "https://rickandmortyapi.com/api/character/533",
            "created": "2020-05-02T13:46:10.906Z"
        },
        {
            "id": 534,
            "name": "Tony's Dad",
            "status": "Alive",
            "species": "Alien",
            "type": "",
            "gender": "Male",
            "origin": {
                "name": "unknown",
                "url": ""
            },
            "location": {
                "name": "Earth (Replacement Dimension)",
                "url": "https://rickandmortyapi.com/api/location/20"
            },
            "image": "https://rickandmortyapi.com/api/character/avatar/534.jpeg",
            "episode": [
                "https://rickandmortyapi.com/api/episode/33"
            ],
            "url": "https://rickandmortyapi.com/api/character/534",
            "created": "2020-05-02T13:52:06.880Z"
        },
        {
            "id": 535,
            "name": "Jeff",
            "status": "Alive",
            "species": "Human",
            "type": "",
            "gender": "Male",
            "origin": {
                "name": "Earth (Replacement Dimension)",
                "url": "https://rickandmortyapi.com/api/location/20"
            },
            "location": {
                "name": "Earth (Replacement Dimension)",
                "url": "https://rickandmortyapi.com/api/location/20"
            },
            "image": "https://rickandmortyapi.com/api/character/avatar/535.jpeg",
            "episode": [
                "https://rickandmortyapi.com/api/episode/33"
            ],
            "url": "https://rickandmortyapi.com/api/character/535",
            "created": "2020-05-02T13:54:21.374Z"
        },
        {
            "id": 536,
            "name": "Josiah",
            "status": "Alive",
            "species": "Human",
            "type": "",
            "gender": "Male",
            "origin": {
                "name": "Earth (Replacement Dimension)",
                "url": "https://rickandmortyapi.com/api/location/20"
            },
            "location": {
                "name": "Earth (Replacement Dimension)",
                "url": "https://rickandmortyapi.com/api/location/20"
            },
            "image": "https://rickandmortyapi.com/api/character/avatar/536.jpeg",
            "episode": [
                "https://rickandmortyapi.com/api/episode/33"
            ],
            "url": "https://rickandmortyapi.com/api/character/536",
            "created": "2020-05-02T13:54:48.651Z"
        },
        {
            "id": 537,
            "name": "Maggie",
            "status": "Alive",
            "species": "Human",
            "type": "",
            "gender": "Female",
            "origin": {
                "name": "Earth (Replacement Dimension)",
                "url": "https://rickandmortyapi.com/api/location/20"
            },
            "location": {
                "name": "Earth (Replacement Dimension)",
                "url": "https://rickandmortyapi.com/api/location/20"
            },
            "image": "https://rickandmortyapi.com/api/character/avatar/537.jpeg",
            "episode": [
                "https://rickandmortyapi.com/api/episode/33"
            ],
            "url": "https://rickandmortyapi.com/api/character/537",
            "created": "2020-05-02T13:55:15.098Z"
        },
        {
            "id": 538,
            "name": "Priest Witherspoon",
            "status": "Alive",
            "species": "Human",
            "type": "",
            "gender": "Male",
            "origin": {
                "name": "Earth (Replacement Dimension)",
                "url": "https://rickandmortyapi.com/api/location/20"
            },
            "location": {
                "name": "Earth (Replacement Dimension)",
                "url": "https://rickandmortyapi.com/api/location/20"
            },
            "image": "https://rickandmortyapi.com/api/character/avatar/538.jpeg",
            "episode": [
                "https://rickandmortyapi.com/api/episode/33"
            ],
            "url": "https://rickandmortyapi.com/api/character/538",
            "created": "2020-05-02T13:55:45.767Z"
        },
        {
            "id": 539,
            "name": "Richard",
            "status": "Alive",
            "species": "Human",
            "type": "",
            "gender": "Male",
            "origin": {
                "name": "Earth (Replacement Dimension)",
                "url": "https://rickandmortyapi.com/api/location/20"
            },
            "location": {
                "name": "Earth (Replacement Dimension)",
                "url": "https://rickandmortyapi.com/api/location/20"
            },
            "image": "https://rickandmortyapi.com/api/character/avatar/539.jpeg",
            "episode": [
                "https://rickandmortyapi.com/api/episode/33"
            ],
            "url": "https://rickandmortyapi.com/api/character/539",
            "created": "2020-05-02T13:56:14.834Z"
        },
        {
            "id": 540,
            "name": "Running Bird",
            "status": "Alive",
            "species": "Human",
            "type": "",
            "gender": "Male",
            "origin": {
                "name": "Earth (Replacement Dimension)",
                "url": "https://rickandmortyapi.com/api/location/20"
            },
            "location": {
                "name": "Earth (Replacement Dimension)",
                "url": "https://rickandmortyapi.com/api/location/20"
            },
            "image": "https://rickandmortyapi.com/api/character/avatar/540.jpeg",
            "episode": [
                "https://rickandmortyapi.com/api/episode/33"
            ],
            "url": "https://rickandmortyapi.com/api/character/540",
            "created": "2020-05-02T13:56:45.926Z"
        }
    ]
}