{
    "info": {
        "count": 826,
        "pages": 42,
        "next": "https://rickandmortyapi.com/api/character?page=33",
        "prev": "https://rickandmortyapi.com/api/character?page=31"
    },
    "results": [
        {
            "id": 621,
            "name": "Ruth Bader Ginsburg",
            "status": "Alive",
            "species": "Human",
            "type": "Soulless Puppet",
            "gender": "Female",
            "origin": {
                "name": "Morty’s Story",
                "url": "https://rickandmortyapi.com/api/location/99"
            },
            "location": {
                "name": "Morty’s Story",
                "url": "https://rickandmortyapi.com/api/location/99"
            },
            "image": "https://rickandmortyapi.com/api/character/avatar/621.jpeg",
            "episode": [
                "https://rickandmortyapi.com/api/episode/37"
            ],
            "url": "https://rickandmortyapi.com/api/character/621",
            "created": "2020-08-06T15:59:05.320Z"
        },
        {
            "id": 622,
            "name": "Sarge",
            "status": "Alive",
            "species": "Human",
            "type": "Soulless Puppet",
            "gender": "Male",
            "origin": {
                "name": "Story Train",
                "url": "https://rickandmortyapi.com/api/location/96"
            },
            "location": {
                "name": "Story Train",
                "url": "https://rickandmortyapi.com/api/location/96"
            },
            "image": "https://rickandmortyapi.com/api/character/avatar/622.jpeg",
            "episode": [
                "https://rickandmortyapi.com/api/episode/37"
            ],
            "url": "https://rickandmortyapi.com/api/character/622",
            "created": "2020-08-06T15:59:44.277Z"
        },
        {
            "id": 623,
            "name": "Shrek The Musical Fan",
            "status": "Alive",
            "species": "Alien",
            "type": "Soulless Puppet",
            "gender": "Male",
            "origin": {
                "name": "Story Train",
                "url": "https://rickandmortyapi.com/api/location/96"
            },
            "location": {
                "name": "Story Train",
                "url": "https://rickandmortyapi.com/api/location/96"
            },
            "image": "https://rickandmortyapi.com/api/character/avatar/623.jpeg",
            "episode": [
                "https://rickandmortyapi.com/api/episode/37"
            ],
            "url": "https://rickandmortyapi.com/api/character/623",
            "created": "2020-08-06T16:01:42.796Z"
        },
        {
            "id": 624,
            "name": "Snuffles",
            "status": "Alive",
            "species": "Animal",
            "type": "Soulless Puppet",
            "gender": "Male",
            "origin": {
                "name": "Story Train",
                "url": "https://rickandmortyapi.com/api/location/96"
            },
            "location": {
                "name": "Story Train",
                "url": "https://rickandmortyapi.com/api/location/96"
            },
            "image": "https://rickandmortyapi.com/api/character/avatar/624.jpeg",
            "episode": [
                "https://rickandmortyapi.com/api/episode/37"
            ],
            "url": "https://rickandmortyapi.com/api/character/624",
            "created": "2020-08-06T16:03:17.291Z"
        },
        {
            "id": 625,
            "name": "Storylord",
            "status": "Alive",
            "species": "Human",
            "type": "Soulless Puppet",
            "gender": "Male",
            "origin": {
                "name": "Story Train",
                "url": "https://rickandmortyapi.com/api/location/96"
            },
            "location": {
                "name": "Ricks’s Story",
                "url": "https://rickandmortyapi.com/api/location/100"
            },
            "image": "https://rickandmortyapi.com/api/character/avatar/625.jpeg",
            "episode": [
                "https://rickandmortyapi.com/api/episode/37"
            ],
            "url": "https://rickandmortyapi.com/api/character/625",
            "created": "2020-08-06T16:24:53.547Z"
        },
        {
            "id": 626,
            "name": "Tammy Guetermann",
            "status": "Alive",
            "species": "Human",
            "type": "Soulless Puppet",
            "gender": "Female",
            "origin": {
                "name": "Story Train",
                "url": "https://rickandmortyapi.com/api/location/96"
            },
            "location": {
                "name": "Story Train",
                "url": "https://rickandmortyapi.com/api/location/96"
            },
            "image": "https://rickandmortyapi.com/api/character/avatar/626.jpeg",
            "episode": [
                "https://rickandmortyapi.com/api/episode/37"
            ],
            "url": "https://rickandmortyapi.com/api/character/626",
            "created": "2020-08-06T16:34:20.500Z"
        },
        {
            "id": 627,
            "name": "The Concept of Time",
            "status": "Alive",
            "species": "unknown",
            "type": "Soulless Puppet",
            "gender": "Genderless",
            "origin": {
                "name": "Story Train",
                "url": "https://rickandmortyapi.com/api/location/96"
            },
            "location": {
                "name": "Story Train",
                "url": "https://rickandmortyapi.com/api/location/96"
            },
            "image": "https://rickandmortyapi.com/api/character/avatar/627.jpeg",
            "episode": [
                "https://rickandmortyapi.com/api/episode/37"
            ],
            "url": "https://rickandmortyapi.com/api/character/627",
            "created": "2020-08-06T16:35:31.655Z"
        },
        {
            "id": 628,
            "name": "Beth Smith",
            "status": "Alive",
            "species": "Human",
            "type": "Soulless Puppet",
            "gender": "Female",
            "origin": {
                "name": "Morty’s Story",
                "url": "https://rickandmortyapi.com/api/location/99"
            },
            "location": {
                "name": "Morty’s Story",
                "url": "https://rickandmortyapi.com/api/location/99"
            },
            "image": "https://rickandmortyapi.com/api/character/avatar/628.jpeg",
            "episode": [
                "https://rickandmortyapi.com/api/episode/37"
            ],
            "url": "https://rickandmortyapi.com/api/character/628",
            "created": "2020-08-06T16:36:20.255Z"
        },
        {
            "id": 629,
            "name": "Summer Smith",
            "status": "Alive",
            "species": "Human",
            "type": "Soulless Puppet",
            "gender": "Female",
            "origin": {
                "name": "Morty’s Story",
                "url": "https://rickandmortyapi.com/api/location/99"
            },
            "location": {
                "name": "Morty’s Story",
                "url": "https://rickandmortyapi.com/api/location/99"
            },
            "image": "https://rickandmortyapi.com/api/character/avatar/629.jpeg",
            "episode": [
                "https://rickandmortyapi.com/api/episode/37"
            ],
            "url": "https://rickandmortyapi.com/api/character/629",
            "created": "2020-08-06T16:37:48.051Z"
        },
        {
            "id": 630,
            "name": "Morty Smith",
            "status": "Alive",
            "species": "Human",
            "type": "Soulless Puppet",
            "gender": "Male",
            "origin": {
                "name": "Story Train",
                "url": "https://rickandmortyapi.com/api/location/96"
            },
            "location": {
                "name": "Story Train",
                "url": "https://rickandmortyapi.com/api/location/96"
            },
            "image": "https://rickandmortyapi.com/api/character/avatar/630.jpeg",
            "episode": [
                "https://rickandmortyapi.com/api/episode/37"
            ],
            "url": "https://rickandmortyapi.com/api/character/630",
            "created": "2020-08-06T16:38:30.136Z"
        },
        {
            "id": 631,
            "name": "Rick Sanchez",
            "status": "Alive",
            "species": "Human",
            "type": "Soulless Puppet",
            "gender": "Male",
            "origin": {
                "name": "Story Train",
                "url": "https://rickandmortyapi.com/api/location/96"
            },
            "location": {
                "name": "Story Train",
                "url": "https://rickandmortyapi.com/api/location/96"
            },
            "image": "https://rickandmortyapi.com/api/character/avatar/631.jpeg",
            "episode": [
                "https://rickandmortyapi.com/api/episode/37"
            ],
            "url": "https://rickandmortyapi.com/api/character/631",
            "created": "2020-08-06T16:39:08.485Z"
        },
        {
            "id": 632,
            "name": "Train Cop",
            "status": "Dead",
            "species": "Human",
            "type": "Soulless Puppet",
            "gender": "Male",
            "origin": {
                "name": "Story Train",
                "url": "https://rickandmortyapi.com/api/location/96"
            },
            "location": {
                "name": "Story Train",
                "url": "https://rickandmortyapi.com/api/location/96"
            },
            "image": "https://rickandmortyapi.com/api/character/avatar/632.jpeg",
            "episode": [
                "https://rickandmortyapi.com/api/episode/37"
            ],
            "url": "https://rickandmortyapi.com/api/character/632",
            "created": "2020-08-06T16:39:50.056Z"
        },
        {
            "id": 633,
            "name": "Train Cops",
            "status": "Alive",
            "species": "Human",
            "type": "Soulless Puppet",
            "gender": "Female",
            "origin": {
                "name": "Story Train",
                "url": "https://rickandmortyapi.com/api/location/96"
            },
            "location": {
                "name": "Story Train",
                "url": "https://rickandmortyapi.com/api/location/96"
            },
            "image": "https://rickandmortyapi.com/api/character/avatar/633.jpeg",
            "episode": [
                "https://rickandmortyapi.com/api/episode/37"
            ],
            "url": "https://rickandmortyapi.com/api/character/633",
            "created": "2020-08-06T16:40:54.181Z"
        },
        {
            "id": 634,
            "name": "Train Cops Instructor",
            "status": "Dead",
            "species": "Human",
            "type": "Soulless Puppet",
            "gender": "Male",
            "origin": {
                "name": "Story Train",
                "url": "https://rickandmortyapi.com/api/location/96"
            },
            "location": {
                "name": "Story Train",
                "url": "https://rickandmortyapi.com/api/location/96"
            },
            "image": "https://rickandmortyapi.com/api/character/avatar/634.jpeg",
            "episode": [
                "https://rickandmortyapi.com/api/episode/37"
            ],
            "url": "https://rickandmortyapi.com/api/character/634",
            "created": "2020-08-06T16:42:42.455Z"
        },
        {
            "id": 635,
            "name": "Darth Poopybutthole",
            "status": "Alive",
            "species": "Poopybutthole",
            "type": "Soulless Puppet",
            "gender": "Male",
            "origin": {
                "name": "Ricks’s Story",
                "url": "https://rickandmortyapi.com/api/location/100"
            },
            "location": {
                "name": "Ricks’s Story",
                "url": "https://rickandmortyapi.com/api/location/100"
            },
            "image": "https://rickandmortyapi.com/api/character/avatar/635.jpeg",
            "episode": [
                "https://rickandmortyapi.com/api/episode/37"
            ],
            "url": "https://rickandmortyapi.com/api/character/635",
            "created": "2020-08-06T16:43:46.757Z"
        },
        {
            "id": 636,
            "name": "Evil Morty",
            "status": "Alive",
            "species": "Human",
            "type": "Soulless Puppet",
            "gender": "Male",
            "origin": {
                "name": "Ricks’s Story",
                "url": "https://rickandmortyapi.com/api/location/100"
            },
            "location": {
                "name": "Ricks’s Story",
                "url": "https://rickandmortyapi.com/api/location/100"
            },
            "image": "https://rickandmortyapi.com/api/character/avatar/636.jpeg",
            "episode": [
                "https://rickandmortyapi.com/api/episode/37"
            ],
            "url": "https://rickandmortyapi.com/api/character/636",
            "created": "2020-08-06T16:45:03.209Z"
        },
        {
            "id": 637,
            "name": "Morty’s Disguise",
            "status": "Alive",
            "species": "Human",
            "type": "Soulless Puppet",
            "gender": "Female",
            "origin": {
                "name": "Story Train",
                "url": "https://rickandmortyapi.com/api/location/96"
            },
            "location": {
                "name": "Story Train",
                "url": "https://rickandmortyapi.com/api/location/96"
            },
            "image": "https://rickandmortyapi.com/api/character/avatar/637.jpeg",
            "episode": [
                "https://rickandmortyapi.com/api/episode/37"
            ],
            "url": "https://rickandmortyapi.com/api/character/637",
            "created": "2020-08-06T16:49:30.253Z"
        },
        {
            "id": 638,
            "name": "Rick’s Disguise",
            "status": "Alive",
            "species": "Human",
            "type": "Soulless Puppet",
            "gender": "Male",
            "origin": {
                "name": "Story Train",
                "url": "https://rickandmortyapi.com/api/location/96"
            },
            "location": {
                "name": "Story Train",
                "url": "https://rickandmortyapi.com/api/location/96"
            },
            "image": "https://rickandmortyapi.com/api/character/avatar/638.jpeg",
            "episode": [
                "https://rickandmortyapi.com/api/episode/37"
            ],
            "url": "https://rickandmortyapi.com/api/character/638",
            "created": "2020-08-06T16:50:10.447Z"
        },
        {
            "id": 639,
            "name": "Uncle Nibbles",
            "status": "Dead",
            "species": "Alien",
            "type": "Soulless Puppet",
            "gender": "Male",
            "origin": {
                "name": "Tickets Please Guy Nightmare",
                "url": "https://rickandmortyapi.com/api/location/98"
            },
            "location": {
                "name": "Tickets Please Guy Nightmare",
                "url": "https://rickandmortyapi.com/api/location/98"
            },
            "image": "https://rickandmortyapi.com/api/character/avatar/639.jpeg",
            "episode": [
                "https://rickandmortyapi.com/api/episode/37"
            ],
            "url": "https://rickandmortyapi.com/api/character/639",
            "created": "2020-08-06T16:51:23.084Z"
        },
        {
            "id": 640,
            "name": "Angry Glorzo",
            "status": "Dead",
            "species": "Alien",
            "type": "Glorzo",
            "gender": "Male",
            "origin": {
                "name": "Glorzo Asteroid",
                "url": "https://rickandmortyapi.com/api/location/101"
            },
            "location": {
                "name": "Glorzo Asteroid",
                "url": "https://rickandmortyapi.com/api/location/101"
            },
            "image": "https://rickandmortyapi.com/api/character/avatar/640.jpeg",
            "episode": [
                "https://rickandmortyapi.com/api/episode/38"
            ],
            "url": "https://rickandmortyapi.com/api/character/640",
            "created": "2020-08-07T11:36:14.528Z"
        }
    ]
}