{
    "info": {
        "count": 826,
        "pages": 42,
        "next": "https://rickandmortyapi.com/api/character?page=19",
        "prev": "https://rickandmortyapi.com/api/character?page=17"
    },
    "results": [
        {
            "id": 341,
            "name": "Taddy Mason",
            "status": "Alive",
            "species": "Human",
            "type": "",
            "gender": "Male",
            "origin": {
                "name": "Earth (Replacement Dimension)",
                "url": "https://rickandmortyapi.com/api/location/20"
            },
            "location": {
                "name": "Earth (Replacement Dimension)",
                "url": "https://rickandmortyapi.com/api/location/20"
            },
            "image": "https://rickandmortyapi.com/api/character/avatar/341.jpeg",
            "episode": [
                "https://rickandmortyapi.com/api/episode/20"
            ],
            "url": "https://rickandmortyapi.com/api/character/341",
            "created": "2018-01-10T17:07:09.052Z"
        },
        {
            "id": 342,
            "name": "Taint Washer",
            "status": "Alive",
            "species": "Human",
            "type": "",
            "gender": "Male",
            "origin": {
                "name": "Post-Apocalyptic Earth",
                "url": "https://rickandmortyapi.com/api/location/8"
            },
            "location": {
                "name": "Post-Apocalyptic Earth",
                "url": "https://rickandmortyapi.com/api/location/8"
            },
            "image": "https://rickandmortyapi.com/api/character/avatar/342.jpeg",
            "episode": [
                "https://rickandmortyapi.com/api/episode/23"
            ],
            "url": "https://rickandmortyapi.com/api/character/342",
            "created": "2018-01-10T17:23:26.944Z"
        },
        {
            "id": 343,
            "name": "Tammy Guetermann",
            "status": "Alive",
            "species": "Cronenberg",
            "type": "",
            "gender": "Female",
            "origin": {
                "name": "Earth (C-137)",
                "url": "https://rickandmortyapi.com/api/location/1"
            },
            "location": {
                "name": "Earth (C-137)",
                "url": "https://rickandmortyapi.com/api/location/1"
            },
            "image": "https://rickandmortyapi.com/api/character/avatar/343.jpeg",
            "episode": [
                "https://rickandmortyapi.com/api/episode/5",
                "https://rickandmortyapi.com/api/episode/6"
            ],
            "url": "https://rickandmortyapi.com/api/character/343",
            "created": "2018-01-10T17:27:04.773Z"
        },
        {
            "id": 344,
            "name": "Tammy Guetermann",
            "status": "Dead",
            "species": "Human",
            "type": "",
            "gender": "Female",
            "origin": {
                "name": "Earth (Replacement Dimension)",
                "url": "https://rickandmortyapi.com/api/location/20"
            },
            "location": {
                "name": "NX-5 Planet Remover",
                "url": "https://rickandmortyapi.com/api/location/105"
            },
            "image": "https://rickandmortyapi.com/api/character/avatar/344.jpeg",
            "episode": [
                "https://rickandmortyapi.com/api/episode/11",
                "https://rickandmortyapi.com/api/episode/16",
                "https://rickandmortyapi.com/api/episode/21",
                "https://rickandmortyapi.com/api/episode/22",
                "https://rickandmortyapi.com/api/episode/41"
            ],
            "url": "https://rickandmortyapi.com/api/character/344",
            "created": "2018-01-10T17:31:54.889Z"
        },
        {
            "id": 345,
            "name": "Teacher Rick",
            "status": "Alive",
            "species": "Human",
            "type": "",
            "gender": "Male",
            "origin": {
                "name": "unknown",
                "url": ""
            },
            "location": {
                "name": "Citadel of Ricks",
                "url": "https://rickandmortyapi.com/api/location/3"
            },
            "image": "https://rickandmortyapi.com/api/character/avatar/345.jpeg",
            "episode": [
                "https://rickandmortyapi.com/api/episode/28"
            ],
            "url": "https://rickandmortyapi.com/api/character/345",
            "created": "2018-01-10T17:33:23.437Z"
        },
        {
            "id": 346,
            "name": "Terry",
            "status": "unknown",
            "species": "Human",
            "type": "",
            "gender": "Male",
            "origin": {
                "name": "Earth (Replacement Dimension)",
                "url": "https://rickandmortyapi.com/api/location/20"
            },
            "location": {
                "name": "Earth (Replacement Dimension)",
                "url": "https://rickandmortyapi.com/api/location/20"
            },
            "image": "https://rickandmortyapi.com/api/character/avatar/346.jpeg",
            "episode": [
                "https://rickandmortyapi.com/api/episode/16"
            ],
            "url": "https://rickandmortyapi.com/api/character/346",
            "created": "2018-01-10T17:37:51.767Z"
        },
        {
            "id": 347,
            "name": "President Curtis",
            "status": "Alive",
            "species": "Human",
            "type": "",
            "gender": "Male",
            "origin": {
                "name": "Earth (Replacement Dimension)",
                "url": "https://rickandmortyapi.com/api/location/20"
            },
            "location": {
                "name": "Earth (Replacement Dimension)",
                "url": "https://rickandmortyapi.com/api/location/20"
            },
            "image": "https://rickandmortyapi.com/api/character/avatar/347.jpeg",
            "episode": [
                "https://rickandmortyapi.com/api/episode/16",
                "https://rickandmortyapi.com/api/episode/31",
                "https://rickandmortyapi.com/api/episode/43",
                "https://rickandmortyapi.com/api/episode/45",
                "https://rickandmortyapi.com/api/episode/47"
            ],
            "url": "https://rickandmortyapi.com/api/character/347",
            "created": "2018-01-10T17:43:37.411Z"
        },
        {
            "id": 348,
            "name": "The President of the Miniverse",
            "status": "Dead",
            "species": "Humanoid",
            "type": "Miniverse inhabitant",
            "gender": "Male",
            "origin": {
                "name": "Zeep Xanflorp's Miniverse",
                "url": "https://rickandmortyapi.com/api/location/49"
            },
            "location": {
                "name": "Zeep Xanflorp's Miniverse",
                "url": "https://rickandmortyapi.com/api/location/49"
            },
            "image": "https://rickandmortyapi.com/api/character/avatar/348.jpeg",
            "episode": [
                "https://rickandmortyapi.com/api/episode/17"
            ],
            "url": "https://rickandmortyapi.com/api/character/348",
            "created": "2018-01-10T17:47:59.043Z"
        },
        {
            "id": 349,
            "name": "The Scientist Formerly Known as Rick",
            "status": "Dead",
            "species": "Human",
            "type": "",
            "gender": "Male",
            "origin": {
                "name": "unknown",
                "url": ""
            },
            "location": {
                "name": "unknown",
                "url": ""
            },
            "image": "https://rickandmortyapi.com/api/character/avatar/349.jpeg",
            "episode": [
                "https://rickandmortyapi.com/api/episode/10"
            ],
            "url": "https://rickandmortyapi.com/api/character/349",
            "created": "2018-01-10T17:49:09.995Z"
        },
        {
            "id": 350,
            "name": "Thomas Lipkip",
            "status": "unknown",
            "species": "Human",
            "type": "",
            "gender": "Male",
            "origin": {
                "name": "Earth (Replacement Dimension)",
                "url": "https://rickandmortyapi.com/api/location/20"
            },
            "location": {
                "name": "Froopyland",
                "url": "https://rickandmortyapi.com/api/location/63"
            },
            "image": "https://rickandmortyapi.com/api/character/avatar/350.jpeg",
            "episode": [
                "https://rickandmortyapi.com/api/episode/30"
            ],
            "url": "https://rickandmortyapi.com/api/character/350",
            "created": "2018-01-10T17:50:33.471Z"
        },
        {
            "id": 351,
            "name": "Three Unknown Things",
            "status": "Alive",
            "species": "Alien",
            "type": "",
            "gender": "unknown",
            "origin": {
                "name": "unknown",
                "url": ""
            },
            "location": {
                "name": "Interdimensional Cable",
                "url": "https://rickandmortyapi.com/api/location/6"
            },
            "image": "https://rickandmortyapi.com/api/character/avatar/351.jpeg",
            "episode": [
                "https://rickandmortyapi.com/api/episode/8"
            ],
            "url": "https://rickandmortyapi.com/api/character/351",
            "created": "2018-01-10T17:57:31.022Z"
        },
        {
            "id": 352,
            "name": "Tinkles",
            "status": "Dead",
            "species": "Alien",
            "type": "Parasite",
            "gender": "Female",
            "origin": {
                "name": "unknown",
                "url": ""
            },
            "location": {
                "name": "Earth (Replacement Dimension)",
                "url": "https://rickandmortyapi.com/api/location/20"
            },
            "image": "https://rickandmortyapi.com/api/character/avatar/352.jpeg",
            "episode": [
                "https://rickandmortyapi.com/api/episode/15"
            ],
            "url": "https://rickandmortyapi.com/api/character/352",
            "created": "2018-01-10T17:58:51.840Z"
        },
        {
            "id": 353,
            "name": "Tiny Rick",
            "status": "Dead",
            "species": "Human",
            "type": "Clone",
            "gender": "Male",
            "origin": {
                "name": "Earth (Replacement Dimension)",
                "url": "https://rickandmortyapi.com/api/location/20"
            },
            "location": {
                "name": "Earth (Replacement Dimension)",
                "url": "https://rickandmortyapi.com/api/location/20"
            },
            "image": "https://rickandmortyapi.com/api/character/avatar/353.jpeg",
            "episode": [
                "https://rickandmortyapi.com/api/episode/18"
            ],
            "url": "https://rickandmortyapi.com/api/character/353",
            "created": "2018-01-10T18:00:35.848Z"
        },
        {
            "id": 354,
            "name": "Toby Matthews",
            "status": "Alive",
            "species": "Human",
            "type": "",
            "gender": "Male",
            "origin": {
                "name": "Earth (Replacement Dimension)",
                "url": "https://rickandmortyapi.com/api/location/20"
            },
            "location": {
                "name": "Earth (Replacement Dimension)",
                "url": "https://rickandmortyapi.com/api/location/20"
            },
            "image": "https://rickandmortyapi.com/api/character/avatar/354.jpeg",
            "episode": [
                "https://rickandmortyapi.com/api/episode/18"
            ],
            "url": "https://rickandmortyapi.com/api/character/354",
            "created": "2018-01-10T18:02:03.402Z"
        },
        {
            "id": 355,
            "name": "Todd Crystal",
            "status": "Alive",
            "species": "Alien",
            "type": "Unknown-nippled alien",
            "gender": "Male",
            "origin": {
                "name": "Unity's Planet",
                "url": "https://rickandmortyapi.com/api/location/28"
            },
            "location": {
                "name": "Unity's Planet",
                "url": "https://rickandmortyapi.com/api/location/28"
            },
            "image": "https://rickandmortyapi.com/api/character/avatar/355.jpeg",
            "episode": [
                "https://rickandmortyapi.com/api/episode/14"
            ],
            "url": "https://rickandmortyapi.com/api/character/355",
            "created": "2018-01-10T18:05:46.294Z"
        },
        {
            "id": 356,
            "name": "Tom Randolph",
            "status": "Alive",
            "species": "Human",
            "type": "",
            "gender": "Male",
            "origin": {
                "name": "Earth (C-137)",
                "url": "https://rickandmortyapi.com/api/location/1"
            },
            "location": {
                "name": "Earth (C-137)",
                "url": "https://rickandmortyapi.com/api/location/1"
            },
            "image": "https://rickandmortyapi.com/api/character/avatar/356.jpeg",
            "episode": [
                "https://rickandmortyapi.com/api/episode/3"
            ],
            "url": "https://rickandmortyapi.com/api/character/356",
            "created": "2018-01-10T18:07:03.215Z"
        },
        {
            "id": 357,
            "name": "Tommy's Clone",
            "status": "Alive",
            "species": "Human",
            "type": "Clone",
            "gender": "Male",
            "origin": {
                "name": "Earth (Replacement Dimension)",
                "url": "https://rickandmortyapi.com/api/location/20"
            },
            "location": {
                "name": "Earth (Replacement Dimension)",
                "url": "https://rickandmortyapi.com/api/location/20"
            },
            "image": "https://rickandmortyapi.com/api/character/avatar/357.jpeg",
            "episode": [
                "https://rickandmortyapi.com/api/episode/30"
            ],
            "url": "https://rickandmortyapi.com/api/character/357",
            "created": "2018-01-10T18:07:45.541Z"
        },
        {
            "id": 358,
            "name": "Tophat Jones",
            "status": "Dead",
            "species": "Mythological Creature",
            "type": "Leprechaun",
            "gender": "Male",
            "origin": {
                "name": "unknown",
                "url": ""
            },
            "location": {
                "name": "Interdimensional Cable",
                "url": "https://rickandmortyapi.com/api/location/6"
            },
            "image": "https://rickandmortyapi.com/api/character/avatar/358.jpeg",
            "episode": [
                "https://rickandmortyapi.com/api/episode/8",
                "https://rickandmortyapi.com/api/episode/18",
                "https://rickandmortyapi.com/api/episode/21"
            ],
            "url": "https://rickandmortyapi.com/api/character/358",
            "created": "2018-01-10T18:09:34.482Z"
        },
        {
            "id": 359,
            "name": "Tortured Morty",
            "status": "unknown",
            "species": "Human",
            "type": "",
            "gender": "Male",
            "origin": {
                "name": "unknown",
                "url": ""
            },
            "location": {
                "name": "Citadel of Ricks",
                "url": "https://rickandmortyapi.com/api/location/3"
            },
            "image": "https://rickandmortyapi.com/api/character/avatar/359.jpeg",
            "episode": [
                "https://rickandmortyapi.com/api/episode/10"
            ],
            "url": "https://rickandmortyapi.com/api/character/359",
            "created": "2018-01-10T18:14:50.992Z"
        },
        {
            "id": 360,
            "name": "Toxic Morty",
            "status": "Dead",
            "species": "Humanoid",
            "type": "Morty's toxic side",
            "gender": "Male",
            "origin": {
                "name": "Detoxifier",
                "url": "https://rickandmortyapi.com/api/location/64"
            },
            "location": {
                "name": "Earth (Replacement Dimension)",
                "url": "https://rickandmortyapi.com/api/location/20"
            },
            "image": "https://rickandmortyapi.com/api/character/avatar/360.jpeg",
            "episode": [
                "https://rickandmortyapi.com/api/episode/27"
            ],
            "url": "https://rickandmortyapi.com/api/character/360",
            "created": "2018-01-10T18:18:05.422Z"
        }
    ]
}