{
    "info": {
        "count": 826,
        "pages": 42,
        "next": "https://rickandmortyapi.com/api/character?page=17",
        "prev": "https://rickandmortyapi.com/api/character?page=15"
    },
    "results": [
        {
            "id": 301,
            "name": "Ron Benson",
            "status": "Alive",
            "species": "Alien",
            "type": "Ring-nippled alien",
            "gender": "Male",
            "origin": {
                "name": "Unity's Planet",
                "url": "https://rickandmortyapi.com/api/location/28"
            },
            "location": {
                "name": "Unity's Planet",
                "url": "https://rickandmortyapi.com/api/location/28"
            },
            "image": "https://rickandmortyapi.com/api/character/avatar/301.jpeg",
            "episode": [
                "https://rickandmortyapi.com/api/episode/14"
            ],
            "url": "https://rickandmortyapi.com/api/character/301",
            "created": "2018-01-05T14:02:20.902Z"
        },
        {
            "id": 302,
            "name": "Ruben",
            "status": "Dead",
            "species": "Human",
            "type": "",
            "gender": "Male",
            "origin": {
                "name": "Earth (C-137)",
                "url": "https://rickandmortyapi.com/api/location/1"
            },
            "location": {
                "name": "Earth (C-137)",
                "url": "https://rickandmortyapi.com/api/location/1"
            },
            "image": "https://rickandmortyapi.com/api/character/avatar/302.jpeg",
            "episode": [
                "https://rickandmortyapi.com/api/episode/3"
            ],
            "url": "https://rickandmortyapi.com/api/character/302",
            "created": "2018-01-05T14:03:21.824Z"
        },
        {
            "id": 303,
            "name": "Samantha",
            "status": "Alive",
            "species": "Human",
            "type": "",
            "gender": "Female",
            "origin": {
                "name": "Earth (C-137)",
                "url": "https://rickandmortyapi.com/api/location/1"
            },
            "location": {
                "name": "Earth (C-137)",
                "url": "https://rickandmortyapi.com/api/location/1"
            },
            "image": "https://rickandmortyapi.com/api/character/avatar/303.jpeg",
            "episode": [
                "https://rickandmortyapi.com/api/episode/5"
            ],
            "url": "https://rickandmortyapi.com/api/character/303",
            "created": "2018-01-05T14:09:03.150Z"
        },
        {
            "id": 304,
            "name": "Scary Brandon",
            "status": "Alive",
            "species": "Mythological Creature",
            "type": "Monster",
            "gender": "Male",
            "origin": {
                "name": "Mr. Goldenfold's dream",
                "url": "https://rickandmortyapi.com/api/location/18"
            },
            "location": {
                "name": "Mr. Goldenfold's dream",
                "url": "https://rickandmortyapi.com/api/location/18"
            },
            "image": "https://rickandmortyapi.com/api/character/avatar/304.jpeg",
            "episode": [
                "https://rickandmortyapi.com/api/episode/2"
            ],
            "url": "https://rickandmortyapi.com/api/character/304",
            "created": "2018-01-05T14:11:17.550Z"
        },
        {
            "id": 305,
            "name": "Scary Glenn",
            "status": "Alive",
            "species": "Mythological Creature",
            "type": "Monster",
            "gender": "Male",
            "origin": {
                "name": "Mr. Goldenfold's dream",
                "url": "https://rickandmortyapi.com/api/location/18"
            },
            "location": {
                "name": "Mr. Goldenfold's dream",
                "url": "https://rickandmortyapi.com/api/location/18"
            },
            "image": "https://rickandmortyapi.com/api/character/avatar/305.jpeg",
            "episode": [
                "https://rickandmortyapi.com/api/episode/2"
            ],
            "url": "https://rickandmortyapi.com/api/character/305",
            "created": "2018-01-05T14:11:53.287Z"
        },
        {
            "id": 306,
            "name": "Scary Terry",
            "status": "Alive",
            "species": "Mythological Creature",
            "type": "Monster",
            "gender": "Male",
            "origin": {
                "name": "Mr. Goldenfold's dream",
                "url": "https://rickandmortyapi.com/api/location/18"
            },
            "location": {
                "name": "Mr. Goldenfold's dream",
                "url": "https://rickandmortyapi.com/api/location/18"
            },
            "image": "https://rickandmortyapi.com/api/character/avatar/306.jpeg",
            "episode": [
                "https://rickandmortyapi.com/api/episode/2"
            ],
            "url": "https://rickandmortyapi.com/api/character/306",
            "created": "2018-01-05T14:13:01.564Z"
        },
        {
            "id": 307,
            "name": "Scroopy Noopers",
            "status": "Alive",
            "species": "Alien",
            "type": "Plutonian",
            "gender": "Male",
            "origin": {
                "name": "Pluto",
                "url": "https://rickandmortyapi.com/api/location/47"
            },
            "location": {
                "name": "Pluto",
                "url": "https://rickandmortyapi.com/api/location/47"
            },
            "image": "https://rickandmortyapi.com/api/character/avatar/307.jpeg",
            "episode": [
                "https://rickandmortyapi.com/api/episode/9"
            ],
            "url": "https://rickandmortyapi.com/api/character/307",
            "created": "2018-01-05T14:20:41.693Z"
        },
        {
            "id": 308,
            "name": "Scropon",
            "status": "unknown",
            "species": "Alien",
            "type": "Lobster-Alien",
            "gender": "Male",
            "origin": {
                "name": "unknown",
                "url": ""
            },
            "location": {
                "name": "Planet Squanch",
                "url": "https://rickandmortyapi.com/api/location/35"
            },
            "image": "https://rickandmortyapi.com/api/character/avatar/308.jpeg",
            "episode": [
                "https://rickandmortyapi.com/api/episode/11",
                "https://rickandmortyapi.com/api/episode/21"
            ],
            "url": "https://rickandmortyapi.com/api/character/308",
            "created": "2018-01-05T14:22:47.706Z"
        },
        {
            "id": 309,
            "name": "Scrotian",
            "status": "Alive",
            "species": "Animal",
            "type": "Scrotian",
            "gender": "Male",
            "origin": {
                "name": "unknown",
                "url": ""
            },
            "location": {
                "name": "Signus 5 Expanse",
                "url": "https://rickandmortyapi.com/api/location/22"
            },
            "image": "https://rickandmortyapi.com/api/character/avatar/309.jpeg",
            "episode": [
                "https://rickandmortyapi.com/api/episode/13",
                "https://rickandmortyapi.com/api/episode/16",
                "https://rickandmortyapi.com/api/episode/21",
                "https://rickandmortyapi.com/api/episode/25"
            ],
            "url": "https://rickandmortyapi.com/api/character/309",
            "created": "2018-01-05T14:26:50.679Z"
        },
        {
            "id": 310,
            "name": "Self-Congratulatory Jerry",
            "status": "unknown",
            "species": "Mythological Creature",
            "type": "Mytholog",
            "gender": "Male",
            "origin": {
                "name": "Nuptia 4",
                "url": "https://rickandmortyapi.com/api/location/13"
            },
            "location": {
                "name": "Nuptia 4",
                "url": "https://rickandmortyapi.com/api/location/13"
            },
            "image": "https://rickandmortyapi.com/api/character/avatar/310.jpeg",
            "episode": [
                "https://rickandmortyapi.com/api/episode/18"
            ],
            "url": "https://rickandmortyapi.com/api/character/310",
            "created": "2018-01-05T14:29:21.347Z"
        },
        {
            "id": 311,
            "name": "Shimshamian",
            "status": "Alive",
            "species": "Alien",
            "type": "Shimshamian",
            "gender": "Male",
            "origin": {
                "name": "unknown",
                "url": ""
            },
            "location": {
                "name": "Planet Squanch",
                "url": "https://rickandmortyapi.com/api/location/35"
            },
            "image": "https://rickandmortyapi.com/api/character/avatar/311.jpeg",
            "episode": [
                "https://rickandmortyapi.com/api/episode/13",
                "https://rickandmortyapi.com/api/episode/21",
                "https://rickandmortyapi.com/api/episode/25"
            ],
            "url": "https://rickandmortyapi.com/api/character/311",
            "created": "2018-01-05T14:44:01.276Z"
        },
        {
            "id": 312,
            "name": "Shlaammi",
            "status": "Alive",
            "species": "Alien",
            "type": "",
            "gender": "unknown",
            "origin": {
                "name": "unknown",
                "url": ""
            },
            "location": {
                "name": "Interdimensional Cable",
                "url": "https://rickandmortyapi.com/api/location/6"
            },
            "image": "https://rickandmortyapi.com/api/character/avatar/312.jpeg",
            "episode": [
                "https://rickandmortyapi.com/api/episode/19"
            ],
            "url": "https://rickandmortyapi.com/api/character/312",
            "created": "2018-01-05T14:45:39.235Z"
        },
        {
            "id": 313,
            "name": "Shleemypants",
            "status": "Alive",
            "species": "unknown",
            "type": "Omniscient being",
            "gender": "Male",
            "origin": {
                "name": "unknown",
                "url": ""
            },
            "location": {
                "name": "Snake Planet",
                "url": "https://rickandmortyapi.com/api/location/78"
            },
            "image": "https://rickandmortyapi.com/api/character/avatar/313.jpeg",
            "episode": [
                "https://rickandmortyapi.com/api/episode/12",
                "https://rickandmortyapi.com/api/episode/36"
            ],
            "url": "https://rickandmortyapi.com/api/character/313",
            "created": "2018-01-05T14:52:31.489Z"
        },
        {
            "id": 314,
            "name": "Shmlamantha Shmlicelli",
            "status": "Alive",
            "species": "Human",
            "type": "",
            "gender": "Female",
            "origin": {
                "name": "unknown",
                "url": ""
            },
            "location": {
                "name": "Interdimensional Cable",
                "url": "https://rickandmortyapi.com/api/location/6"
            },
            "image": "https://rickandmortyapi.com/api/character/avatar/314.jpeg",
            "episode": [
                "https://rickandmortyapi.com/api/episode/8"
            ],
            "url": "https://rickandmortyapi.com/api/character/314",
            "created": "2018-01-05T14:53:23.739Z"
        },
        {
            "id": 315,
            "name": "Shmlangela Shmlobinson-Shmlower",
            "status": "Alive",
            "species": "Human",
            "type": "",
            "gender": "Female",
            "origin": {
                "name": "unknown",
                "url": ""
            },
            "location": {
                "name": "Interdimensional Cable",
                "url": "https://rickandmortyapi.com/api/location/6"
            },
            "image": "https://rickandmortyapi.com/api/character/avatar/315.jpeg",
            "episode": [
                "https://rickandmortyapi.com/api/episode/8"
            ],
            "url": "https://rickandmortyapi.com/api/character/315",
            "created": "2018-01-05T14:54:37.641Z"
        },
        {
            "id": 316,
            "name": "Shmlona Shmlobinson",
            "status": "Alive",
            "species": "Human",
            "type": "",
            "gender": "Female",
            "origin": {
                "name": "unknown",
                "url": ""
            },
            "location": {
                "name": "Interdimensional Cable",
                "url": "https://rickandmortyapi.com/api/location/6"
            },
            "image": "https://rickandmortyapi.com/api/character/avatar/316.jpeg",
            "episode": [
                "https://rickandmortyapi.com/api/episode/8"
            ],
            "url": "https://rickandmortyapi.com/api/character/316",
            "created": "2018-01-05T14:55:42.034Z"
        },
        {
            "id": 317,
            "name": "Shmlonathan Shmlower",
            "status": "Alive",
            "species": "Human",
            "type": "",
            "gender": "Male",
            "origin": {
                "name": "unknown",
                "url": ""
            },
            "location": {
                "name": "Interdimensional Cable",
                "url": "https://rickandmortyapi.com/api/location/6"
            },
            "image": "https://rickandmortyapi.com/api/character/avatar/317.jpeg",
            "episode": [
                "https://rickandmortyapi.com/api/episode/8"
            ],
            "url": "https://rickandmortyapi.com/api/character/317",
            "created": "2018-01-05T14:56:15.428Z"
        },
        {
            "id": 318,
            "name": "Shmlony Shmlicelli",
            "status": "Alive",
            "species": "Human",
            "type": "",
            "gender": "Male",
            "origin": {
                "name": "unknown",
                "url": ""
            },
            "location": {
                "name": "Interdimensional Cable",
                "url": "https://rickandmortyapi.com/api/location/6"
            },
            "image": "https://rickandmortyapi.com/api/character/avatar/318.jpeg",
            "episode": [
                "https://rickandmortyapi.com/api/episode/8"
            ],
            "url": "https://rickandmortyapi.com/api/character/318",
            "created": "2018-01-05T14:56:45.502Z"
        },
        {
            "id": 319,
            "name": "Shmooglite Runner",
            "status": "unknown",
            "species": "Alien",
            "type": "Animal",
            "gender": "Male",
            "origin": {
                "name": "Resort Planet",
                "url": "https://rickandmortyapi.com/api/location/37"
            },
            "location": {
                "name": "Resort Planet",
                "url": "https://rickandmortyapi.com/api/location/37"
            },
            "image": "https://rickandmortyapi.com/api/character/avatar/319.jpeg",
            "episode": [
                "https://rickandmortyapi.com/api/episode/26"
            ],
            "url": "https://rickandmortyapi.com/api/character/319",
            "created": "2018-01-05T14:59:34.798Z"
        },
        {
            "id": 320,
            "name": "Shnoopy Bloopers",
            "status": "unknown",
            "species": "Alien",
            "type": "",
            "gender": "Male",
            "origin": {
                "name": "unknown",
                "url": ""
            },
            "location": {
                "name": "Immortality Field Resort",
                "url": "https://rickandmortyapi.com/api/location/7"
            },
            "image": "https://rickandmortyapi.com/api/character/avatar/320.jpeg",
            "episode": [
                "https://rickandmortyapi.com/api/episode/26"
            ],
            "url": "https://rickandmortyapi.com/api/character/320",
            "created": "2018-01-05T15:02:28.103Z"
        }
    ]
}