{
    "info": {
        "count": 826,
        "pages": 42,
        "next": "https://rickandmortyapi.com/api/character?page=40",
        "prev": "https://rickandmortyapi.com/api/character?page=38"
    },
    "results": [
        {
            "id": 761,
            "name": "Turkey President Curtis",
            "status": "Alive",
            "species": "Animal",
            "type": "Turkey",
            "gender": "Male",
            "origin": {
                "name": "Earth (Replacement Dimension)",
                "url": "https://rickandmortyapi.com/api/location/20"
            },
            "location": {
                "name": "Earth (Replacement Dimension)",
                "url": "https://rickandmortyapi.com/api/location/20"
            },
            "image": "https://rickandmortyapi.com/api/character/avatar/761.jpeg",
            "episode": [
                "https://rickandmortyapi.com/api/episode/47"
            ],
            "url": "https://rickandmortyapi.com/api/character/761",
            "created": "2021-10-17T15:03:29.593Z"
        },
        {
            "id": 762,
            "name": "Martínez",
            "status": "Dead",
            "species": "Animal",
            "type": "Turkey",
            "gender": "Male",
            "origin": {
                "name": "Earth (Replacement Dimension)",
                "url": "https://rickandmortyapi.com/api/location/20"
            },
            "location": {
                "name": "Earth (Replacement Dimension)",
                "url": "https://rickandmortyapi.com/api/location/20"
            },
            "image": "https://rickandmortyapi.com/api/character/avatar/762.jpeg",
            "episode": [
                "https://rickandmortyapi.com/api/episode/47"
            ],
            "url": "https://rickandmortyapi.com/api/character/762",
            "created": "2021-10-17T15:06:48.939Z"
        },
        {
            "id": 763,
            "name": "Marvin",
            "status": "Alive",
            "species": "Human",
            "type": "",
            "gender": "Male",
            "origin": {
                "name": "Earth (Replacement Dimension)",
                "url": "https://rickandmortyapi.com/api/location/20"
            },
            "location": {
                "name": "Earth (Replacement Dimension)",
                "url": "https://rickandmortyapi.com/api/location/20"
            },
            "image": "https://rickandmortyapi.com/api/character/avatar/763.jpeg",
            "episode": [
                "https://rickandmortyapi.com/api/episode/47"
            ],
            "url": "https://rickandmortyapi.com/api/character/763",
            "created": "2021-10-17T15:07:24.718Z"
        },
        {
            "id": 764,
            "name": "Jackey",
            "status": "Alive",
            "species": "Human",
            "type": "",
            "gender": "Male",
            "origin": {
                "name": "Earth (Replacement Dimension)",
                "url": "https://rickandmortyapi.com/api/location/20"
            },
            "location": {
                "name": "Earth (Replacement Dimension)",
                "url": "https://rickandmortyapi.com/api/location/20"
            },
            "image": "https://rickandmortyapi.com/api/character/avatar/764.jpeg",
            "episode": [
                "https://rickandmortyapi.com/api/episode/47"
            ],
            "url": "https://rickandmortyapi.com/api/character/764",
            "created": "2021-10-17T15:08:16.906Z"
        },
        {
            "id": 765,
            "name": "Native Alien",
            "status": "Alive",
            "species": "Alien",
            "type": "",
            "gender": "Male",
            "origin": {
                "name": "unknown",
                "url": ""
            },
            "location": {
                "name": "Earth (Replacement Dimension)",
                "url": "https://rickandmortyapi.com/api/location/20"
            },
            "image": "https://rickandmortyapi.com/api/character/avatar/765.jpeg",
            "episode": [
                "https://rickandmortyapi.com/api/episode/47"
            ],
            "url": "https://rickandmortyapi.com/api/character/765",
            "created": "2021-10-17T15:09:22.123Z"
        },
        {
            "id": 766,
            "name": "Pilgrim Alien",
            "status": "Alive",
            "species": "Alien",
            "type": "",
            "gender": "Male",
            "origin": {
                "name": "unknown",
                "url": ""
            },
            "location": {
                "name": "Earth (Replacement Dimension)",
                "url": "https://rickandmortyapi.com/api/location/20"
            },
            "image": "https://rickandmortyapi.com/api/character/avatar/766.jpeg",
            "episode": [
                "https://rickandmortyapi.com/api/episode/47"
            ],
            "url": "https://rickandmortyapi.com/api/character/766",
            "created": "2021-10-17T15:10:21.016Z"
        },
        {
            "id": 767,
            "name": "President Turkey",
            "status": "Dead",
            "species": "Humanoid",
            "type": "Turkey Human Mix",
            "gender": "Male",
            "origin": {
                "name": "Earth (Replacement Dimension)",
                "url": "https://rickandmortyapi.com/api/location/20"
            },
            "location": {
                "name": "Earth (Replacement Dimension)",
                "url": "https://rickandmortyapi.com/api/location/20"
            },
            "image": "https://rickandmortyapi.com/api/character/avatar/767.jpeg",
            "episode": [
                "https://rickandmortyapi.com/api/episode/47"
            ],
            "url": "https://rickandmortyapi.com/api/character/767",
            "created": "2021-10-17T15:11:48.815Z"
        },
        {
            "id": 768,
            "name": "Mary-Lou",
            "status": "Alive",
            "species": "Human",
            "type": "",
            "gender": "Female",
            "origin": {
                "name": "Earth (Replacement Dimension)",
                "url": "https://rickandmortyapi.com/api/location/20"
            },
            "location": {
                "name": "Earth (Replacement Dimension)",
                "url": "https://rickandmortyapi.com/api/location/20"
            },
            "image": "https://rickandmortyapi.com/api/character/avatar/768.jpeg",
            "episode": [
                "https://rickandmortyapi.com/api/episode/47"
            ],
            "url": "https://rickandmortyapi.com/api/character/768",
            "created": "2021-10-17T15:26:42.828Z"
        },
        {
            "id": 769,
            "name": "Big Fat rick",
            "status": "unknown",
            "species": "Human",
            "type": "",
            "gender": "Male",
            "origin": {
                "name": "unknown",
                "url": ""
            },
            "location": {
                "name": "Earth (Replacement Dimension)",
                "url": "https://rickandmortyapi.com/api/location/20"
            },
            "image": "https://rickandmortyapi.com/api/character/avatar/769.jpeg",
            "episode": [
                "https://rickandmortyapi.com/api/episode/48"
            ],
            "url": "https://rickandmortyapi.com/api/character/769",
            "created": "2021-10-25T08:54:36.735Z"
        },
        {
            "id": 770,
            "name": "Hothead Rick",
            "status": "Dead",
            "species": "Human",
            "type": "",
            "gender": "Male",
            "origin": {
                "name": "unknown",
                "url": ""
            },
            "location": {
                "name": "Earth (Replacement Dimension)",
                "url": "https://rickandmortyapi.com/api/location/20"
            },
            "image": "https://rickandmortyapi.com/api/character/avatar/770.jpeg",
            "episode": [
                "https://rickandmortyapi.com/api/episode/48"
            ],
            "url": "https://rickandmortyapi.com/api/character/770",
            "created": "2021-10-25T08:55:48.771Z"
        },
        {
            "id": 771,
            "name": "Ricardo Montoya",
            "status": "unknown",
            "species": "Human",
            "type": "",
            "gender": "Male",
            "origin": {
                "name": "unknown",
                "url": ""
            },
            "location": {
                "name": "Earth (Replacement Dimension)",
                "url": "https://rickandmortyapi.com/api/location/20"
            },
            "image": "https://rickandmortyapi.com/api/character/avatar/771.jpeg",
            "episode": [
                "https://rickandmortyapi.com/api/episode/48"
            ],
            "url": "https://rickandmortyapi.com/api/character/771",
            "created": "2021-10-25T08:56:41.727Z"
        },
        {
            "id": 772,
            "name": "Wrap-it-up Little Rick",
            "status": "Dead",
            "species": "Human",
            "type": "",
            "gender": "Male",
            "origin": {
                "name": "unknown",
                "url": ""
            },
            "location": {
                "name": "Earth (Replacement Dimension)",
                "url": "https://rickandmortyapi.com/api/location/20"
            },
            "image": "https://rickandmortyapi.com/api/character/avatar/772.jpeg",
            "episode": [
                "https://rickandmortyapi.com/api/episode/48"
            ],
            "url": "https://rickandmortyapi.com/api/character/772",
            "created": "2021-10-25T08:57:20.725Z"
        },
        {
            "id": 773,
            "name": "Yo-yo Rick",
            "status": "unknown",
            "species": "Human",
            "type": "",
            "gender": "Male",
            "origin": {
                "name": "unknown",
                "url": ""
            },
            "location": {
                "name": "Earth (Replacement Dimension)",
                "url": "https://rickandmortyapi.com/api/location/20"
            },
            "image": "https://rickandmortyapi.com/api/character/avatar/773.jpeg",
            "episode": [
                "https://rickandmortyapi.com/api/episode/48"
            ],
            "url": "https://rickandmortyapi.com/api/character/773",
            "created": "2021-10-25T08:58:05.108Z"
        },
        {
            "id": 774,
            "name": "Voiceoverian",
            "status": "Dead",
            "species": "Alien",
            "type": "Parasite",
            "gender": "unknown",
            "origin": {
                "name": "unknown",
                "url": ""
            },
            "location": {
                "name": "Earth (Replacement Dimension)",
                "url": "https://rickandmortyapi.com/api/location/20"
            },
            "image": "https://rickandmortyapi.com/api/character/avatar/774.jpeg",
            "episode": [
                "https://rickandmortyapi.com/api/episode/48"
            ],
            "url": "https://rickandmortyapi.com/api/character/774",
            "created": "2021-10-25T08:59:23.442Z"
        },
        {
            "id": 775,
            "name": "Voiceoverian",
            "status": "Dead",
            "species": "Alien",
            "type": "Parasite",
            "gender": "unknown",
            "origin": {
                "name": "unknown",
                "url": ""
            },
            "location": {
                "name": "Earth (Replacement Dimension)",
                "url": "https://rickandmortyapi.com/api/location/20"
            },
            "image": "https://rickandmortyapi.com/api/character/avatar/775.jpeg",
            "episode": [
                "https://rickandmortyapi.com/api/episode/48"
            ],
            "url": "https://rickandmortyapi.com/api/character/775",
            "created": "2021-10-25T08:59:52.011Z"
        },
        {
            "id": 776,
            "name": "Gotron Pilot",
            "status": "Dead",
            "species": "Human",
            "type": "Anime",
            "gender": "Male",
            "origin": {
                "name": "unknown",
                "url": ""
            },
            "location": {
                "name": "Earth (Replacement Dimension)",
                "url": "https://rickandmortyapi.com/api/location/20"
            },
            "image": "https://rickandmortyapi.com/api/character/avatar/776.jpeg",
            "episode": [
                "https://rickandmortyapi.com/api/episode/48"
            ],
            "url": "https://rickandmortyapi.com/api/character/776",
            "created": "2021-10-25T09:00:59.768Z"
        },
        {
            "id": 777,
            "name": "Gotron Pilot",
            "status": "Dead",
            "species": "Human",
            "type": "Anime",
            "gender": "Male",
            "origin": {
                "name": "unknown",
                "url": ""
            },
            "location": {
                "name": "Earth (Replacement Dimension)",
                "url": "https://rickandmortyapi.com/api/location/20"
            },
            "image": "https://rickandmortyapi.com/api/character/avatar/777.jpeg",
            "episode": [
                "https://rickandmortyapi.com/api/episode/48"
            ],
            "url": "https://rickandmortyapi.com/api/character/777",
            "created": "2021-10-25T09:02:55.146Z"
        },
        {
            "id": 778,
            "name": "Gotron Pilot",
            "status": "Dead",
            "species": "Human",
            "type": "Anime",
            "gender": "Male",
            "origin": {
                "name": "unknown",
                "url": ""
            },
            "location": {
                "name": "Earth (Replacement Dimension)",
                "url": "https://rickandmortyapi.com/api/location/20"
            },
            "image": "https://rickandmortyapi.com/api/character/avatar/778.jpeg",
            "episode": [
                "https://rickandmortyapi.com/api/episode/48"
            ],
            "url": "https://rickandmortyapi.com/api/character/778",
            "created": "2021-10-25T09:04:17.165Z"
        },
        {
            "id": 779,
            "name": "Young Memory Rick",
            "status": "Alive",
            "species": "Human",
            "type": "Memory",
            "gender": "Male",
            "origin": {
                "name": "Birdperson's Consciousness",
                "url": "https://rickandmortyapi.com/api/location/120"
            },
            "location": {
                "name": "Rick's Memories",
                "url": "https://rickandmortyapi.com/api/location/126"
            },
            "image": "https://rickandmortyapi.com/api/character/avatar/779.jpeg",
            "episode": [
                "https://rickandmortyapi.com/api/episode/49"
            ],
            "url": "https://rickandmortyapi.com/api/character/779",
            "created": "2021-10-25T09:12:36.210Z"
        },
        {
            "id": 780,
            "name": "Memory Tammy",
            "status": "Dead",
            "species": "Human",
            "type": "Memory",
            "gender": "Female",
            "origin": {
                "name": "Birdperson's Consciousness",
                "url": "https://rickandmortyapi.com/api/location/120"
            },
            "location": {
                "name": "Birdperson's Consciousness",
                "url": "https://rickandmortyapi.com/api/location/120"
            },
            "image": "https://rickandmortyapi.com/api/character/avatar/780.jpeg",
            "episode": [
                "https://rickandmortyapi.com/api/episode/49"
            ],
            "url": "https://rickandmortyapi.com/api/character/780",
            "created": "2021-10-25T09:14:05.923Z"
        }
    ]
}