{
    "info": {
        "count": 826,
        "pages": 42,
        "next": "https://rickandmortyapi.com/api/character?page=42",
        "prev": "https://rickandmortyapi.com/api/character?page=40"
    },
    "results": [
        {
            "id": 801,
            "name": "7+7 Years Old Morty",
            "status": "unknown",
            "species": "Human",
            "type": "",
            "gender": "Male",
            "origin": {
                "name": "Citadel of Ricks",
                "url": "https://rickandmortyapi.com/api/location/3"
            },
            "location": {
                "name": "Citadel of Ricks",
                "url": "https://rickandmortyapi.com/api/location/3"
            },
            "image": "https://rickandmortyapi.com/api/character/avatar/801.jpeg",
            "episode": [
                "https://rickandmortyapi.com/api/episode/51"
            ],
            "url": "https://rickandmortyapi.com/api/character/801",
            "created": "2021-11-02T13:12:26.860Z"
        },
        {
            "id": 802,
            "name": "26 Years Old Morty",
            "status": "Dead",
            "species": "Human",
            "type": "",
            "gender": "Male",
            "origin": {
                "name": "Citadel of Ricks",
                "url": "https://rickandmortyapi.com/api/location/3"
            },
            "location": {
                "name": "Citadel of Ricks",
                "url": "https://rickandmortyapi.com/api/location/3"
            },
            "image": "https://rickandmortyapi.com/api/character/avatar/802.jpeg",
            "episode": [
                "https://rickandmortyapi.com/api/episode/51"
            ],
            "url": "https://rickandmortyapi.com/api/character/802",
            "created": "2021-11-02T13:12:42.408Z"
        },
        {
            "id": 803,
            "name": "40 Years Old Morty",
            "status": "unknown",
            "species": "Human",
            "type": "",
            "gender": "Male",
            "origin": {
                "name": "Citadel of Ricks",
                "url": "https://rickandmortyapi.com/api/location/3"
            },
            "location": {
                "name": "Citadel of Ricks",
                "url": "https://rickandmortyapi.com/api/location/3"
            },
            "image": "https://rickandmortyapi.com/api/character/avatar/803.jpeg",
            "episode": [
                "https://rickandmortyapi.com/api/episode/51"
            ],
            "url": "https://rickandmortyapi.com/api/character/803",
            "created": "2021-11-02T13:13:51.515Z"
        },
        {
            "id": 804,
            "name": "Andy",
            "status": "unknown",
            "species": "Human",
            "type": "Mascot",
            "gender": "Male",
            "origin": {
                "name": "unknown",
                "url": ""
            },
            "location": {
                "name": "Citadel of Ricks",
                "url": "https://rickandmortyapi.com/api/location/3"
            },
            "image": "https://rickandmortyapi.com/api/character/avatar/804.jpeg",
            "episode": [
                "https://rickandmortyapi.com/api/episode/51"
            ],
            "url": "https://rickandmortyapi.com/api/character/804",
            "created": "2021-11-02T13:19:19.807Z"
        },
        {
            "id": 805,
            "name": "Baby Mouse Skin Morty",
            "status": "Alive",
            "species": "Human",
            "type": "",
            "gender": "Male",
            "origin": {
                "name": "Citadel of Ricks",
                "url": "https://rickandmortyapi.com/api/location/3"
            },
            "location": {
                "name": "Citadel of Ricks",
                "url": "https://rickandmortyapi.com/api/location/3"
            },
            "image": "https://rickandmortyapi.com/api/character/avatar/805.jpeg",
            "episode": [
                "https://rickandmortyapi.com/api/episode/51"
            ],
            "url": "https://rickandmortyapi.com/api/character/805",
            "created": "2021-11-02T13:31:17.973Z"
        },
        {
            "id": 806,
            "name": "Metaphor for Capitalism",
            "status": "Dead",
            "species": "Humanoid",
            "type": "",
            "gender": "Male",
            "origin": {
                "name": "Citadel of Ricks",
                "url": "https://rickandmortyapi.com/api/location/3"
            },
            "location": {
                "name": "Citadel of Ricks",
                "url": "https://rickandmortyapi.com/api/location/3"
            },
            "image": "https://rickandmortyapi.com/api/character/avatar/806.jpeg",
            "episode": [
                "https://rickandmortyapi.com/api/episode/51"
            ],
            "url": "https://rickandmortyapi.com/api/character/806",
            "created": "2021-11-02T13:33:10.457Z"
        },
        {
            "id": 807,
            "name": "Beth Sanchez",
            "status": "Dead",
            "species": "Human",
            "type": "",
            "gender": "Female",
            "origin": {
                "name": "Earth (C-137)",
                "url": "https://rickandmortyapi.com/api/location/1"
            },
            "location": {
                "name": "Rick's Memories",
                "url": "https://rickandmortyapi.com/api/location/126"
            },
            "image": "https://rickandmortyapi.com/api/character/avatar/807.jpeg",
            "episode": [
                "https://rickandmortyapi.com/api/episode/51"
            ],
            "url": "https://rickandmortyapi.com/api/character/807",
            "created": "2021-11-02T13:39:31.038Z"
        },
        {
            "id": 808,
            "name": "Crow Scare",
            "status": "Alive",
            "species": "Humanoid",
            "type": "Scarecrow",
            "gender": "Male",
            "origin": {
                "name": "Rick and Two Crows Planet",
                "url": "https://rickandmortyapi.com/api/location/125"
            },
            "location": {
                "name": "Rick and Two Crows Planet",
                "url": "https://rickandmortyapi.com/api/location/125"
            },
            "image": "https://rickandmortyapi.com/api/character/avatar/808.jpeg",
            "episode": [
                "https://rickandmortyapi.com/api/episode/51"
            ],
            "url": "https://rickandmortyapi.com/api/character/808",
            "created": "2021-11-02T13:41:47.963Z"
        },
        {
            "id": 809,
            "name": "Pussifer",
            "status": "Dead",
            "species": "Animal",
            "type": "Tiger",
            "gender": "Male",
            "origin": {
                "name": "Rick and Two Crows Planet",
                "url": "https://rickandmortyapi.com/api/location/125"
            },
            "location": {
                "name": "Rick and Two Crows Planet",
                "url": "https://rickandmortyapi.com/api/location/125"
            },
            "image": "https://rickandmortyapi.com/api/character/avatar/809.jpeg",
            "episode": [
                "https://rickandmortyapi.com/api/episode/51"
            ],
            "url": "https://rickandmortyapi.com/api/character/809",
            "created": "2021-11-02T13:51:30.942Z"
        },
        {
            "id": 810,
            "name": "Stan Lee Rick",
            "status": "unknown",
            "species": "Human",
            "type": "",
            "gender": "Male",
            "origin": {
                "name": "unknown",
                "url": ""
            },
            "location": {
                "name": "Citadel of Ricks",
                "url": "https://rickandmortyapi.com/api/location/3"
            },
            "image": "https://rickandmortyapi.com/api/character/avatar/810.jpeg",
            "episode": [
                "https://rickandmortyapi.com/api/episode/51"
            ],
            "url": "https://rickandmortyapi.com/api/character/810",
            "created": "2021-11-02T13:55:06.815Z"
        },
        {
            "id": 811,
            "name": "Re-Build-a-Morty Morty",
            "status": "unknown",
            "species": "Human",
            "type": "",
            "gender": "Male",
            "origin": {
                "name": "unknown",
                "url": ""
            },
            "location": {
                "name": "Citadel of Ricks",
                "url": "https://rickandmortyapi.com/api/location/3"
            },
            "image": "https://rickandmortyapi.com/api/character/avatar/811.jpeg",
            "episode": [
                "https://rickandmortyapi.com/api/episode/51"
            ],
            "url": "https://rickandmortyapi.com/api/character/811",
            "created": "2021-11-02T14:06:40.357Z"
        },
        {
            "id": 812,
            "name": "Deformed Morty",
            "status": "Dead",
            "species": "Humanoid",
            "type": "",
            "gender": "Male",
            "origin": {
                "name": "Citadel of Ricks",
                "url": "https://rickandmortyapi.com/api/location/3"
            },
            "location": {
                "name": "Citadel of Ricks",
                "url": "https://rickandmortyapi.com/api/location/3"
            },
            "image": "https://rickandmortyapi.com/api/character/avatar/812.jpeg",
            "episode": [
                "https://rickandmortyapi.com/api/episode/51"
            ],
            "url": "https://rickandmortyapi.com/api/character/812",
            "created": "2021-11-02T14:07:57.818Z"
        },
        {
            "id": 813,
            "name": "Crow Horse",
            "status": "Alive",
            "species": "Robot",
            "type": "Crow Horse",
            "gender": "unknown",
            "origin": {
                "name": "Rick and Two Crows Planet",
                "url": "https://rickandmortyapi.com/api/location/125"
            },
            "location": {
                "name": "Earth (Replacement Dimension)",
                "url": "https://rickandmortyapi.com/api/location/20"
            },
            "image": "https://rickandmortyapi.com/api/character/avatar/813.jpeg",
            "episode": [
                "https://rickandmortyapi.com/api/episode/51"
            ],
            "url": "https://rickandmortyapi.com/api/character/813",
            "created": "2021-11-02T14:11:56.442Z"
        },
        {
            "id": 814,
            "name": "Bald Rick",
            "status": "Dead",
            "species": "Human",
            "type": "",
            "gender": "Male",
            "origin": {
                "name": "unknown",
                "url": ""
            },
            "location": {
                "name": "Rick's Memories",
                "url": "https://rickandmortyapi.com/api/location/126"
            },
            "image": "https://rickandmortyapi.com/api/character/avatar/814.jpeg",
            "episode": [
                "https://rickandmortyapi.com/api/episode/51"
            ],
            "url": "https://rickandmortyapi.com/api/character/814",
            "created": "2021-11-02T15:16:51.977Z"
        },
        {
            "id": 815,
            "name": "Punk Rick",
            "status": "Dead",
            "species": "Human",
            "type": "",
            "gender": "Male",
            "origin": {
                "name": "unknown",
                "url": ""
            },
            "location": {
                "name": "Rick's Memories",
                "url": "https://rickandmortyapi.com/api/location/126"
            },
            "image": "https://rickandmortyapi.com/api/character/avatar/815.jpeg",
            "episode": [
                "https://rickandmortyapi.com/api/episode/51"
            ],
            "url": "https://rickandmortyapi.com/api/character/815",
            "created": "2021-11-02T15:19:11.398Z"
        },
        {
            "id": 816,
            "name": "Party Rick",
            "status": "Dead",
            "species": "Human",
            "type": "",
            "gender": "Male",
            "origin": {
                "name": "unknown",
                "url": ""
            },
            "location": {
                "name": "Rick's Memories",
                "url": "https://rickandmortyapi.com/api/location/126"
            },
            "image": "https://rickandmortyapi.com/api/character/avatar/816.jpeg",
            "episode": [
                "https://rickandmortyapi.com/api/episode/51"
            ],
            "url": "https://rickandmortyapi.com/api/character/816",
            "created": "2021-11-02T15:21:28.996Z"
        },
        {
            "id": 817,
            "name": "Scar Rick",
            "status": "Dead",
            "species": "Human",
            "type": "",
            "gender": "Male",
            "origin": {
                "name": "unknown",
                "url": ""
            },
            "location": {
                "name": "Rick's Memories",
                "url": "https://rickandmortyapi.com/api/location/126"
            },
            "image": "https://rickandmortyapi.com/api/character/avatar/817.jpeg",
            "episode": [
                "https://rickandmortyapi.com/api/episode/51"
            ],
            "url": "https://rickandmortyapi.com/api/character/817",
            "created": "2021-11-02T15:23:05.371Z"
        },
        {
            "id": 818,
            "name": "Long Hair Rick",
            "status": "unknown",
            "species": "Human",
            "type": "",
            "gender": "Male",
            "origin": {
                "name": "unknown",
                "url": ""
            },
            "location": {
                "name": "Citadel of Ricks",
                "url": "https://rickandmortyapi.com/api/location/3"
            },
            "image": "https://rickandmortyapi.com/api/character/avatar/818.jpeg",
            "episode": [
                "https://rickandmortyapi.com/api/episode/51"
            ],
            "url": "https://rickandmortyapi.com/api/character/818",
            "created": "2021-11-02T15:24:36.172Z"
        },
        {
            "id": 819,
            "name": "Redhead Rick",
            "status": "Dead",
            "species": "Human",
            "type": "",
            "gender": "Male",
            "origin": {
                "name": "unknown",
                "url": ""
            },
            "location": {
                "name": "Citadel of Ricks",
                "url": "https://rickandmortyapi.com/api/location/3"
            },
            "image": "https://rickandmortyapi.com/api/character/avatar/819.jpeg",
            "episode": [
                "https://rickandmortyapi.com/api/episode/51"
            ],
            "url": "https://rickandmortyapi.com/api/character/819",
            "created": "2021-11-02T15:26:36.495Z"
        },
        {
            "id": 820,
            "name": "Redhead Morty",
            "status": "Dead",
            "species": "Human",
            "type": "",
            "gender": "Male",
            "origin": {
                "name": "unknown",
                "url": ""
            },
            "location": {
                "name": "Citadel of Ricks",
                "url": "https://rickandmortyapi.com/api/location/3"
            },
            "image": "https://rickandmortyapi.com/api/character/avatar/820.jpeg",
            "episode": [
                "https://rickandmortyapi.com/api/episode/51"
            ],
            "url": "https://rickandmortyapi.com/api/character/820",
            "created": "2021-11-02T15:27:02.303Z"
        }
    ]
}