{
    "info": {
        "count": 826,
        "pages": 42,
        "next": "https://rickandmortyapi.com/api/character?page=14",
        "prev": "https://rickandmortyapi.com/api/character?page=12"
    },
    "results": [
        {
            "id": 241,
            "name": "Mr. Marklovitz",
            "status": "Alive",
            "species": "Human",
            "type": "",
            "gender": "Male",
            "origin": {
                "name": "Earth (C-137)",
                "url": "https://rickandmortyapi.com/api/location/1"
            },
            "location": {
                "name": "Earth (Replacement Dimension)",
                "url": "https://rickandmortyapi.com/api/location/20"
            },
            "image": "https://rickandmortyapi.com/api/character/avatar/241.jpeg",
            "episode": [
                "https://rickandmortyapi.com/api/episode/4",
                "https://rickandmortyapi.com/api/episode/16"
            ],
            "url": "https://rickandmortyapi.com/api/character/241",
            "created": "2017-12-30T17:46:19.052Z"
        },
        {
            "id": 242,
            "name": "Mr. Meeseeks",
            "status": "unknown",
            "species": "Humanoid",
            "type": "Meeseeks",
            "gender": "Male",
            "origin": {
                "name": "Mr. Meeseeks Box",
                "url": "https://rickandmortyapi.com/api/location/53"
            },
            "location": {
                "name": "Earth (Fascist Dimension)",
                "url": "https://rickandmortyapi.com/api/location/77"
            },
            "image": "https://rickandmortyapi.com/api/character/avatar/242.jpeg",
            "episode": [
                "https://rickandmortyapi.com/api/episode/5",
                "https://rickandmortyapi.com/api/episode/10",
                "https://rickandmortyapi.com/api/episode/13",
                "https://rickandmortyapi.com/api/episode/29",
                "https://rickandmortyapi.com/api/episode/32"
            ],
            "url": "https://rickandmortyapi.com/api/character/242",
            "created": "2017-12-30T17:52:12.243Z"
        },
        {
            "id": 243,
            "name": "Mr. Needful",
            "status": "Alive",
            "species": "Humanoid",
            "type": "The Devil",
            "gender": "Male",
            "origin": {
                "name": "unknown",
                "url": ""
            },
            "location": {
                "name": "Earth (Replacement Dimension)",
                "url": "https://rickandmortyapi.com/api/location/20"
            },
            "image": "https://rickandmortyapi.com/api/character/avatar/243.jpeg",
            "episode": [
                "https://rickandmortyapi.com/api/episode/9"
            ],
            "url": "https://rickandmortyapi.com/api/character/243",
            "created": "2017-12-30T17:54:06.996Z"
        },
        {
            "id": 244,
            "name": "Mr. Poopybutthole",
            "status": "Alive",
            "species": "Poopybutthole",
            "type": "",
            "gender": "Male",
            "origin": {
                "name": "unknown",
                "url": ""
            },
            "location": {
                "name": "Earth (Replacement Dimension)",
                "url": "https://rickandmortyapi.com/api/location/20"
            },
            "image": "https://rickandmortyapi.com/api/character/avatar/244.jpeg",
            "episode": [
                "https://rickandmortyapi.com/api/episode/15",
                "https://rickandmortyapi.com/api/episode/21",
                "https://rickandmortyapi.com/api/episode/29",
                "https://rickandmortyapi.com/api/episode/30",
                "https://rickandmortyapi.com/api/episode/31",
                "https://rickandmortyapi.com/api/episode/34",
                "https://rickandmortyapi.com/api/episode/51"
            ],
            "url": "https://rickandmortyapi.com/api/character/244",
            "created": "2017-12-30T18:03:48.054Z"
        },
        {
            "id": 245,
            "name": "Mrs. Lipkip",
            "status": "Alive",
            "species": "Human",
            "type": "",
            "gender": "Female",
            "origin": {
                "name": "Earth (Replacement Dimension)",
                "url": "https://rickandmortyapi.com/api/location/20"
            },
            "location": {
                "name": "Earth (Replacement Dimension)",
                "url": "https://rickandmortyapi.com/api/location/20"
            },
            "image": "https://rickandmortyapi.com/api/character/avatar/245.jpeg",
            "episode": [
                "https://rickandmortyapi.com/api/episode/30"
            ],
            "url": "https://rickandmortyapi.com/api/character/245",
            "created": "2017-12-30T18:05:59.999Z"
        },
        {
            "id": 246,
            "name": "Mrs. Pancakes",
            "status": "Alive",
            "species": "Human",
            "type": "",
            "gender": "Female",
            "origin": {
                "name": "Earth (C-137)",
                "url": "https://rickandmortyapi.com/api/location/1"
            },
            "location": {
                "name": "Mr. Goldenfold's dream",
                "url": "https://rickandmortyapi.com/api/location/18"
            },
            "image": "https://rickandmortyapi.com/api/character/avatar/246.jpeg",
            "episode": [
                "https://rickandmortyapi.com/api/episode/2",
                "https://rickandmortyapi.com/api/episode/27"
            ],
            "url": "https://rickandmortyapi.com/api/character/246",
            "created": "2017-12-30T18:09:39.304Z"
        },
        {
            "id": 247,
            "name": "Amy Poopybutthole",
            "status": "Alive",
            "species": "Poopybutthole",
            "type": "",
            "gender": "Female",
            "origin": {
                "name": "unknown",
                "url": ""
            },
            "location": {
                "name": "unknown",
                "url": ""
            },
            "image": "https://rickandmortyapi.com/api/character/avatar/247.jpeg",
            "episode": [
                "https://rickandmortyapi.com/api/episode/31"
            ],
            "url": "https://rickandmortyapi.com/api/character/247",
            "created": "2017-12-30T18:10:48.293Z"
        },
        {
            "id": 248,
            "name": "Mrs. Refrigerator",
            "status": "Dead",
            "species": "Alien",
            "type": "Parasite",
            "gender": "Female",
            "origin": {
                "name": "unknown",
                "url": ""
            },
            "location": {
                "name": "Earth (Replacement Dimension)",
                "url": "https://rickandmortyapi.com/api/location/20"
            },
            "image": "https://rickandmortyapi.com/api/character/avatar/248.jpeg",
            "episode": [
                "https://rickandmortyapi.com/api/episode/15"
            ],
            "url": "https://rickandmortyapi.com/api/character/248",
            "created": "2017-12-30T18:12:38.369Z"
        },
        {
            "id": 249,
            "name": "Mrs. Sanchez",
            "status": "unknown",
            "species": "Human",
            "type": "",
            "gender": "Female",
            "origin": {
                "name": "unknown",
                "url": ""
            },
            "location": {
                "name": "unknown",
                "url": ""
            },
            "image": "https://rickandmortyapi.com/api/character/avatar/249.jpeg",
            "episode": [
                "https://rickandmortyapi.com/api/episode/1",
                "https://rickandmortyapi.com/api/episode/6",
                "https://rickandmortyapi.com/api/episode/14",
                "https://rickandmortyapi.com/api/episode/30"
            ],
            "url": "https://rickandmortyapi.com/api/character/249",
            "created": "2017-12-30T18:18:10.965Z"
        },
        {
            "id": 250,
            "name": "Mrs. Sullivan",
            "status": "Dead",
            "species": "Human",
            "type": "Cat controlled dead lady",
            "gender": "Female",
            "origin": {
                "name": "Earth (C-500A)",
                "url": "https://rickandmortyapi.com/api/location/23"
            },
            "location": {
                "name": "Interdimensional Cable",
                "url": "https://rickandmortyapi.com/api/location/6"
            },
            "image": "https://rickandmortyapi.com/api/character/avatar/250.jpeg",
            "episode": [
                "https://rickandmortyapi.com/api/episode/8"
            ],
            "url": "https://rickandmortyapi.com/api/character/250",
            "created": "2017-12-30T18:24:49.372Z"
        },
        {
            "id": 251,
            "name": "Nancy",
            "status": "Alive",
            "species": "Human",
            "type": "",
            "gender": "Female",
            "origin": {
                "name": "Earth (Replacement Dimension)",
                "url": "https://rickandmortyapi.com/api/location/20"
            },
            "location": {
                "name": "Earth (Replacement Dimension)",
                "url": "https://rickandmortyapi.com/api/location/20"
            },
            "image": "https://rickandmortyapi.com/api/character/avatar/251.jpeg",
            "episode": [
                "https://rickandmortyapi.com/api/episode/6",
                "https://rickandmortyapi.com/api/episode/9",
                "https://rickandmortyapi.com/api/episode/11",
                "https://rickandmortyapi.com/api/episode/25",
                "https://rickandmortyapi.com/api/episode/29",
                "https://rickandmortyapi.com/api/episode/36"
            ],
            "url": "https://rickandmortyapi.com/api/character/251",
            "created": "2017-12-31T12:46:54.095Z"
        },
        {
            "id": 252,
            "name": "Noob-Noob",
            "status": "Alive",
            "species": "Poopybutthole",
            "type": "",
            "gender": "Male",
            "origin": {
                "name": "unknown",
                "url": ""
            },
            "location": {
                "name": "Vindicator's Base",
                "url": "https://rickandmortyapi.com/api/location/54"
            },
            "image": "https://rickandmortyapi.com/api/character/avatar/252.jpeg",
            "episode": [
                "https://rickandmortyapi.com/api/episode/25"
            ],
            "url": "https://rickandmortyapi.com/api/character/252",
            "created": "2017-12-31T12:57:37.849Z"
        },
        {
            "id": 253,
            "name": "Numbericon",
            "status": "unknown",
            "species": "Alien",
            "type": "Numbericon",
            "gender": "unknown",
            "origin": {
                "name": "unknown",
                "url": ""
            },
            "location": {
                "name": "Alphabetrium",
                "url": "https://rickandmortyapi.com/api/location/43"
            },
            "image": "https://rickandmortyapi.com/api/character/avatar/253.jpeg",
            "episode": [
                "https://rickandmortyapi.com/api/episode/16"
            ],
            "url": "https://rickandmortyapi.com/api/character/253",
            "created": "2017-12-31T13:04:01.585Z"
        },
        {
            "id": 254,
            "name": "Octopus Man",
            "status": "Alive",
            "species": "Humanoid",
            "type": "Octopus-Person",
            "gender": "Male",
            "origin": {
                "name": "unknown",
                "url": ""
            },
            "location": {
                "name": "Interdimensional Cable",
                "url": "https://rickandmortyapi.com/api/location/6"
            },
            "image": "https://rickandmortyapi.com/api/character/avatar/254.jpeg",
            "episode": [
                "https://rickandmortyapi.com/api/episode/19"
            ],
            "url": "https://rickandmortyapi.com/api/character/254",
            "created": "2017-12-31T13:06:35.982Z"
        },
        {
            "id": 255,
            "name": "Orthodox Jew",
            "status": "Alive",
            "species": "Human",
            "type": "",
            "gender": "Male",
            "origin": {
                "name": "Earth (Replacement Dimension)",
                "url": "https://rickandmortyapi.com/api/location/20"
            },
            "location": {
                "name": "Earth (Replacement Dimension)",
                "url": "https://rickandmortyapi.com/api/location/20"
            },
            "image": "https://rickandmortyapi.com/api/character/avatar/255.jpeg",
            "episode": [
                "https://rickandmortyapi.com/api/episode/16"
            ],
            "url": "https://rickandmortyapi.com/api/character/255",
            "created": "2017-12-31T13:19:29.825Z"
        },
        {
            "id": 256,
            "name": "Pat Gueterman",
            "status": "Dead",
            "species": "Robot",
            "type": "",
            "gender": "Male",
            "origin": {
                "name": "unknown",
                "url": ""
            },
            "location": {
                "name": "Planet Squanch",
                "url": "https://rickandmortyapi.com/api/location/35"
            },
            "image": "https://rickandmortyapi.com/api/character/avatar/256.jpeg",
            "episode": [
                "https://rickandmortyapi.com/api/episode/21"
            ],
            "url": "https://rickandmortyapi.com/api/character/256",
            "created": "2017-12-31T13:23:08.567Z"
        },
        {
            "id": 257,
            "name": "Paul Fleishman",
            "status": "Alive",
            "species": "Human",
            "type": "",
            "gender": "Male",
            "origin": {
                "name": "unknown",
                "url": ""
            },
            "location": {
                "name": "Jerryboree",
                "url": "https://rickandmortyapi.com/api/location/44"
            },
            "image": "https://rickandmortyapi.com/api/character/avatar/257.jpeg",
            "episode": [
                "https://rickandmortyapi.com/api/episode/13"
            ],
            "url": "https://rickandmortyapi.com/api/character/257",
            "created": "2017-12-31T13:23:47.704Z"
        },
        {
            "id": 258,
            "name": "Pawnshop Clerk",
            "status": "Alive",
            "species": "Alien",
            "type": "",
            "gender": "Male",
            "origin": {
                "name": "unknown",
                "url": ""
            },
            "location": {
                "name": "Pawn Shop Planet",
                "url": "https://rickandmortyapi.com/api/location/55"
            },
            "image": "https://rickandmortyapi.com/api/character/avatar/258.jpeg",
            "episode": [
                "https://rickandmortyapi.com/api/episode/7"
            ],
            "url": "https://rickandmortyapi.com/api/character/258",
            "created": "2017-12-31T13:30:33.611Z"
        },
        {
            "id": 259,
            "name": "Pencilvester",
            "status": "Dead",
            "species": "Alien",
            "type": "Parasite",
            "gender": "Male",
            "origin": {
                "name": "unknown",
                "url": ""
            },
            "location": {
                "name": "Earth (Replacement Dimension)",
                "url": "https://rickandmortyapi.com/api/location/20"
            },
            "image": "https://rickandmortyapi.com/api/character/avatar/259.jpeg",
            "episode": [
                "https://rickandmortyapi.com/api/episode/15"
            ],
            "url": "https://rickandmortyapi.com/api/character/259",
            "created": "2017-12-31T13:33:48.488Z"
        },
        {
            "id": 260,
            "name": "Phillip Jacobs",
            "status": "Alive",
            "species": "Human",
            "type": "",
            "gender": "Male",
            "origin": {
                "name": "unknown",
                "url": ""
            },
            "location": {
                "name": "Interdimensional Cable",
                "url": "https://rickandmortyapi.com/api/location/6"
            },
            "image": "https://rickandmortyapi.com/api/character/avatar/260.jpeg",
            "episode": [
                "https://rickandmortyapi.com/api/episode/19"
            ],
            "url": "https://rickandmortyapi.com/api/character/260",
            "created": "2017-12-31T13:34:58.839Z"
        }
    ]
}