{
    "info": {
        "count": 826,
        "pages": 42,
        "next": "https://rickandmortyapi.com/api/character?page=36",
        "prev": "https://rickandmortyapi.com/api/character?page=34"
    },
    "results": [
        {
            "id": 681,
            "name": "Adam's Mother",
            "status": "Dead",
            "species": "Humanoid",
            "type": "Narnian",
            "gender": "Female",
            "origin": {
                "name": "Narnia Dimension",
                "url": "https://rickandmortyapi.com/api/location/110"
            },
            "location": {
                "name": "Narnia Dimension",
                "url": "https://rickandmortyapi.com/api/location/110"
            },
            "image": "https://rickandmortyapi.com/api/character/avatar/681.jpeg",
            "episode": [
                "https://rickandmortyapi.com/api/episode/42"
            ],
            "url": "https://rickandmortyapi.com/api/character/681",
            "created": "2021-10-16T13:20:07.710Z"
        },
        {
            "id": 682,
            "name": "Warlock",
            "status": "Dead",
            "species": "Humanoid",
            "type": "Narnian",
            "gender": "Male",
            "origin": {
                "name": "Narnia Dimension",
                "url": "https://rickandmortyapi.com/api/location/110"
            },
            "location": {
                "name": "Narnia Dimension",
                "url": "https://rickandmortyapi.com/api/location/110"
            },
            "image": "https://rickandmortyapi.com/api/character/avatar/682.jpeg",
            "episode": [
                "https://rickandmortyapi.com/api/episode/42"
            ],
            "url": "https://rickandmortyapi.com/api/character/682",
            "created": "2021-10-16T13:25:48.872Z"
        },
        {
            "id": 683,
            "name": "Evolved Narnian",
            "status": "Alive",
            "species": "Humanoid",
            "type": "Narnian",
            "gender": "Male",
            "origin": {
                "name": "Narnia Dimension",
                "url": "https://rickandmortyapi.com/api/location/110"
            },
            "location": {
                "name": "Narnia Dimension",
                "url": "https://rickandmortyapi.com/api/location/110"
            },
            "image": "https://rickandmortyapi.com/api/character/avatar/683.jpeg",
            "episode": [
                "https://rickandmortyapi.com/api/episode/42"
            ],
            "url": "https://rickandmortyapi.com/api/character/683",
            "created": "2021-10-16T13:41:40.408Z"
        },
        {
            "id": 684,
            "name": "Mr. Nimbus Secretary",
            "status": "Alive",
            "species": "Animal",
            "type": "Starfish",
            "gender": "Female",
            "origin": {
                "name": "The Ocean",
                "url": "https://rickandmortyapi.com/api/location/109"
            },
            "location": {
                "name": "Earth (Replacement Dimension)",
                "url": "https://rickandmortyapi.com/api/location/20"
            },
            "image": "https://rickandmortyapi.com/api/character/avatar/684.jpeg",
            "episode": [
                "https://rickandmortyapi.com/api/episode/42"
            ],
            "url": "https://rickandmortyapi.com/api/character/684",
            "created": "2021-10-16T13:45:26.155Z"
        },
        {
            "id": 685,
            "name": "Evolved Narnian Disguised as Morty",
            "status": "Alive",
            "species": "Humanoid",
            "type": "Narnian",
            "gender": "Male",
            "origin": {
                "name": "Narnia Dimension",
                "url": "https://rickandmortyapi.com/api/location/110"
            },
            "location": {
                "name": "Narnia Dimension",
                "url": "https://rickandmortyapi.com/api/location/110"
            },
            "image": "https://rickandmortyapi.com/api/character/avatar/685.jpeg",
            "episode": [
                "https://rickandmortyapi.com/api/episode/42"
            ],
            "url": "https://rickandmortyapi.com/api/character/685",
            "created": "2021-10-16T13:49:32.393Z"
        },
        {
            "id": 686,
            "name": "Mr. Nimbus' Squid",
            "status": "Dead",
            "species": "Animal",
            "type": "Squid",
            "gender": "Male",
            "origin": {
                "name": "The Ocean",
                "url": "https://rickandmortyapi.com/api/location/109"
            },
            "location": {
                "name": "Earth (Replacement Dimension)",
                "url": "https://rickandmortyapi.com/api/location/20"
            },
            "image": "https://rickandmortyapi.com/api/character/avatar/686.jpeg",
            "episode": [
                "https://rickandmortyapi.com/api/episode/42"
            ],
            "url": "https://rickandmortyapi.com/api/character/686",
            "created": "2021-10-16T13:51:28.877Z"
        },
        {
            "id": 687,
            "name": "Scarecrow Rick",
            "status": "Dead",
            "species": "Robot",
            "type": "Decoy",
            "gender": "Male",
            "origin": {
                "name": "Earth (Replacement Dimension)",
                "url": "https://rickandmortyapi.com/api/location/20"
            },
            "location": {
                "name": "Earth (Replacement Dimension)",
                "url": "https://rickandmortyapi.com/api/location/20"
            },
            "image": "https://rickandmortyapi.com/api/character/avatar/687.jpeg",
            "episode": [
                "https://rickandmortyapi.com/api/episode/43"
            ],
            "url": "https://rickandmortyapi.com/api/character/687",
            "created": "2021-10-16T15:18:02.052Z"
        },
        {
            "id": 688,
            "name": "Scarecrow Summer",
            "status": "Dead",
            "species": "Robot",
            "type": "Decoy",
            "gender": "Female",
            "origin": {
                "name": "Earth (Replacement Dimension)",
                "url": "https://rickandmortyapi.com/api/location/20"
            },
            "location": {
                "name": "Earth (Replacement Dimension)",
                "url": "https://rickandmortyapi.com/api/location/20"
            },
            "image": "https://rickandmortyapi.com/api/character/avatar/688.jpeg",
            "episode": [
                "https://rickandmortyapi.com/api/episode/43"
            ],
            "url": "https://rickandmortyapi.com/api/character/688",
            "created": "2021-10-16T15:19:13.080Z"
        },
        {
            "id": 689,
            "name": "Scarecrow Jerry",
            "status": "Dead",
            "species": "Robot",
            "type": "Decoy",
            "gender": "Male",
            "origin": {
                "name": "Earth (Replacement Dimension)",
                "url": "https://rickandmortyapi.com/api/location/20"
            },
            "location": {
                "name": "Earth (Replacement Dimension)",
                "url": "https://rickandmortyapi.com/api/location/20"
            },
            "image": "https://rickandmortyapi.com/api/character/avatar/689.jpeg",
            "episode": [
                "https://rickandmortyapi.com/api/episode/43"
            ],
            "url": "https://rickandmortyapi.com/api/character/689",
            "created": "2021-10-16T15:21:40.918Z"
        },
        {
            "id": 690,
            "name": "Scarecrow Morty",
            "status": "Dead",
            "species": "Robot",
            "type": "Decoy",
            "gender": "Male",
            "origin": {
                "name": "Earth (Replacement Dimension)",
                "url": "https://rickandmortyapi.com/api/location/20"
            },
            "location": {
                "name": "Earth (Replacement Dimension)",
                "url": "https://rickandmortyapi.com/api/location/20"
            },
            "image": "https://rickandmortyapi.com/api/character/avatar/690.jpeg",
            "episode": [
                "https://rickandmortyapi.com/api/episode/43"
            ],
            "url": "https://rickandmortyapi.com/api/character/690",
            "created": "2021-10-16T15:22:35.204Z"
        },
        {
            "id": 691,
            "name": "Scarecrow Beth",
            "status": "Dead",
            "species": "Robot",
            "type": "Decoy",
            "gender": "Female",
            "origin": {
                "name": "Earth (Replacement Dimension)",
                "url": "https://rickandmortyapi.com/api/location/20"
            },
            "location": {
                "name": "Earth (Replacement Dimension)",
                "url": "https://rickandmortyapi.com/api/location/20"
            },
            "image": "https://rickandmortyapi.com/api/character/avatar/691.jpeg",
            "episode": [
                "https://rickandmortyapi.com/api/episode/43"
            ],
            "url": "https://rickandmortyapi.com/api/character/691",
            "created": "2021-10-16T15:23:21.971Z"
        },
        {
            "id": 692,
            "name": "Glockenspiel Jerry",
            "status": "Alive",
            "species": "Robot",
            "type": "Decoy",
            "gender": "Male",
            "origin": {
                "name": "Earth (Replacement Dimension)",
                "url": "https://rickandmortyapi.com/api/location/20"
            },
            "location": {
                "name": "Earth (Replacement Dimension)",
                "url": "https://rickandmortyapi.com/api/location/20"
            },
            "image": "https://rickandmortyapi.com/api/character/avatar/692.jpeg",
            "episode": [
                "https://rickandmortyapi.com/api/episode/43"
            ],
            "url": "https://rickandmortyapi.com/api/character/692",
            "created": "2021-10-16T15:32:27.166Z"
        },
        {
            "id": 693,
            "name": "Glockenspiel Beth",
            "status": "Dead",
            "species": "Robot",
            "type": "Decoy",
            "gender": "Female",
            "origin": {
                "name": "Earth (Replacement Dimension)",
                "url": "https://rickandmortyapi.com/api/location/20"
            },
            "location": {
                "name": "Earth (Replacement Dimension)",
                "url": "https://rickandmortyapi.com/api/location/20"
            },
            "image": "https://rickandmortyapi.com/api/character/avatar/693.jpeg",
            "episode": [
                "https://rickandmortyapi.com/api/episode/43"
            ],
            "url": "https://rickandmortyapi.com/api/character/693",
            "created": "2021-10-16T15:34:41.082Z"
        },
        {
            "id": 694,
            "name": "Glockenspiel Rick",
            "status": "Dead",
            "species": "Robot",
            "type": "Decoy",
            "gender": "Male",
            "origin": {
                "name": "Earth (Replacement Dimension)",
                "url": "https://rickandmortyapi.com/api/location/20"
            },
            "location": {
                "name": "Earth (Replacement Dimension)",
                "url": "https://rickandmortyapi.com/api/location/20"
            },
            "image": "https://rickandmortyapi.com/api/character/avatar/694.jpeg",
            "episode": [
                "https://rickandmortyapi.com/api/episode/43"
            ],
            "url": "https://rickandmortyapi.com/api/character/694",
            "created": "2021-10-16T15:36:04.423Z"
        },
        {
            "id": 695,
            "name": "Glockenspiel Summer",
            "status": "Dead",
            "species": "Robot",
            "type": "Decoy",
            "gender": "Female",
            "origin": {
                "name": "Earth (Replacement Dimension)",
                "url": "https://rickandmortyapi.com/api/location/20"
            },
            "location": {
                "name": "Earth (Replacement Dimension)",
                "url": "https://rickandmortyapi.com/api/location/20"
            },
            "image": "https://rickandmortyapi.com/api/character/avatar/695.jpeg",
            "episode": [
                "https://rickandmortyapi.com/api/episode/43"
            ],
            "url": "https://rickandmortyapi.com/api/character/695",
            "created": "2021-10-16T15:36:59.730Z"
        },
        {
            "id": 696,
            "name": "Glockenspiel Morty",
            "status": "Dead",
            "species": "Robot",
            "type": "Decoy",
            "gender": "Male",
            "origin": {
                "name": "Earth (Replacement Dimension)",
                "url": "https://rickandmortyapi.com/api/location/20"
            },
            "location": {
                "name": "Earth (Replacement Dimension)",
                "url": "https://rickandmortyapi.com/api/location/20"
            },
            "image": "https://rickandmortyapi.com/api/character/avatar/696.jpeg",
            "episode": [
                "https://rickandmortyapi.com/api/episode/43"
            ],
            "url": "https://rickandmortyapi.com/api/character/696",
            "created": "2021-10-16T15:37:40.381Z"
        },
        {
            "id": 697,
            "name": "Wicker Beth",
            "status": "Dead",
            "species": "Robot",
            "type": "Decoy",
            "gender": "Female",
            "origin": {
                "name": "Earth (Replacement Dimension)",
                "url": "https://rickandmortyapi.com/api/location/20"
            },
            "location": {
                "name": "Earth (Replacement Dimension)",
                "url": "https://rickandmortyapi.com/api/location/20"
            },
            "image": "https://rickandmortyapi.com/api/character/avatar/697.jpeg",
            "episode": [
                "https://rickandmortyapi.com/api/episode/43"
            ],
            "url": "https://rickandmortyapi.com/api/character/697",
            "created": "2021-10-16T15:40:01.248Z"
        },
        {
            "id": 698,
            "name": "Wicker Rick",
            "status": "Dead",
            "species": "Robot",
            "type": "Decoy",
            "gender": "Male",
            "origin": {
                "name": "Earth (Replacement Dimension)",
                "url": "https://rickandmortyapi.com/api/location/20"
            },
            "location": {
                "name": "Earth (Replacement Dimension)",
                "url": "https://rickandmortyapi.com/api/location/20"
            },
            "image": "https://rickandmortyapi.com/api/character/avatar/698.jpeg",
            "episode": [
                "https://rickandmortyapi.com/api/episode/43"
            ],
            "url": "https://rickandmortyapi.com/api/character/698",
            "created": "2021-10-16T15:40:51.046Z"
        },
        {
            "id": 699,
            "name": "Wicker Morty",
            "status": "Dead",
            "species": "Robot",
            "type": "Decoy",
            "gender": "Male",
            "origin": {
                "name": "Earth (Replacement Dimension)",
                "url": "https://rickandmortyapi.com/api/location/20"
            },
            "location": {
                "name": "Earth (Replacement Dimension)",
                "url": "https://rickandmortyapi.com/api/location/20"
            },
            "image": "https://rickandmortyapi.com/api/character/avatar/699.jpeg",
            "episode": [
                "https://rickandmortyapi.com/api/episode/43"
            ],
            "url": "https://rickandmortyapi.com/api/character/699",
            "created": "2021-10-16T15:41:28.941Z"
        },
        {
            "id": 700,
            "name": "Wicker Summer",
            "status": "Dead",
            "species": "Robot",
            "type": "Decoy",
            "gender": "Female",
            "origin": {
                "name": "Earth (Replacement Dimension)",
                "url": "https://rickandmortyapi.com/api/location/20"
            },
            "location": {
                "name": "Earth (Replacement Dimension)",
                "url": "https://rickandmortyapi.com/api/location/20"
            },
            "image": "https://rickandmortyapi.com/api/character/avatar/700.jpeg",
            "episode": [
                "https://rickandmortyapi.com/api/episode/43"
            ],
            "url": "https://rickandmortyapi.com/api/character/700",
            "created": "2021-10-16T15:42:51.860Z"
        }
    ]
}