{
    "info": {
        "count": 826,
        "pages": 42,
        "next": "https://rickandmortyapi.com/api/character?page=29",
        "prev": "https://rickandmortyapi.com/api/character?page=27"
    },
    "results": [
        {
            "id": 541,
            "name": "Secretary at Tony's",
            "status": "Alive",
            "species": "Alien",
            "type": "",
            "gender": "Female",
            "origin": {
                "name": "unknown",
                "url": ""
            },
            "location": {
                "name": "Earth (Replacement Dimension)",
                "url": "https://rickandmortyapi.com/api/location/20"
            },
            "image": "https://rickandmortyapi.com/api/character/avatar/541.jpeg",
            "episode": [
                "https://rickandmortyapi.com/api/episode/33"
            ],
            "url": "https://rickandmortyapi.com/api/character/541",
            "created": "2020-05-02T13:57:49.250Z"
        },
        {
            "id": 542,
            "name": "Mountain Sweat Jerry",
            "status": "Alive",
            "species": "Human",
            "type": "",
            "gender": "Male",
            "origin": {
                "name": "Globaflyn",
                "url": "https://rickandmortyapi.com/api/location/87"
            },
            "location": {
                "name": "Globaflyn",
                "url": "https://rickandmortyapi.com/api/location/87"
            },
            "image": "https://rickandmortyapi.com/api/character/avatar/542.jpeg",
            "episode": [
                "https://rickandmortyapi.com/api/episode/33"
            ],
            "url": "https://rickandmortyapi.com/api/character/542",
            "created": "2020-05-02T13:58:42.083Z"
        },
        {
            "id": 543,
            "name": "Vermigurber",
            "status": "Alive",
            "species": "Alien",
            "type": "Fly",
            "gender": "Male",
            "origin": {
                "name": "unknown",
                "url": ""
            },
            "location": {
                "name": "Gorgon Quadrant",
                "url": "https://rickandmortyapi.com/api/location/84"
            },
            "image": "https://rickandmortyapi.com/api/character/avatar/543.jpeg",
            "episode": [
                "https://rickandmortyapi.com/api/episode/33"
            ],
            "url": "https://rickandmortyapi.com/api/character/543",
            "created": "2020-05-07T09:05:37.614Z"
        },
        {
            "id": 544,
            "name": "Miles Knightly",
            "status": "Dead",
            "species": "Alien",
            "type": "",
            "gender": "Male",
            "origin": {
                "name": "unknown",
                "url": ""
            },
            "location": {
                "name": "Heist-Con",
                "url": "https://rickandmortyapi.com/api/location/88"
            },
            "image": "https://rickandmortyapi.com/api/character/avatar/544.jpeg",
            "episode": [
                "https://rickandmortyapi.com/api/episode/34"
            ],
            "url": "https://rickandmortyapi.com/api/character/544",
            "created": "2020-05-07T09:09:06.114Z"
        },
        {
            "id": 545,
            "name": "Heist-Con Receptionist",
            "status": "Alive",
            "species": "Alien",
            "type": "",
            "gender": "Female",
            "origin": {
                "name": "unknown",
                "url": ""
            },
            "location": {
                "name": "Heist-Con",
                "url": "https://rickandmortyapi.com/api/location/88"
            },
            "image": "https://rickandmortyapi.com/api/character/avatar/545.jpeg",
            "episode": [
                "https://rickandmortyapi.com/api/episode/34"
            ],
            "url": "https://rickandmortyapi.com/api/character/545",
            "created": "2020-05-07T09:12:12.200Z"
        },
        {
            "id": 546,
            "name": "Angie Flint",
            "status": "Alive",
            "species": "Human",
            "type": "Cyborg",
            "gender": "Female",
            "origin": {
                "name": "unknown",
                "url": ""
            },
            "location": {
                "name": "Heist-Con",
                "url": "https://rickandmortyapi.com/api/location/88"
            },
            "image": "https://rickandmortyapi.com/api/character/avatar/546.jpeg",
            "episode": [
                "https://rickandmortyapi.com/api/episode/34"
            ],
            "url": "https://rickandmortyapi.com/api/character/546",
            "created": "2020-05-07T09:14:00.009Z"
        },
        {
            "id": 547,
            "name": "Glar",
            "status": "Alive",
            "species": "Alien",
            "type": "",
            "gender": "Male",
            "origin": {
                "name": "unknown",
                "url": ""
            },
            "location": {
                "name": "Heist-Con",
                "url": "https://rickandmortyapi.com/api/location/88"
            },
            "image": "https://rickandmortyapi.com/api/character/avatar/547.jpeg",
            "episode": [
                "https://rickandmortyapi.com/api/episode/34"
            ],
            "url": "https://rickandmortyapi.com/api/character/547",
            "created": "2020-05-07T09:14:34.918Z"
        },
        {
            "id": 548,
            "name": "Truckula",
            "status": "Alive",
            "species": "Mythological Creature",
            "type": "Vampire",
            "gender": "Male",
            "origin": {
                "name": "unknown",
                "url": ""
            },
            "location": {
                "name": "Heist-Con",
                "url": "https://rickandmortyapi.com/api/location/88"
            },
            "image": "https://rickandmortyapi.com/api/character/avatar/548.jpeg",
            "episode": [
                "https://rickandmortyapi.com/api/episode/34"
            ],
            "url": "https://rickandmortyapi.com/api/character/548",
            "created": "2020-05-07T09:19:47.204Z"
        },
        {
            "id": 549,
            "name": "Snake Arms",
            "status": "Alive",
            "species": "Alien",
            "type": "",
            "gender": "Male",
            "origin": {
                "name": "unknown",
                "url": ""
            },
            "location": {
                "name": "Heist-Con",
                "url": "https://rickandmortyapi.com/api/location/88"
            },
            "image": "https://rickandmortyapi.com/api/character/avatar/549.jpeg",
            "episode": [
                "https://rickandmortyapi.com/api/episode/34"
            ],
            "url": "https://rickandmortyapi.com/api/character/549",
            "created": "2020-05-07T09:51:03.022Z"
        },
        {
            "id": 550,
            "name": "Double Microwawe",
            "status": "Alive",
            "species": "Humanoid",
            "type": "Cyborg",
            "gender": "Male",
            "origin": {
                "name": "unknown",
                "url": ""
            },
            "location": {
                "name": "Heist-Con",
                "url": "https://rickandmortyapi.com/api/location/88"
            },
            "image": "https://rickandmortyapi.com/api/character/avatar/550.jpeg",
            "episode": [
                "https://rickandmortyapi.com/api/episode/34"
            ],
            "url": "https://rickandmortyapi.com/api/character/550",
            "created": "2020-05-07T10:07:53.077Z"
        },
        {
            "id": 551,
            "name": "Monitor Lord",
            "status": "Alive",
            "species": "Alien",
            "type": "",
            "gender": "Male",
            "origin": {
                "name": "unknown",
                "url": ""
            },
            "location": {
                "name": "Heist-Con",
                "url": "https://rickandmortyapi.com/api/location/88"
            },
            "image": "https://rickandmortyapi.com/api/character/avatar/551.jpeg",
            "episode": [
                "https://rickandmortyapi.com/api/episode/34"
            ],
            "url": "https://rickandmortyapi.com/api/character/551",
            "created": "2020-05-07T10:08:49.225Z"
        },
        {
            "id": 552,
            "name": "Key Catcher",
            "status": "Alive",
            "species": "Alien",
            "type": "",
            "gender": "Female",
            "origin": {
                "name": "unknown",
                "url": ""
            },
            "location": {
                "name": "Heist-Con",
                "url": "https://rickandmortyapi.com/api/location/88"
            },
            "image": "https://rickandmortyapi.com/api/character/avatar/552.jpeg",
            "episode": [
                "https://rickandmortyapi.com/api/episode/34"
            ],
            "url": "https://rickandmortyapi.com/api/character/552",
            "created": "2020-05-07T10:09:21.779Z"
        },
        {
            "id": 553,
            "name": "The Shapeshiftress",
            "status": "Alive",
            "species": "Alien",
            "type": "Shapeshifter",
            "gender": "Female",
            "origin": {
                "name": "unknown",
                "url": ""
            },
            "location": {
                "name": "Heist-Con",
                "url": "https://rickandmortyapi.com/api/location/88"
            },
            "image": "https://rickandmortyapi.com/api/character/avatar/553.jpeg",
            "episode": [
                "https://rickandmortyapi.com/api/episode/34"
            ],
            "url": "https://rickandmortyapi.com/api/character/553",
            "created": "2020-05-07T10:10:37.809Z"
        },
        {
            "id": 554,
            "name": "Heistotron",
            "status": "Dead",
            "species": "Robot",
            "type": "",
            "gender": "Genderless",
            "origin": {
                "name": "Earth (Replacement Dimension)",
                "url": "https://rickandmortyapi.com/api/location/20"
            },
            "location": {
                "name": "Heistotron Base",
                "url": "https://rickandmortyapi.com/api/location/89"
            },
            "image": "https://rickandmortyapi.com/api/character/avatar/554.jpeg",
            "episode": [
                "https://rickandmortyapi.com/api/episode/34"
            ],
            "url": "https://rickandmortyapi.com/api/character/554",
            "created": "2020-05-07T10:12:10.339Z"
        },
        {
            "id": 555,
            "name": "Randotron",
            "status": "Dead",
            "species": "Robot",
            "type": "",
            "gender": "Genderless",
            "origin": {
                "name": "Earth (Replacement Dimension)",
                "url": "https://rickandmortyapi.com/api/location/20"
            },
            "location": {
                "name": "Heistotron Base",
                "url": "https://rickandmortyapi.com/api/location/89"
            },
            "image": "https://rickandmortyapi.com/api/character/avatar/555.jpeg",
            "episode": [
                "https://rickandmortyapi.com/api/episode/34"
            ],
            "url": "https://rickandmortyapi.com/api/character/555",
            "created": "2020-05-07T10:12:53.234Z"
        },
        {
            "id": 556,
            "name": "Hephaestus",
            "status": "Alive",
            "species": "Mythological Creature",
            "type": "God",
            "gender": "Male",
            "origin": {
                "name": "Mount Olympus",
                "url": "https://rickandmortyapi.com/api/location/90"
            },
            "location": {
                "name": "Heistotron Base",
                "url": "https://rickandmortyapi.com/api/location/89"
            },
            "image": "https://rickandmortyapi.com/api/character/avatar/556.jpeg",
            "episode": [
                "https://rickandmortyapi.com/api/episode/34"
            ],
            "url": "https://rickandmortyapi.com/api/character/556",
            "created": "2020-05-07T10:19:57.456Z"
        },
        {
            "id": 557,
            "name": "Ventriloquiver",
            "status": "Alive",
            "species": "Humanoid",
            "type": "Dummy",
            "gender": "Female",
            "origin": {
                "name": "Plitzville Montana",
                "url": "https://rickandmortyapi.com/api/location/91"
            },
            "location": {
                "name": "Heistotron Base",
                "url": "https://rickandmortyapi.com/api/location/89"
            },
            "image": "https://rickandmortyapi.com/api/character/avatar/557.jpeg",
            "episode": [
                "https://rickandmortyapi.com/api/episode/34"
            ],
            "url": "https://rickandmortyapi.com/api/character/557",
            "created": "2020-05-07T10:23:26.274Z"
        },
        {
            "id": 558,
            "name": "Elon Tusk",
            "status": "Alive",
            "species": "Human",
            "type": "Human with tusks",
            "gender": "Male",
            "origin": {
                "name": "Earth (Tusk Dimension)",
                "url": "https://rickandmortyapi.com/api/location/92"
            },
            "location": {
                "name": "Heistotron Base",
                "url": "https://rickandmortyapi.com/api/location/89"
            },
            "image": "https://rickandmortyapi.com/api/character/avatar/558.jpeg",
            "episode": [
                "https://rickandmortyapi.com/api/episode/34"
            ],
            "url": "https://rickandmortyapi.com/api/character/558",
            "created": "2020-05-07T10:26:02.535Z"
        },
        {
            "id": 559,
            "name": "Gramuflackian Anchorman",
            "status": "Dead",
            "species": "Alien",
            "type": "Gramuflackian",
            "gender": "Male",
            "origin": {
                "name": "Gramuflack",
                "url": "https://rickandmortyapi.com/api/location/93"
            },
            "location": {
                "name": "Gramuflack",
                "url": "https://rickandmortyapi.com/api/location/93"
            },
            "image": "https://rickandmortyapi.com/api/character/avatar/559.jpeg",
            "episode": [
                "https://rickandmortyapi.com/api/episode/34"
            ],
            "url": "https://rickandmortyapi.com/api/character/559",
            "created": "2020-05-07T10:27:19.527Z"
        },
        {
            "id": 560,
            "name": "Gramuflackian General",
            "status": "Dead",
            "species": "Alien",
            "type": "Gramuflackian",
            "gender": "Male",
            "origin": {
                "name": "Gramuflack",
                "url": "https://rickandmortyapi.com/api/location/93"
            },
            "location": {
                "name": "Gramuflack",
                "url": "https://rickandmortyapi.com/api/location/93"
            },
            "image": "https://rickandmortyapi.com/api/character/avatar/560.jpeg",
            "episode": [
                "https://rickandmortyapi.com/api/episode/34"
            ],
            "url": "https://rickandmortyapi.com/api/character/560",
            "created": "2020-05-07T10:28:11.833Z"
        }
    ]
}