{
    "info": {
        "count": 826,
        "pages": 42,
        "next": "https://rickandmortyapi.com/api/character?page=27",
        "prev": "https://rickandmortyapi.com/api/character?page=25"
    },
    "results": [
        {
            "id": 501,
            "name": "Fascist Rick’s Clone",
            "status": "Dead",
            "species": "Human",
            "type": "Clone",
            "gender": "Male",
            "origin": {
                "name": "Earth (Fascist Dimension)",
                "url": "https://rickandmortyapi.com/api/location/77"
            },
            "location": {
                "name": "Earth (Fascist Dimension)",
                "url": "https://rickandmortyapi.com/api/location/77"
            },
            "image": "https://rickandmortyapi.com/api/character/avatar/501.jpeg",
            "episode": [
                "https://rickandmortyapi.com/api/episode/32"
            ],
            "url": "https://rickandmortyapi.com/api/character/501",
            "created": "2020-05-02T11:28:36.137Z"
        },
        {
            "id": 502,
            "name": "Revolio Clockberg Jr.",
            "status": "Dead",
            "species": "Alien",
            "type": "Gear-Person",
            "gender": "Male",
            "origin": {
                "name": "Earth (Fascist Dimension)",
                "url": "https://rickandmortyapi.com/api/location/77"
            },
            "location": {
                "name": "Earth (Fascist Dimension)",
                "url": "https://rickandmortyapi.com/api/location/77"
            },
            "image": "https://rickandmortyapi.com/api/character/avatar/502.jpeg",
            "episode": [
                "https://rickandmortyapi.com/api/episode/32"
            ],
            "url": "https://rickandmortyapi.com/api/character/502",
            "created": "2020-05-02T11:35:26.572Z"
        },
        {
            "id": 503,
            "name": "Fascist Shrimp Rick",
            "status": "Alive",
            "species": "Animal",
            "type": "Shrimp",
            "gender": "Male",
            "origin": {
                "name": "Earth (Fascist Shrimp Dimension)",
                "url": "https://rickandmortyapi.com/api/location/80"
            },
            "location": {
                "name": "Earth (Fascist Shrimp Dimension)",
                "url": "https://rickandmortyapi.com/api/location/80"
            },
            "image": "https://rickandmortyapi.com/api/character/avatar/503.jpeg",
            "episode": [
                "https://rickandmortyapi.com/api/episode/32"
            ],
            "url": "https://rickandmortyapi.com/api/character/503",
            "created": "2020-05-02T11:53:46.229Z"
        },
        {
            "id": 504,
            "name": "Fascist Shrimp Rick’s Clone",
            "status": "Dead",
            "species": "Animal",
            "type": "Shrimp",
            "gender": "Male",
            "origin": {
                "name": "Earth (Fascist Shrimp Dimension)",
                "url": "https://rickandmortyapi.com/api/location/80"
            },
            "location": {
                "name": "Earth (Fascist Shrimp Dimension)",
                "url": "https://rickandmortyapi.com/api/location/80"
            },
            "image": "https://rickandmortyapi.com/api/character/avatar/504.jpeg",
            "episode": [
                "https://rickandmortyapi.com/api/episode/32"
            ],
            "url": "https://rickandmortyapi.com/api/character/504",
            "created": "2020-05-02T12:05:12.832Z"
        },
        {
            "id": 505,
            "name": "Fascist Shrimp Morty",
            "status": "Alive",
            "species": "Animal",
            "type": "Shrimp",
            "gender": "Male",
            "origin": {
                "name": "Earth (Fascist Shrimp Dimension)",
                "url": "https://rickandmortyapi.com/api/location/80"
            },
            "location": {
                "name": "Earth (Fascist Shrimp Dimension)",
                "url": "https://rickandmortyapi.com/api/location/80"
            },
            "image": "https://rickandmortyapi.com/api/character/avatar/505.jpeg",
            "episode": [
                "https://rickandmortyapi.com/api/episode/32"
            ],
            "url": "https://rickandmortyapi.com/api/character/505",
            "created": "2020-05-02T12:11:23.379Z"
        },
        {
            "id": 506,
            "name": "Fascist Shrimp SS",
            "status": "Alive",
            "species": "Animal",
            "type": "Shrimp",
            "gender": "Male",
            "origin": {
                "name": "Earth (Fascist Shrimp Dimension)",
                "url": "https://rickandmortyapi.com/api/location/80"
            },
            "location": {
                "name": "Earth (Fascist Shrimp Dimension)",
                "url": "https://rickandmortyapi.com/api/location/80"
            },
            "image": "https://rickandmortyapi.com/api/character/avatar/506.jpeg",
            "episode": [
                "https://rickandmortyapi.com/api/episode/32"
            ],
            "url": "https://rickandmortyapi.com/api/character/506",
            "created": "2020-05-02T12:13:03.799Z"
        },
        {
            "id": 507,
            "name": "Fascist Teddy Bear Rick",
            "status": "Alive",
            "species": "Animal",
            "type": "Teddy Bear",
            "gender": "Male",
            "origin": {
                "name": "Earth (Fascist Teddy Bear Dimension)",
                "url": "https://rickandmortyapi.com/api/location/81"
            },
            "location": {
                "name": "Earth (Fascist Teddy Bear Dimension)",
                "url": "https://rickandmortyapi.com/api/location/81"
            },
            "image": "https://rickandmortyapi.com/api/character/avatar/507.jpeg",
            "episode": [
                "https://rickandmortyapi.com/api/episode/32"
            ],
            "url": "https://rickandmortyapi.com/api/character/507",
            "created": "2020-05-02T12:18:23.346Z"
        },
        {
            "id": 508,
            "name": "Fascist Teddy Bear Rick’s Clone",
            "status": "Dead",
            "species": "Animal",
            "type": "Teddy Bear",
            "gender": "Male",
            "origin": {
                "name": "Earth (Fascist Teddy Bear Dimension)",
                "url": "https://rickandmortyapi.com/api/location/81"
            },
            "location": {
                "name": "Earth (Fascist Teddy Bear Dimension)",
                "url": "https://rickandmortyapi.com/api/location/81"
            },
            "image": "https://rickandmortyapi.com/api/character/avatar/508.jpeg",
            "episode": [
                "https://rickandmortyapi.com/api/episode/32"
            ],
            "url": "https://rickandmortyapi.com/api/character/508",
            "created": "2020-05-02T12:20:28.005Z"
        },
        {
            "id": 509,
            "name": "Bully",
            "status": "unknown",
            "species": "Human",
            "type": "",
            "gender": "Male",
            "origin": {
                "name": "Earth (Replacement Dimension)",
                "url": "https://rickandmortyapi.com/api/location/20"
            },
            "location": {
                "name": "Earth (Replacement Dimension)",
                "url": "https://rickandmortyapi.com/api/location/20"
            },
            "image": "https://rickandmortyapi.com/api/character/avatar/509.jpeg",
            "episode": [
                "https://rickandmortyapi.com/api/episode/32"
            ],
            "url": "https://rickandmortyapi.com/api/character/509",
            "created": "2020-05-02T12:22:11.339Z"
        },
        {
            "id": 510,
            "name": "Anchorman",
            "status": "Alive",
            "species": "Human",
            "type": "",
            "gender": "Male",
            "origin": {
                "name": "Earth (Replacement Dimension)",
                "url": "https://rickandmortyapi.com/api/location/20"
            },
            "location": {
                "name": "Earth (Replacement Dimension)",
                "url": "https://rickandmortyapi.com/api/location/20"
            },
            "image": "https://rickandmortyapi.com/api/character/avatar/510.jpeg",
            "episode": [
                "https://rickandmortyapi.com/api/episode/32"
            ],
            "url": "https://rickandmortyapi.com/api/character/510",
            "created": "2020-05-02T12:23:38.655Z"
        },
        {
            "id": 511,
            "name": "Anchorwoman",
            "status": "Alive",
            "species": "Human",
            "type": "",
            "gender": "Female",
            "origin": {
                "name": "Earth (Replacement Dimension)",
                "url": "https://rickandmortyapi.com/api/location/20"
            },
            "location": {
                "name": "Earth (Replacement Dimension)",
                "url": "https://rickandmortyapi.com/api/location/20"
            },
            "image": "https://rickandmortyapi.com/api/character/avatar/511.jpeg",
            "episode": [
                "https://rickandmortyapi.com/api/episode/32"
            ],
            "url": "https://rickandmortyapi.com/api/character/511",
            "created": "2020-05-02T12:24:07.452Z"
        },
        {
            "id": 512,
            "name": "Morty’s Lawyer",
            "status": "Alive",
            "species": "Human",
            "type": "",
            "gender": "Male",
            "origin": {
                "name": "Earth (Replacement Dimension)",
                "url": "https://rickandmortyapi.com/api/location/20"
            },
            "location": {
                "name": "Earth (Replacement Dimension)",
                "url": "https://rickandmortyapi.com/api/location/20"
            },
            "image": "https://rickandmortyapi.com/api/character/avatar/512.jpeg",
            "episode": [
                "https://rickandmortyapi.com/api/episode/32"
            ],
            "url": "https://rickandmortyapi.com/api/character/512",
            "created": "2020-05-02T12:25:59.290Z"
        },
        {
            "id": 513,
            "name": "Judge",
            "status": "Dead",
            "species": "Human",
            "type": "",
            "gender": "Female",
            "origin": {
                "name": "Earth (Replacement Dimension)",
                "url": "https://rickandmortyapi.com/api/location/20"
            },
            "location": {
                "name": "Earth (Replacement Dimension)",
                "url": "https://rickandmortyapi.com/api/location/20"
            },
            "image": "https://rickandmortyapi.com/api/character/avatar/513.jpeg",
            "episode": [
                "https://rickandmortyapi.com/api/episode/32"
            ],
            "url": "https://rickandmortyapi.com/api/character/513",
            "created": "2020-05-02T12:27:08.223Z"
        },
        {
            "id": 514,
            "name": "Public Opinion Judge",
            "status": "Alive",
            "species": "Human",
            "type": "",
            "gender": "Female",
            "origin": {
                "name": "Earth (Replacement Dimension)",
                "url": "https://rickandmortyapi.com/api/location/20"
            },
            "location": {
                "name": "Earth (Replacement Dimension)",
                "url": "https://rickandmortyapi.com/api/location/20"
            },
            "image": "https://rickandmortyapi.com/api/character/avatar/514.jpeg",
            "episode": [
                "https://rickandmortyapi.com/api/episode/32"
            ],
            "url": "https://rickandmortyapi.com/api/character/514",
            "created": "2020-05-02T12:28:05.671Z"
        },
        {
            "id": 515,
            "name": "Caterpillar Mr. Goldenfold",
            "status": "Dead",
            "species": "Animal",
            "type": "Caterpillar",
            "gender": "Male",
            "origin": {
                "name": "Earth (Wasp Dimension)",
                "url": "https://rickandmortyapi.com/api/location/82"
            },
            "location": {
                "name": "Earth (Wasp Dimension)",
                "url": "https://rickandmortyapi.com/api/location/82"
            },
            "image": "https://rickandmortyapi.com/api/character/avatar/515.jpeg",
            "episode": [
                "https://rickandmortyapi.com/api/episode/32"
            ],
            "url": "https://rickandmortyapi.com/api/character/515",
            "created": "2020-05-02T12:34:49.151Z"
        },
        {
            "id": 516,
            "name": "Wasp Rick",
            "status": "Alive",
            "species": "Animal",
            "type": "Wasp",
            "gender": "Male",
            "origin": {
                "name": "Earth (Wasp Dimension)",
                "url": "https://rickandmortyapi.com/api/location/82"
            },
            "location": {
                "name": "Earth (Replacement Dimension)",
                "url": "https://rickandmortyapi.com/api/location/20"
            },
            "image": "https://rickandmortyapi.com/api/character/avatar/516.jpeg",
            "episode": [
                "https://rickandmortyapi.com/api/episode/32"
            ],
            "url": "https://rickandmortyapi.com/api/character/516",
            "created": "2020-05-02T12:36:47.872Z"
        },
        {
            "id": 517,
            "name": "Wasp Rick’s Clone",
            "status": "unknown",
            "species": "Animal",
            "type": "Wasp",
            "gender": "Male",
            "origin": {
                "name": "Earth (Wasp Dimension)",
                "url": "https://rickandmortyapi.com/api/location/82"
            },
            "location": {
                "name": "Earth (Replacement Dimension)",
                "url": "https://rickandmortyapi.com/api/location/20"
            },
            "image": "https://rickandmortyapi.com/api/character/avatar/517.jpeg",
            "episode": [
                "https://rickandmortyapi.com/api/episode/32"
            ],
            "url": "https://rickandmortyapi.com/api/character/517",
            "created": "2020-05-02T12:38:18.097Z"
        },
        {
            "id": 518,
            "name": "Wasp Morty",
            "status": "Alive",
            "species": "Animal",
            "type": "Wasp",
            "gender": "Male",
            "origin": {
                "name": "Earth (Wasp Dimension)",
                "url": "https://rickandmortyapi.com/api/location/82"
            },
            "location": {
                "name": "Earth (Wasp Dimension)",
                "url": "https://rickandmortyapi.com/api/location/82"
            },
            "image": "https://rickandmortyapi.com/api/character/avatar/518.jpeg",
            "episode": [
                "https://rickandmortyapi.com/api/episode/32"
            ],
            "url": "https://rickandmortyapi.com/api/character/518",
            "created": "2020-05-02T12:39:50.688Z"
        },
        {
            "id": 519,
            "name": "Wasp Summer",
            "status": "Alive",
            "species": "Animal",
            "type": "Wasp",
            "gender": "Female",
            "origin": {
                "name": "Earth (Wasp Dimension)",
                "url": "https://rickandmortyapi.com/api/location/82"
            },
            "location": {
                "name": "Earth (Wasp Dimension)",
                "url": "https://rickandmortyapi.com/api/location/82"
            },
            "image": "https://rickandmortyapi.com/api/character/avatar/519.jpeg",
            "episode": [
                "https://rickandmortyapi.com/api/episode/32"
            ],
            "url": "https://rickandmortyapi.com/api/character/519",
            "created": "2020-05-02T12:40:45.760Z"
        },
        {
            "id": 520,
            "name": "Wasp Jerry",
            "status": "Alive",
            "species": "Animal",
            "type": "Wasp",
            "gender": "Male",
            "origin": {
                "name": "Earth (Wasp Dimension)",
                "url": "https://rickandmortyapi.com/api/location/82"
            },
            "location": {
                "name": "Earth (Wasp Dimension)",
                "url": "https://rickandmortyapi.com/api/location/82"
            },
            "image": "https://rickandmortyapi.com/api/character/avatar/520.jpeg",
            "episode": [
                "https://rickandmortyapi.com/api/episode/32"
            ],
            "url": "https://rickandmortyapi.com/api/character/520",
            "created": "2020-05-02T12:41:19.879Z"
        }
    ]
}