{
    "info": {
        "count": 826,
        "pages": 42,
        "next": "https://rickandmortyapi.com/api/character?page=32",
        "prev": "https://rickandmortyapi.com/api/character?page=30"
    },
    "results": [
        {
            "id": 601,
            "name": "Christmas Storyteller",
            "status": "Alive",
            "species": "Alien",
            "type": "Soulless Puppet",
            "gender": "Male",
            "origin": {
                "name": "Story Train",
                "url": "https://rickandmortyapi.com/api/location/96"
            },
            "location": {
                "name": "Story Train",
                "url": "https://rickandmortyapi.com/api/location/96"
            },
            "image": "https://rickandmortyapi.com/api/character/avatar/601.jpeg",
            "episode": [
                "https://rickandmortyapi.com/api/episode/37"
            ],
            "url": "https://rickandmortyapi.com/api/character/601",
            "created": "2020-08-06T11:41:34.260Z"
        },
        {
            "id": 602,
            "name": "Cookies Guy",
            "status": "Alive",
            "species": "Human",
            "type": "Soulless Puppet",
            "gender": "Male",
            "origin": {
                "name": "Morty’s Story",
                "url": "https://rickandmortyapi.com/api/location/99"
            },
            "location": {
                "name": "Morty’s Story",
                "url": "https://rickandmortyapi.com/api/location/99"
            },
            "image": "https://rickandmortyapi.com/api/character/avatar/602.jpeg",
            "episode": [
                "https://rickandmortyapi.com/api/episode/37"
            ],
            "url": "https://rickandmortyapi.com/api/character/602",
            "created": "2020-08-06T11:43:40.230Z"
        },
        {
            "id": 603,
            "name": "Crossy",
            "status": "Alive",
            "species": "unknown",
            "type": "Soulless Puppet",
            "gender": "Genderless",
            "origin": {
                "name": "Ricks’s Story",
                "url": "https://rickandmortyapi.com/api/location/100"
            },
            "location": {
                "name": "Ricks’s Story",
                "url": "https://rickandmortyapi.com/api/location/100"
            },
            "image": "https://rickandmortyapi.com/api/character/avatar/603.jpeg",
            "episode": [
                "https://rickandmortyapi.com/api/episode/37"
            ],
            "url": "https://rickandmortyapi.com/api/character/603",
            "created": "2020-08-06T11:46:17.792Z"
        },
        {
            "id": 604,
            "name": "Female Scorpion",
            "status": "Dead",
            "species": "Animal",
            "type": "Soulless Puppet",
            "gender": "Female",
            "origin": {
                "name": "Morty’s Story",
                "url": "https://rickandmortyapi.com/api/location/99"
            },
            "location": {
                "name": "Morty’s Story",
                "url": "https://rickandmortyapi.com/api/location/99"
            },
            "image": "https://rickandmortyapi.com/api/character/avatar/604.jpeg",
            "episode": [
                "https://rickandmortyapi.com/api/episode/37"
            ],
            "url": "https://rickandmortyapi.com/api/character/604",
            "created": "2020-08-06T11:48:01.937Z"
        },
        {
            "id": 605,
            "name": "Floaty Bloody Man’s Daughter",
            "status": "Dead",
            "species": "Human",
            "type": "Soulless Puppet",
            "gender": "Female",
            "origin": {
                "name": "Tickets Please Guy Nightmare",
                "url": "https://rickandmortyapi.com/api/location/98"
            },
            "location": {
                "name": "Tickets Please Guy Nightmare",
                "url": "https://rickandmortyapi.com/api/location/98"
            },
            "image": "https://rickandmortyapi.com/api/character/avatar/605.jpeg",
            "episode": [
                "https://rickandmortyapi.com/api/episode/37"
            ],
            "url": "https://rickandmortyapi.com/api/character/605",
            "created": "2020-08-06T11:48:09.608Z"
        },
        {
            "id": 606,
            "name": "Goomby",
            "status": "Alive",
            "species": "Alien",
            "type": "Soulless Puppet",
            "gender": "Male",
            "origin": {
                "name": "Story Train",
                "url": "https://rickandmortyapi.com/api/location/96"
            },
            "location": {
                "name": "Story Train",
                "url": "https://rickandmortyapi.com/api/location/96"
            },
            "image": "https://rickandmortyapi.com/api/character/avatar/606.jpeg",
            "episode": [
                "https://rickandmortyapi.com/api/episode/37"
            ],
            "url": "https://rickandmortyapi.com/api/character/606",
            "created": "2020-08-06T12:34:29.455Z"
        },
        {
            "id": 607,
            "name": "Hairspray Fan",
            "status": "Alive",
            "species": "Alien",
            "type": "Soulless Puppet",
            "gender": "Female",
            "origin": {
                "name": "Story Train",
                "url": "https://rickandmortyapi.com/api/location/96"
            },
            "location": {
                "name": "Story Train",
                "url": "https://rickandmortyapi.com/api/location/96"
            },
            "image": "https://rickandmortyapi.com/api/character/avatar/607.jpeg",
            "episode": [
                "https://rickandmortyapi.com/api/episode/37"
            ],
            "url": "https://rickandmortyapi.com/api/character/607",
            "created": "2020-08-06T12:35:20.673Z"
        },
        {
            "id": 608,
            "name": "Jesus Christ",
            "status": "Alive",
            "species": "Human",
            "type": "Soulless Puppet",
            "gender": "Male",
            "origin": {
                "name": "Ricks’s Story",
                "url": "https://rickandmortyapi.com/api/location/100"
            },
            "location": {
                "name": "Ricks’s Story",
                "url": "https://rickandmortyapi.com/api/location/100"
            },
            "image": "https://rickandmortyapi.com/api/character/avatar/608.jpeg",
            "episode": [
                "https://rickandmortyapi.com/api/episode/37"
            ],
            "url": "https://rickandmortyapi.com/api/character/608",
            "created": "2020-08-06T12:36:05.897Z"
        },
        {
            "id": 609,
            "name": "Josh",
            "status": "Dead",
            "species": "Human",
            "type": "Soulless Puppet",
            "gender": "Male",
            "origin": {
                "name": "Tickets Please Guy Nightmare",
                "url": "https://rickandmortyapi.com/api/location/98"
            },
            "location": {
                "name": "Tickets Please Guy Nightmare",
                "url": "https://rickandmortyapi.com/api/location/98"
            },
            "image": "https://rickandmortyapi.com/api/character/avatar/609.jpeg",
            "episode": [
                "https://rickandmortyapi.com/api/episode/37"
            ],
            "url": "https://rickandmortyapi.com/api/character/609",
            "created": "2020-08-06T12:43:52.810Z"
        },
        {
            "id": 610,
            "name": "Josh's Sister",
            "status": "Dead",
            "species": "Human",
            "type": "Soulless Puppet",
            "gender": "Female",
            "origin": {
                "name": "Tickets Please Guy Nightmare",
                "url": "https://rickandmortyapi.com/api/location/98"
            },
            "location": {
                "name": "Tickets Please Guy Nightmare",
                "url": "https://rickandmortyapi.com/api/location/98"
            },
            "image": "https://rickandmortyapi.com/api/character/avatar/610.jpeg",
            "episode": [
                "https://rickandmortyapi.com/api/episode/37"
            ],
            "url": "https://rickandmortyapi.com/api/character/610",
            "created": "2020-08-06T12:44:35.845Z"
        },
        {
            "id": 611,
            "name": "Leah",
            "status": "Alive",
            "species": "unknown",
            "type": "Soulless Puppet",
            "gender": "Female",
            "origin": {
                "name": "Story Train",
                "url": "https://rickandmortyapi.com/api/location/96"
            },
            "location": {
                "name": "Story Train",
                "url": "https://rickandmortyapi.com/api/location/96"
            },
            "image": "https://rickandmortyapi.com/api/character/avatar/611.jpeg",
            "episode": [
                "https://rickandmortyapi.com/api/episode/37"
            ],
            "url": "https://rickandmortyapi.com/api/character/611",
            "created": "2020-08-06T12:47:45.761Z"
        },
        {
            "id": 612,
            "name": "Marcus",
            "status": "Alive",
            "species": "Human",
            "type": "Soulless Puppet",
            "gender": "Male",
            "origin": {
                "name": "Story Train",
                "url": "https://rickandmortyapi.com/api/location/96"
            },
            "location": {
                "name": "Story Train",
                "url": "https://rickandmortyapi.com/api/location/96"
            },
            "image": "https://rickandmortyapi.com/api/character/avatar/612.jpeg",
            "episode": [
                "https://rickandmortyapi.com/api/episode/37"
            ],
            "url": "https://rickandmortyapi.com/api/character/612",
            "created": "2020-08-06T12:48:25.333Z"
        },
        {
            "id": 613,
            "name": "Mike Johnson",
            "status": "Alive",
            "species": "Human",
            "type": "Soulless Puppet",
            "gender": "Male",
            "origin": {
                "name": "Morty’s Story",
                "url": "https://rickandmortyapi.com/api/location/99"
            },
            "location": {
                "name": "Morty’s Story",
                "url": "https://rickandmortyapi.com/api/location/99"
            },
            "image": "https://rickandmortyapi.com/api/character/avatar/613.jpeg",
            "episode": [
                "https://rickandmortyapi.com/api/episode/37"
            ],
            "url": "https://rickandmortyapi.com/api/character/613",
            "created": "2020-08-06T12:49:32.604Z"
        },
        {
            "id": 614,
            "name": "Mr. Celery & Friends",
            "status": "Alive",
            "species": "unknown",
            "type": "Soulless Puppet",
            "gender": "Genderless",
            "origin": {
                "name": "Ricks’s Story",
                "url": "https://rickandmortyapi.com/api/location/100"
            },
            "location": {
                "name": "Ricks’s Story",
                "url": "https://rickandmortyapi.com/api/location/100"
            },
            "image": "https://rickandmortyapi.com/api/character/avatar/614.jpeg",
            "episode": [
                "https://rickandmortyapi.com/api/episode/37"
            ],
            "url": "https://rickandmortyapi.com/api/character/614",
            "created": "2020-08-06T12:51:12.254Z"
        },
        {
            "id": 615,
            "name": "Musical Fan",
            "status": "Alive",
            "species": "Alien",
            "type": "Soulless Puppet",
            "gender": "Male",
            "origin": {
                "name": "Story Train",
                "url": "https://rickandmortyapi.com/api/location/96"
            },
            "location": {
                "name": "Story Train",
                "url": "https://rickandmortyapi.com/api/location/96"
            },
            "image": "https://rickandmortyapi.com/api/character/avatar/615.jpeg",
            "episode": [
                "https://rickandmortyapi.com/api/episode/37"
            ],
            "url": "https://rickandmortyapi.com/api/character/615",
            "created": "2020-08-06T12:52:20.880Z"
        },
        {
            "id": 616,
            "name": "Phantom of the Opera Fan",
            "status": "Alive",
            "species": "Alien",
            "type": "Soulless Puppet",
            "gender": "Male",
            "origin": {
                "name": "Story Train",
                "url": "https://rickandmortyapi.com/api/location/96"
            },
            "location": {
                "name": "Story Train",
                "url": "https://rickandmortyapi.com/api/location/96"
            },
            "image": "https://rickandmortyapi.com/api/character/avatar/616.jpeg",
            "episode": [
                "https://rickandmortyapi.com/api/episode/37"
            ],
            "url": "https://rickandmortyapi.com/api/character/616",
            "created": "2020-08-06T12:52:54.712Z"
        },
        {
            "id": 617,
            "name": "Phoenixperson",
            "status": "Alive",
            "species": "Alien",
            "type": "Soulless Puppet",
            "gender": "Male",
            "origin": {
                "name": "Story Train",
                "url": "https://rickandmortyapi.com/api/location/96"
            },
            "location": {
                "name": "Story Train",
                "url": "https://rickandmortyapi.com/api/location/96"
            },
            "image": "https://rickandmortyapi.com/api/character/avatar/617.jpeg",
            "episode": [
                "https://rickandmortyapi.com/api/episode/37"
            ],
            "url": "https://rickandmortyapi.com/api/character/617",
            "created": "2020-08-06T12:54:15.895Z"
        },
        {
            "id": 618,
            "name": "Private Smith",
            "status": "unknown",
            "species": "Human",
            "type": "Soulless Puppet",
            "gender": "Male",
            "origin": {
                "name": "Story Train",
                "url": "https://rickandmortyapi.com/api/location/96"
            },
            "location": {
                "name": "Story Train",
                "url": "https://rickandmortyapi.com/api/location/96"
            },
            "image": "https://rickandmortyapi.com/api/character/avatar/618.jpeg",
            "episode": [
                "https://rickandmortyapi.com/api/episode/37"
            ],
            "url": "https://rickandmortyapi.com/api/character/618",
            "created": "2020-08-06T12:55:53.895Z"
        },
        {
            "id": 619,
            "name": "Professor Sanchez",
            "status": "Dead",
            "species": "Human",
            "type": "Soulless Puppet",
            "gender": "Male",
            "origin": {
                "name": "Story Train",
                "url": "https://rickandmortyapi.com/api/location/96"
            },
            "location": {
                "name": "Story Train",
                "url": "https://rickandmortyapi.com/api/location/96"
            },
            "image": "https://rickandmortyapi.com/api/character/avatar/619.jpeg",
            "episode": [
                "https://rickandmortyapi.com/api/episode/37"
            ],
            "url": "https://rickandmortyapi.com/api/character/619",
            "created": "2020-08-06T12:56:56.606Z"
        },
        {
            "id": 620,
            "name": "Ramamama Lord",
            "status": "Alive",
            "species": "Human",
            "type": "Soulless Puppet",
            "gender": "Male",
            "origin": {
                "name": "Story Train",
                "url": "https://rickandmortyapi.com/api/location/96"
            },
            "location": {
                "name": "Story Train",
                "url": "https://rickandmortyapi.com/api/location/96"
            },
            "image": "https://rickandmortyapi.com/api/character/avatar/620.jpeg",
            "episode": [
                "https://rickandmortyapi.com/api/episode/37"
            ],
            "url": "https://rickandmortyapi.com/api/character/620",
            "created": "2020-08-06T15:58:14.525Z"
        }
    ]
}