{
    "info": {
        "count": 826,
        "pages": 42,
        "next": "https://rickandmortyapi.com/api/character?page=16",
        "prev": "https://rickandmortyapi.com/api/character?page=14"
    },
    "results": [
        {
            "id": 281,
            "name": "Reverse Rick Outrage",
            "status": "Dead",
            "species": "Human",
            "type": "",
            "gender": "Male",
            "origin": {
                "name": "unknown",
                "url": ""
            },
            "location": {
                "name": "Citadel of Ricks",
                "url": "https://rickandmortyapi.com/api/location/3"
            },
            "image": "https://rickandmortyapi.com/api/character/avatar/281.jpeg",
            "episode": [
                "https://rickandmortyapi.com/api/episode/28"
            ],
            "url": "https://rickandmortyapi.com/api/character/281",
            "created": "2017-12-31T14:23:53.056Z"
        },
        {
            "id": 282,
            "name": "Revolio Clockberg Jr.",
            "status": "unknown",
            "species": "Alien",
            "type": "Gear-Person",
            "gender": "Male",
            "origin": {
                "name": "Gear World",
                "url": "https://rickandmortyapi.com/api/location/57"
            },
            "location": {
                "name": "Gear World",
                "url": "https://rickandmortyapi.com/api/location/57"
            },
            "image": "https://rickandmortyapi.com/api/character/avatar/282.jpeg",
            "episode": [
                "https://rickandmortyapi.com/api/episode/11",
                "https://rickandmortyapi.com/api/episode/13",
                "https://rickandmortyapi.com/api/episode/25"
            ],
            "url": "https://rickandmortyapi.com/api/character/282",
            "created": "2017-12-31T19:21:17.351Z"
        },
        {
            "id": 283,
            "name": "Rick D. Sanchez III",
            "status": "Dead",
            "species": "Human",
            "type": "",
            "gender": "Male",
            "origin": {
                "name": "unknown",
                "url": ""
            },
            "location": {
                "name": "Citadel of Ricks",
                "url": "https://rickandmortyapi.com/api/location/3"
            },
            "image": "https://rickandmortyapi.com/api/character/avatar/283.jpeg",
            "episode": [
                "https://rickandmortyapi.com/api/episode/28"
            ],
            "url": "https://rickandmortyapi.com/api/character/283",
            "created": "2017-12-31T19:23:53.188Z"
        },
        {
            "id": 284,
            "name": "Rick Guilt Rick",
            "status": "unknown",
            "species": "Human",
            "type": "",
            "gender": "Male",
            "origin": {
                "name": "unknown",
                "url": ""
            },
            "location": {
                "name": "Citadel of Ricks",
                "url": "https://rickandmortyapi.com/api/location/3"
            },
            "image": "https://rickandmortyapi.com/api/character/avatar/284.jpeg",
            "episode": [
                "https://rickandmortyapi.com/api/episode/28"
            ],
            "url": "https://rickandmortyapi.com/api/character/284",
            "created": "2017-12-31T19:25:18.205Z"
        },
        {
            "id": 285,
            "name": "Rick Prime",
            "status": "Dead",
            "species": "Human",
            "type": "",
            "gender": "Male",
            "origin": {
                "name": "unknown",
                "url": ""
            },
            "location": {
                "name": "Citadel of Ricks",
                "url": "https://rickandmortyapi.com/api/location/3"
            },
            "image": "https://rickandmortyapi.com/api/character/avatar/285.jpeg",
            "episode": [
                "https://rickandmortyapi.com/api/episode/22",
                "https://rickandmortyapi.com/api/episode/51"
            ],
            "url": "https://rickandmortyapi.com/api/character/285",
            "created": "2017-12-31T19:45:46.470Z"
        },
        {
            "id": 286,
            "name": "Rick D-99",
            "status": "Dead",
            "species": "Human",
            "type": "",
            "gender": "Male",
            "origin": {
                "name": "Earth (D-99)",
                "url": "https://rickandmortyapi.com/api/location/58"
            },
            "location": {
                "name": "Citadel of Ricks",
                "url": "https://rickandmortyapi.com/api/location/3"
            },
            "image": "https://rickandmortyapi.com/api/character/avatar/286.jpeg",
            "episode": [
                "https://rickandmortyapi.com/api/episode/22"
            ],
            "url": "https://rickandmortyapi.com/api/character/286",
            "created": "2017-12-31T19:49:55.181Z"
        },
        {
            "id": 287,
            "name": "Rick D716",
            "status": "Dead",
            "species": "Human",
            "type": "",
            "gender": "Male",
            "origin": {
                "name": "Earth (D716)",
                "url": "https://rickandmortyapi.com/api/location/59"
            },
            "location": {
                "name": "Citadel of Ricks",
                "url": "https://rickandmortyapi.com/api/location/3"
            },
            "image": "https://rickandmortyapi.com/api/character/avatar/287.jpeg",
            "episode": [
                "https://rickandmortyapi.com/api/episode/28"
            ],
            "url": "https://rickandmortyapi.com/api/character/287",
            "created": "2017-12-31T19:51:33.244Z"
        },
        {
            "id": 288,
            "name": "Rick D716-B",
            "status": "Alive",
            "species": "Human",
            "type": "",
            "gender": "Male",
            "origin": {
                "name": "Earth (D716-B)",
                "url": "https://rickandmortyapi.com/api/location/60"
            },
            "location": {
                "name": "Citadel of Ricks",
                "url": "https://rickandmortyapi.com/api/location/3"
            },
            "image": "https://rickandmortyapi.com/api/character/avatar/288.jpeg",
            "episode": [
                "https://rickandmortyapi.com/api/episode/28"
            ],
            "url": "https://rickandmortyapi.com/api/character/288",
            "created": "2017-12-31T19:55:25.101Z"
        },
        {
            "id": 289,
            "name": "Rick D716-C",
            "status": "Alive",
            "species": "Human",
            "type": "",
            "gender": "Male",
            "origin": {
                "name": "Earth (D716-C)",
                "url": "https://rickandmortyapi.com/api/location/61"
            },
            "location": {
                "name": "Citadel of Ricks",
                "url": "https://rickandmortyapi.com/api/location/3"
            },
            "image": "https://rickandmortyapi.com/api/character/avatar/289.jpeg",
            "episode": [
                "https://rickandmortyapi.com/api/episode/28"
            ],
            "url": "https://rickandmortyapi.com/api/character/289",
            "created": "2017-12-31T19:57:36.546Z"
        },
        {
            "id": 290,
            "name": "Rick Sanchez",
            "status": "Dead",
            "species": "Human",
            "type": "",
            "gender": "Male",
            "origin": {
                "name": "Earth (Evil Rick's Target Dimension)",
                "url": "https://rickandmortyapi.com/api/location/34"
            },
            "location": {
                "name": "Earth (Evil Rick's Target Dimension)",
                "url": "https://rickandmortyapi.com/api/location/34"
            },
            "image": "https://rickandmortyapi.com/api/character/avatar/290.jpeg",
            "episode": [
                "https://rickandmortyapi.com/api/episode/10"
            ],
            "url": "https://rickandmortyapi.com/api/character/290",
            "created": "2017-12-31T20:15:25.716Z"
        },
        {
            "id": 291,
            "name": "Rick J-22",
            "status": "Alive",
            "species": "Human",
            "type": "",
            "gender": "Male",
            "origin": {
                "name": "Earth (J-22)",
                "url": "https://rickandmortyapi.com/api/location/62"
            },
            "location": {
                "name": "Citadel of Ricks",
                "url": "https://rickandmortyapi.com/api/location/3"
            },
            "image": "https://rickandmortyapi.com/api/character/avatar/291.jpeg",
            "episode": [
                "https://rickandmortyapi.com/api/episode/28"
            ],
            "url": "https://rickandmortyapi.com/api/character/291",
            "created": "2017-12-31T20:16:52.337Z"
        },
        {
            "id": 292,
            "name": "Rick K-22",
            "status": "Alive",
            "species": "Human",
            "type": "",
            "gender": "Male",
            "origin": {
                "name": "Earth (K-22)",
                "url": "https://rickandmortyapi.com/api/location/52"
            },
            "location": {
                "name": "Earth (Replacement Dimension)",
                "url": "https://rickandmortyapi.com/api/location/20"
            },
            "image": "https://rickandmortyapi.com/api/character/avatar/292.jpeg",
            "episode": [
                "https://rickandmortyapi.com/api/episode/28"
            ],
            "url": "https://rickandmortyapi.com/api/character/292",
            "created": "2017-12-31T20:20:40.484Z"
        },
        {
            "id": 293,
            "name": "Rick Sanchez",
            "status": "Dead",
            "species": "Human",
            "type": "",
            "gender": "Male",
            "origin": {
                "name": "Earth (Replacement Dimension)",
                "url": "https://rickandmortyapi.com/api/location/20"
            },
            "location": {
                "name": "Earth (Replacement Dimension)",
                "url": "https://rickandmortyapi.com/api/location/20"
            },
            "image": "https://rickandmortyapi.com/api/character/avatar/293.jpeg",
            "episode": [
                "https://rickandmortyapi.com/api/episode/6"
            ],
            "url": "https://rickandmortyapi.com/api/character/293",
            "created": "2017-12-31T20:22:29.032Z"
        },
        {
            "id": 294,
            "name": "Ricktiminus Sancheziminius",
            "status": "Dead",
            "species": "Human",
            "type": "",
            "gender": "Male",
            "origin": {
                "name": "unknown",
                "url": ""
            },
            "location": {
                "name": "Rick's Memories",
                "url": "https://rickandmortyapi.com/api/location/126"
            },
            "image": "https://rickandmortyapi.com/api/character/avatar/294.jpeg",
            "episode": [
                "https://rickandmortyapi.com/api/episode/10",
                "https://rickandmortyapi.com/api/episode/22",
                "https://rickandmortyapi.com/api/episode/51"
            ],
            "url": "https://rickandmortyapi.com/api/character/294",
            "created": "2017-12-31T20:24:30.396Z"
        },
        {
            "id": 295,
            "name": "Riq IV",
            "status": "Dead",
            "species": "Human",
            "type": "",
            "gender": "Male",
            "origin": {
                "name": "unknown",
                "url": ""
            },
            "location": {
                "name": "Citadel of Ricks",
                "url": "https://rickandmortyapi.com/api/location/3"
            },
            "image": "https://rickandmortyapi.com/api/character/avatar/295.jpeg",
            "episode": [
                "https://rickandmortyapi.com/api/episode/10",
                "https://rickandmortyapi.com/api/episode/11",
                "https://rickandmortyapi.com/api/episode/22"
            ],
            "url": "https://rickandmortyapi.com/api/character/295",
            "created": "2017-12-31T20:25:28.554Z"
        },
        {
            "id": 296,
            "name": "Risotto Groupon",
            "status": "Dead",
            "species": "Alien",
            "type": "Blue ape alien",
            "gender": "Male",
            "origin": {
                "name": "Resort Planet",
                "url": "https://rickandmortyapi.com/api/location/37"
            },
            "location": {
                "name": "Resort Planet",
                "url": "https://rickandmortyapi.com/api/location/37"
            },
            "image": "https://rickandmortyapi.com/api/character/avatar/296.jpeg",
            "episode": [
                "https://rickandmortyapi.com/api/episode/26"
            ],
            "url": "https://rickandmortyapi.com/api/character/296",
            "created": "2017-12-31T20:32:33.361Z"
        },
        {
            "id": 297,
            "name": "Risotto's Tentacled Henchman",
            "status": "Dead",
            "species": "Alien",
            "type": "Tentacle alien",
            "gender": "Male",
            "origin": {
                "name": "Resort Planet",
                "url": "https://rickandmortyapi.com/api/location/37"
            },
            "location": {
                "name": "Resort Planet",
                "url": "https://rickandmortyapi.com/api/location/37"
            },
            "image": "https://rickandmortyapi.com/api/character/avatar/297.jpeg",
            "episode": [
                "https://rickandmortyapi.com/api/episode/26"
            ],
            "url": "https://rickandmortyapi.com/api/character/297",
            "created": "2017-12-31T20:34:58.394Z"
        },
        {
            "id": 298,
            "name": "Robot Morty",
            "status": "unknown",
            "species": "Robot",
            "type": "",
            "gender": "Male",
            "origin": {
                "name": "unknown",
                "url": ""
            },
            "location": {
                "name": "Citadel of Ricks",
                "url": "https://rickandmortyapi.com/api/location/3"
            },
            "image": "https://rickandmortyapi.com/api/character/avatar/298.jpeg",
            "episode": [
                "https://rickandmortyapi.com/api/episode/10"
            ],
            "url": "https://rickandmortyapi.com/api/character/298",
            "created": "2017-12-31T20:37:30.747Z"
        },
        {
            "id": 299,
            "name": "Robot Rick",
            "status": "unknown",
            "species": "Robot",
            "type": "",
            "gender": "Male",
            "origin": {
                "name": "unknown",
                "url": ""
            },
            "location": {
                "name": "Citadel of Ricks",
                "url": "https://rickandmortyapi.com/api/location/3"
            },
            "image": "https://rickandmortyapi.com/api/character/avatar/299.jpeg",
            "episode": [
                "https://rickandmortyapi.com/api/episode/10"
            ],
            "url": "https://rickandmortyapi.com/api/character/299",
            "created": "2017-12-31T20:38:17.990Z"
        },
        {
            "id": 300,
            "name": "Roger",
            "status": "Dead",
            "species": "Human",
            "type": "",
            "gender": "Male",
            "origin": {
                "name": "Earth (C-137)",
                "url": "https://rickandmortyapi.com/api/location/1"
            },
            "location": {
                "name": "Anatomy Park",
                "url": "https://rickandmortyapi.com/api/location/5"
            },
            "image": "https://rickandmortyapi.com/api/character/avatar/300.jpeg",
            "episode": [
                "https://rickandmortyapi.com/api/episode/3"
            ],
            "url": "https://rickandmortyapi.com/api/character/300",
            "created": "2017-12-31T20:39:35.047Z"
        }
    ]
}