{
    "info": {
        "count": 826,
        "pages": 42,
        "next": "https://rickandmortyapi.com/api/character?page=39",
        "prev": "https://rickandmortyapi.com/api/character?page=37"
    },
    "results": [
        {
            "id": 741,
            "name": "Cirque du Soleil Zumanity Member",
            "status": "Alive",
            "species": "Human",
            "type": "",
            "gender": "Female",
            "origin": {
                "name": "Earth (Replacement Dimension)",
                "url": "https://rickandmortyapi.com/api/location/20"
            },
            "location": {
                "name": "Earth (Replacement Dimension)",
                "url": "https://rickandmortyapi.com/api/location/20"
            },
            "image": "https://rickandmortyapi.com/api/character/avatar/741.jpeg",
            "episode": [
                "https://rickandmortyapi.com/api/episode/45"
            ],
            "url": "https://rickandmortyapi.com/api/character/741",
            "created": "2021-10-17T12:27:42.669Z"
        },
        {
            "id": 742,
            "name": "Bruce Chutback",
            "status": "Alive",
            "species": "Human",
            "type": "",
            "gender": "Male",
            "origin": {
                "name": "Earth (Replacement Dimension)",
                "url": "https://rickandmortyapi.com/api/location/20"
            },
            "location": {
                "name": "Earth (Replacement Dimension)",
                "url": "https://rickandmortyapi.com/api/location/20"
            },
            "image": "https://rickandmortyapi.com/api/character/avatar/742.jpeg",
            "episode": [
                "https://rickandmortyapi.com/api/episode/46"
            ],
            "url": "https://rickandmortyapi.com/api/character/742",
            "created": "2021-10-17T13:35:30.793Z"
        },
        {
            "id": 743,
            "name": "Alyson Hannigan",
            "status": "Dead",
            "species": "Alien",
            "type": "",
            "gender": "Female",
            "origin": {
                "name": "unknown",
                "url": ""
            },
            "location": {
                "name": "Z. Q. P. D.",
                "url": "https://rickandmortyapi.com/api/location/117"
            },
            "image": "https://rickandmortyapi.com/api/character/avatar/743.jpeg",
            "episode": [
                "https://rickandmortyapi.com/api/episode/46"
            ],
            "url": "https://rickandmortyapi.com/api/character/743",
            "created": "2021-10-17T13:46:17.880Z"
        },
        {
            "id": 744,
            "name": "Cenobite",
            "status": "unknown",
            "species": "Mythological Creature",
            "type": "Demon",
            "gender": "Male",
            "origin": {
                "name": "Hell",
                "url": "https://rickandmortyapi.com/api/location/116"
            },
            "location": {
                "name": "Hell",
                "url": "https://rickandmortyapi.com/api/location/116"
            },
            "image": "https://rickandmortyapi.com/api/character/avatar/744.jpeg",
            "episode": [
                "https://rickandmortyapi.com/api/episode/46"
            ],
            "url": "https://rickandmortyapi.com/api/character/744",
            "created": "2021-10-17T13:53:11.250Z"
        },
        {
            "id": 745,
            "name": "Cenobite",
            "status": "unknown",
            "species": "Mythological Creature",
            "type": "Demon",
            "gender": "Female",
            "origin": {
                "name": "Hell",
                "url": "https://rickandmortyapi.com/api/location/116"
            },
            "location": {
                "name": "Hell",
                "url": "https://rickandmortyapi.com/api/location/116"
            },
            "image": "https://rickandmortyapi.com/api/character/avatar/745.jpeg",
            "episode": [
                "https://rickandmortyapi.com/api/episode/46"
            ],
            "url": "https://rickandmortyapi.com/api/character/745",
            "created": "2021-10-17T13:53:59.978Z"
        },
        {
            "id": 746,
            "name": "Cenobite",
            "status": "unknown",
            "species": "Mythological Creature",
            "type": "Demon",
            "gender": "Male",
            "origin": {
                "name": "Hell",
                "url": "https://rickandmortyapi.com/api/location/116"
            },
            "location": {
                "name": "Hell",
                "url": "https://rickandmortyapi.com/api/location/116"
            },
            "image": "https://rickandmortyapi.com/api/character/avatar/746.jpeg",
            "episode": [
                "https://rickandmortyapi.com/api/episode/46"
            ],
            "url": "https://rickandmortyapi.com/api/character/746",
            "created": "2021-10-17T13:55:11.551Z"
        },
        {
            "id": 747,
            "name": "Cenobite",
            "status": "unknown",
            "species": "Mythological Creature",
            "type": "Demon",
            "gender": "Male",
            "origin": {
                "name": "Hell",
                "url": "https://rickandmortyapi.com/api/location/116"
            },
            "location": {
                "name": "Hell",
                "url": "https://rickandmortyapi.com/api/location/116"
            },
            "image": "https://rickandmortyapi.com/api/character/avatar/747.jpeg",
            "episode": [
                "https://rickandmortyapi.com/api/episode/46"
            ],
            "url": "https://rickandmortyapi.com/api/character/747",
            "created": "2021-10-17T13:56:15.096Z"
        },
        {
            "id": 748,
            "name": "Cenobite",
            "status": "unknown",
            "species": "Mythological Creature",
            "type": "Demon",
            "gender": "Male",
            "origin": {
                "name": "Hell",
                "url": "https://rickandmortyapi.com/api/location/116"
            },
            "location": {
                "name": "Hell",
                "url": "https://rickandmortyapi.com/api/location/116"
            },
            "image": "https://rickandmortyapi.com/api/character/avatar/748.jpeg",
            "episode": [
                "https://rickandmortyapi.com/api/episode/46"
            ],
            "url": "https://rickandmortyapi.com/api/character/748",
            "created": "2021-10-17T13:57:04.213Z"
        },
        {
            "id": 749,
            "name": "Coat Rack Head",
            "status": "unknown",
            "species": "Mythological Creature",
            "type": "Demon",
            "gender": "Male",
            "origin": {
                "name": "Hell",
                "url": "https://rickandmortyapi.com/api/location/116"
            },
            "location": {
                "name": "Hell",
                "url": "https://rickandmortyapi.com/api/location/116"
            },
            "image": "https://rickandmortyapi.com/api/character/avatar/749.jpeg",
            "episode": [
                "https://rickandmortyapi.com/api/episode/46"
            ],
            "url": "https://rickandmortyapi.com/api/character/749",
            "created": "2021-10-17T13:57:49.619Z"
        },
        {
            "id": 750,
            "name": "Mousetrap Nipples",
            "status": "unknown",
            "species": "Mythological Creature",
            "type": "Demon",
            "gender": "Male",
            "origin": {
                "name": "Hell",
                "url": "https://rickandmortyapi.com/api/location/116"
            },
            "location": {
                "name": "Hell",
                "url": "https://rickandmortyapi.com/api/location/116"
            },
            "image": "https://rickandmortyapi.com/api/character/avatar/750.jpeg",
            "episode": [
                "https://rickandmortyapi.com/api/episode/46"
            ],
            "url": "https://rickandmortyapi.com/api/character/750",
            "created": "2021-10-17T13:58:37.737Z"
        },
        {
            "id": 751,
            "name": "Changeformer",
            "status": "Dead",
            "species": "Robot",
            "type": "Changeformer",
            "gender": "Male",
            "origin": {
                "name": "Space Tahoe",
                "url": "https://rickandmortyapi.com/api/location/118"
            },
            "location": {
                "name": "Space Tahoe",
                "url": "https://rickandmortyapi.com/api/location/118"
            },
            "image": "https://rickandmortyapi.com/api/character/avatar/751.jpeg",
            "episode": [
                "https://rickandmortyapi.com/api/episode/46"
            ],
            "url": "https://rickandmortyapi.com/api/character/751",
            "created": "2021-10-17T14:03:31.342Z"
        },
        {
            "id": 752,
            "name": "Changeformer",
            "status": "Dead",
            "species": "Robot",
            "type": "Changeformer",
            "gender": "Male",
            "origin": {
                "name": "Space Tahoe",
                "url": "https://rickandmortyapi.com/api/location/118"
            },
            "location": {
                "name": "Space Tahoe",
                "url": "https://rickandmortyapi.com/api/location/118"
            },
            "image": "https://rickandmortyapi.com/api/character/avatar/752.jpeg",
            "episode": [
                "https://rickandmortyapi.com/api/episode/46"
            ],
            "url": "https://rickandmortyapi.com/api/character/752",
            "created": "2021-10-17T14:04:04.675Z"
        },
        {
            "id": 753,
            "name": "Space Cruiser",
            "status": "Alive",
            "species": "Robot",
            "type": "Artificial Intelligence",
            "gender": "Female",
            "origin": {
                "name": "Earth (Replacement Dimension)",
                "url": "https://rickandmortyapi.com/api/location/20"
            },
            "location": {
                "name": "Earth (Replacement Dimension)",
                "url": "https://rickandmortyapi.com/api/location/20"
            },
            "image": "https://rickandmortyapi.com/api/character/avatar/753.jpeg",
            "episode": [
                "https://rickandmortyapi.com/api/episode/17",
                "https://rickandmortyapi.com/api/episode/47"
            ],
            "url": "https://rickandmortyapi.com/api/character/753",
            "created": "2021-10-17T14:09:39.783Z"
        },
        {
            "id": 754,
            "name": "Coop",
            "status": "Alive",
            "species": "Human",
            "type": "",
            "gender": "Male",
            "origin": {
                "name": "Earth (Replacement Dimension)",
                "url": "https://rickandmortyapi.com/api/location/20"
            },
            "location": {
                "name": "Earth (Replacement Dimension)",
                "url": "https://rickandmortyapi.com/api/location/20"
            },
            "image": "https://rickandmortyapi.com/api/character/avatar/754.jpeg",
            "episode": [
                "https://rickandmortyapi.com/api/episode/47"
            ],
            "url": "https://rickandmortyapi.com/api/character/754",
            "created": "2021-10-17T14:13:09.623Z"
        },
        {
            "id": 755,
            "name": "Dwayne",
            "status": "Alive",
            "species": "Human",
            "type": "",
            "gender": "Male",
            "origin": {
                "name": "Earth (Replacement Dimension)",
                "url": "https://rickandmortyapi.com/api/location/20"
            },
            "location": {
                "name": "Earth (Replacement Dimension)",
                "url": "https://rickandmortyapi.com/api/location/20"
            },
            "image": "https://rickandmortyapi.com/api/character/avatar/755.jpeg",
            "episode": [
                "https://rickandmortyapi.com/api/episode/47"
            ],
            "url": "https://rickandmortyapi.com/api/character/755",
            "created": "2021-10-17T14:14:04.450Z"
        },
        {
            "id": 756,
            "name": "Franklin D. Roosevelt",
            "status": "Dead",
            "species": "Humanoid",
            "type": "Guinea Pig for the Polio Vaccine",
            "gender": "Male",
            "origin": {
                "name": "Earth (Replacement Dimension)",
                "url": "https://rickandmortyapi.com/api/location/20"
            },
            "location": {
                "name": "Earth (Replacement Dimension)",
                "url": "https://rickandmortyapi.com/api/location/20"
            },
            "image": "https://rickandmortyapi.com/api/character/avatar/756.jpeg",
            "episode": [
                "https://rickandmortyapi.com/api/episode/47"
            ],
            "url": "https://rickandmortyapi.com/api/character/756",
            "created": "2021-10-17T14:19:57.500Z"
        },
        {
            "id": 757,
            "name": "President's General",
            "status": "Alive",
            "species": "Human",
            "type": "",
            "gender": "Male",
            "origin": {
                "name": "Earth (Replacement Dimension)",
                "url": "https://rickandmortyapi.com/api/location/20"
            },
            "location": {
                "name": "Earth (Replacement Dimension)",
                "url": "https://rickandmortyapi.com/api/location/20"
            },
            "image": "https://rickandmortyapi.com/api/character/avatar/757.jpeg",
            "episode": [
                "https://rickandmortyapi.com/api/episode/45",
                "https://rickandmortyapi.com/api/episode/47"
            ],
            "url": "https://rickandmortyapi.com/api/character/757",
            "created": "2021-10-17T14:26:07.815Z"
        },
        {
            "id": 758,
            "name": "Giant Assassin Hidden in the Statue of Liberty",
            "status": "Alive",
            "species": "Robot",
            "type": "",
            "gender": "Female",
            "origin": {
                "name": "France",
                "url": "https://rickandmortyapi.com/api/location/119"
            },
            "location": {
                "name": "Earth (Replacement Dimension)",
                "url": "https://rickandmortyapi.com/api/location/20"
            },
            "image": "https://rickandmortyapi.com/api/character/avatar/758.jpeg",
            "episode": [
                "https://rickandmortyapi.com/api/episode/47"
            ],
            "url": "https://rickandmortyapi.com/api/character/758",
            "created": "2021-10-17T14:59:32.923Z"
        },
        {
            "id": 759,
            "name": "Turkey Morty",
            "status": "Alive",
            "species": "Animal",
            "type": "Turkey",
            "gender": "Male",
            "origin": {
                "name": "Earth (Replacement Dimension)",
                "url": "https://rickandmortyapi.com/api/location/20"
            },
            "location": {
                "name": "Earth (Replacement Dimension)",
                "url": "https://rickandmortyapi.com/api/location/20"
            },
            "image": "https://rickandmortyapi.com/api/character/avatar/759.jpeg",
            "episode": [
                "https://rickandmortyapi.com/api/episode/47"
            ],
            "url": "https://rickandmortyapi.com/api/character/759",
            "created": "2021-10-17T15:01:58.524Z"
        },
        {
            "id": 760,
            "name": "Turkey Rick",
            "status": "Alive",
            "species": "Animal",
            "type": "Turkey",
            "gender": "Male",
            "origin": {
                "name": "Earth (Replacement Dimension)",
                "url": "https://rickandmortyapi.com/api/location/20"
            },
            "location": {
                "name": "Earth (Replacement Dimension)",
                "url": "https://rickandmortyapi.com/api/location/20"
            },
            "image": "https://rickandmortyapi.com/api/character/avatar/760.jpeg",
            "episode": [
                "https://rickandmortyapi.com/api/episode/47"
            ],
            "url": "https://rickandmortyapi.com/api/character/760",
            "created": "2021-10-17T15:02:38.081Z"
        }
    ]
}