{
    "info": {
        "count": 826,
        "pages": 42,
        "next": "https://rickandmortyapi.com/api/character?page=23",
        "prev": "https://rickandmortyapi.com/api/character?page=21"
    },
    "results": [
        {
            "id": 421,
            "name": "Rich Plutonian",
            "status": "Alive",
            "species": "Alien",
            "type": "Plutonian",
            "gender": "Female",
            "origin": {
                "name": "Pluto",
                "url": "https://rickandmortyapi.com/api/location/47"
            },
            "location": {
                "name": "Pluto",
                "url": "https://rickandmortyapi.com/api/location/47"
            },
            "image": "https://rickandmortyapi.com/api/character/avatar/421.jpeg",
            "episode": [
                "https://rickandmortyapi.com/api/episode/9"
            ],
            "url": "https://rickandmortyapi.com/api/character/421",
            "created": "2018-04-15T21:51:50.534Z"
        },
        {
            "id": 422,
            "name": "Rich Plutonian",
            "status": "Alive",
            "species": "Alien",
            "type": "Plutonian",
            "gender": "Male",
            "origin": {
                "name": "Pluto",
                "url": "https://rickandmortyapi.com/api/location/47"
            },
            "location": {
                "name": "Pluto",
                "url": "https://rickandmortyapi.com/api/location/47"
            },
            "image": "https://rickandmortyapi.com/api/character/avatar/422.jpeg",
            "episode": [
                "https://rickandmortyapi.com/api/episode/9"
            ],
            "url": "https://rickandmortyapi.com/api/character/422",
            "created": "2018-04-15T21:52:14.642Z"
        },
        {
            "id": 423,
            "name": "Synthetic Laser Eels",
            "status": "Alive",
            "species": "Animal",
            "type": "Eel",
            "gender": "unknown",
            "origin": {
                "name": "Earth (Replacement Dimension)",
                "url": "https://rickandmortyapi.com/api/location/20"
            },
            "location": {
                "name": "Earth (Replacement Dimension)",
                "url": "https://rickandmortyapi.com/api/location/20"
            },
            "image": "https://rickandmortyapi.com/api/character/avatar/423.jpeg",
            "episode": [
                "https://rickandmortyapi.com/api/episode/11"
            ],
            "url": "https://rickandmortyapi.com/api/character/423",
            "created": "2018-04-16T21:08:47.956Z"
        },
        {
            "id": 424,
            "name": "Pizza-person",
            "status": "Alive",
            "species": "Humanoid",
            "type": "Pizza",
            "gender": "Male",
            "origin": {
                "name": "Earth (Pizza Dimension)",
                "url": "https://rickandmortyapi.com/api/location/71"
            },
            "location": {
                "name": "Earth (Pizza Dimension)",
                "url": "https://rickandmortyapi.com/api/location/71"
            },
            "image": "https://rickandmortyapi.com/api/character/avatar/424.jpeg",
            "episode": [
                "https://rickandmortyapi.com/api/episode/10"
            ],
            "url": "https://rickandmortyapi.com/api/character/424",
            "created": "2018-04-16T21:45:55.310Z"
        },
        {
            "id": 425,
            "name": "Pizza-person",
            "status": "Alive",
            "species": "Humanoid",
            "type": "Pizza",
            "gender": "Male",
            "origin": {
                "name": "Earth (Pizza Dimension)",
                "url": "https://rickandmortyapi.com/api/location/71"
            },
            "location": {
                "name": "Earth (Pizza Dimension)",
                "url": "https://rickandmortyapi.com/api/location/71"
            },
            "image": "https://rickandmortyapi.com/api/character/avatar/425.jpeg",
            "episode": [
                "https://rickandmortyapi.com/api/episode/10"
            ],
            "url": "https://rickandmortyapi.com/api/character/425",
            "created": "2018-04-16T21:46:18.362Z"
        },
        {
            "id": 426,
            "name": "Greasy Grandma",
            "status": "Alive",
            "species": "Human",
            "type": "Grandma",
            "gender": "Female",
            "origin": {
                "name": "Greasy Grandma World",
                "url": "https://rickandmortyapi.com/api/location/73"
            },
            "location": {
                "name": "Greasy Grandma World",
                "url": "https://rickandmortyapi.com/api/location/73"
            },
            "image": "https://rickandmortyapi.com/api/character/avatar/426.jpeg",
            "episode": [
                "https://rickandmortyapi.com/api/episode/10"
            ],
            "url": "https://rickandmortyapi.com/api/character/426",
            "created": "2018-04-16T21:51:21.379Z"
        },
        {
            "id": 427,
            "name": "Phone-person",
            "status": "Alive",
            "species": "Humanoid",
            "type": "Phone",
            "gender": "Male",
            "origin": {
                "name": "Earth (Phone Dimension)",
                "url": "https://rickandmortyapi.com/api/location/72"
            },
            "location": {
                "name": "Earth (Phone Dimension)",
                "url": "https://rickandmortyapi.com/api/location/72"
            },
            "image": "https://rickandmortyapi.com/api/character/avatar/427.jpeg",
            "episode": [
                "https://rickandmortyapi.com/api/episode/10"
            ],
            "url": "https://rickandmortyapi.com/api/character/427",
            "created": "2018-04-16T21:54:05.375Z"
        },
        {
            "id": 428,
            "name": "Phone-person",
            "status": "Alive",
            "species": "Humanoid",
            "type": "Phone",
            "gender": "Male",
            "origin": {
                "name": "Earth (Phone Dimension)",
                "url": "https://rickandmortyapi.com/api/location/72"
            },
            "location": {
                "name": "Earth (Phone Dimension)",
                "url": "https://rickandmortyapi.com/api/location/72"
            },
            "image": "https://rickandmortyapi.com/api/character/avatar/428.jpeg",
            "episode": [
                "https://rickandmortyapi.com/api/episode/10"
            ],
            "url": "https://rickandmortyapi.com/api/character/428",
            "created": "2018-04-16T21:54:48.372Z"
        },
        {
            "id": 429,
            "name": "Chair-person",
            "status": "Alive",
            "species": "Humanoid",
            "type": "Chair",
            "gender": "Male",
            "origin": {
                "name": "Earth (Chair Dimension)",
                "url": "https://rickandmortyapi.com/api/location/74"
            },
            "location": {
                "name": "Earth (Chair Dimension)",
                "url": "https://rickandmortyapi.com/api/location/74"
            },
            "image": "https://rickandmortyapi.com/api/character/avatar/429.jpeg",
            "episode": [
                "https://rickandmortyapi.com/api/episode/10"
            ],
            "url": "https://rickandmortyapi.com/api/character/429",
            "created": "2018-04-16T21:59:25.798Z"
        },
        {
            "id": 430,
            "name": "Chair-person",
            "status": "Alive",
            "species": "Humanoid",
            "type": "Chair",
            "gender": "Male",
            "origin": {
                "name": "Earth (Chair Dimension)",
                "url": "https://rickandmortyapi.com/api/location/74"
            },
            "location": {
                "name": "Earth (Chair Dimension)",
                "url": "https://rickandmortyapi.com/api/location/74"
            },
            "image": "https://rickandmortyapi.com/api/character/avatar/430.jpeg",
            "episode": [
                "https://rickandmortyapi.com/api/episode/10"
            ],
            "url": "https://rickandmortyapi.com/api/character/430",
            "created": "2018-04-16T21:59:48.220Z"
        },
        {
            "id": 431,
            "name": "Chair-homeless",
            "status": "Alive",
            "species": "Humanoid",
            "type": "Chair",
            "gender": "Male",
            "origin": {
                "name": "Earth (Chair Dimension)",
                "url": "https://rickandmortyapi.com/api/location/74"
            },
            "location": {
                "name": "Earth (Chair Dimension)",
                "url": "https://rickandmortyapi.com/api/location/74"
            },
            "image": "https://rickandmortyapi.com/api/character/avatar/431.jpeg",
            "episode": [
                "https://rickandmortyapi.com/api/episode/10"
            ],
            "url": "https://rickandmortyapi.com/api/character/431",
            "created": "2018-04-16T22:01:17.927Z"
        },
        {
            "id": 432,
            "name": "Chair-waiter",
            "status": "Alive",
            "species": "Humanoid",
            "type": "Chair",
            "gender": "Male",
            "origin": {
                "name": "Earth (Chair Dimension)",
                "url": "https://rickandmortyapi.com/api/location/74"
            },
            "location": {
                "name": "Earth (Chair Dimension)",
                "url": "https://rickandmortyapi.com/api/location/74"
            },
            "image": "https://rickandmortyapi.com/api/character/avatar/432.jpeg",
            "episode": [
                "https://rickandmortyapi.com/api/episode/10"
            ],
            "url": "https://rickandmortyapi.com/api/character/432",
            "created": "2018-04-16T22:02:26.106Z"
        },
        {
            "id": 433,
            "name": "Doopidoo",
            "status": "Alive",
            "species": "Animal",
            "type": "Doopidoo",
            "gender": "unknown",
            "origin": {
                "name": "unknown",
                "url": ""
            },
            "location": {
                "name": "unknown",
                "url": ""
            },
            "image": "https://rickandmortyapi.com/api/character/avatar/433.jpeg",
            "episode": [
                "https://rickandmortyapi.com/api/episode/10"
            ],
            "url": "https://rickandmortyapi.com/api/character/433",
            "created": "2018-04-16T22:05:05.745Z"
        },
        {
            "id": 434,
            "name": "Super Weird Rick",
            "status": "unknown",
            "species": "Human",
            "type": "",
            "gender": "Male",
            "origin": {
                "name": "unknown",
                "url": ""
            },
            "location": {
                "name": "unknown",
                "url": ""
            },
            "image": "https://rickandmortyapi.com/api/character/avatar/434.jpeg",
            "episode": [
                "https://rickandmortyapi.com/api/episode/10"
            ],
            "url": "https://rickandmortyapi.com/api/character/434",
            "created": "2018-04-16T22:16:17.789Z"
        },
        {
            "id": 435,
            "name": "Pripudlian",
            "status": "Alive",
            "species": "Alien",
            "type": "Pripudlian",
            "gender": "unknown",
            "origin": {
                "name": "unknown",
                "url": ""
            },
            "location": {
                "name": "Earth (Replacement Dimension)",
                "url": "https://rickandmortyapi.com/api/location/20"
            },
            "image": "https://rickandmortyapi.com/api/character/avatar/435.jpeg",
            "episode": [
                "https://rickandmortyapi.com/api/episode/1",
                "https://rickandmortyapi.com/api/episode/11",
                "https://rickandmortyapi.com/api/episode/19",
                "https://rickandmortyapi.com/api/episode/25"
            ],
            "url": "https://rickandmortyapi.com/api/character/435",
            "created": "2018-04-16T22:21:57.962Z"
        },
        {
            "id": 436,
            "name": "Giant Testicle Monster",
            "status": "Alive",
            "species": "Alien",
            "type": "",
            "gender": "unknown",
            "origin": {
                "name": "Testicle Monster Dimension",
                "url": "https://rickandmortyapi.com/api/location/21"
            },
            "location": {
                "name": "Testicle Monster Dimension",
                "url": "https://rickandmortyapi.com/api/location/21"
            },
            "image": "https://rickandmortyapi.com/api/character/avatar/436.jpeg",
            "episode": [
                "https://rickandmortyapi.com/api/episode/11",
                "https://rickandmortyapi.com/api/episode/13"
            ],
            "url": "https://rickandmortyapi.com/api/character/436",
            "created": "2018-04-16T22:33:01.337Z"
        },
        {
            "id": 437,
            "name": "Michael",
            "status": "Alive",
            "species": "Human",
            "type": "",
            "gender": "Male",
            "origin": {
                "name": "Earth (Replacement Dimension)",
                "url": "https://rickandmortyapi.com/api/location/20"
            },
            "location": {
                "name": "Earth (Replacement Dimension)",
                "url": "https://rickandmortyapi.com/api/location/20"
            },
            "image": "https://rickandmortyapi.com/api/character/avatar/437.jpeg",
            "episode": [
                "https://rickandmortyapi.com/api/episode/12"
            ],
            "url": "https://rickandmortyapi.com/api/character/437",
            "created": "2018-05-01T11:51:10.604Z"
        },
        {
            "id": 438,
            "name": "Michael's Lawyer",
            "status": "Alive",
            "species": "Human",
            "type": "",
            "gender": "Male",
            "origin": {
                "name": "Earth (Replacement Dimension)",
                "url": "https://rickandmortyapi.com/api/location/20"
            },
            "location": {
                "name": "Earth (Replacement Dimension)",
                "url": "https://rickandmortyapi.com/api/location/20"
            },
            "image": "https://rickandmortyapi.com/api/character/avatar/438.jpeg",
            "episode": [
                "https://rickandmortyapi.com/api/episode/12"
            ],
            "url": "https://rickandmortyapi.com/api/character/438",
            "created": "2018-05-01T11:57:16.266Z"
        },
        {
            "id": 439,
            "name": "Veterinary",
            "status": "Alive",
            "species": "Human",
            "type": "",
            "gender": "Female",
            "origin": {
                "name": "Earth (Replacement Dimension)",
                "url": "https://rickandmortyapi.com/api/location/20"
            },
            "location": {
                "name": "Earth (Replacement Dimension)",
                "url": "https://rickandmortyapi.com/api/location/20"
            },
            "image": "https://rickandmortyapi.com/api/character/avatar/439.jpeg",
            "episode": [
                "https://rickandmortyapi.com/api/episode/12"
            ],
            "url": "https://rickandmortyapi.com/api/character/439",
            "created": "2018-05-01T11:58:43.275Z"
        },
        {
            "id": 440,
            "name": "Veterinary Nurse",
            "status": "Alive",
            "species": "Human",
            "type": "",
            "gender": "Male",
            "origin": {
                "name": "Earth (Replacement Dimension)",
                "url": "https://rickandmortyapi.com/api/location/20"
            },
            "location": {
                "name": "Earth (Replacement Dimension)",
                "url": "https://rickandmortyapi.com/api/location/20"
            },
            "image": "https://rickandmortyapi.com/api/character/avatar/440.jpeg",
            "episode": [
                "https://rickandmortyapi.com/api/episode/12"
            ],
            "url": "https://rickandmortyapi.com/api/character/440",
            "created": "2018-05-01T11:59:15.544Z"
        }
    ]
}