{
    "info": {
        "count": 826,
        "pages": 42,
        "next": "https://rickandmortyapi.com/api/character?page=30",
        "prev": "https://rickandmortyapi.com/api/character?page=28"
    },
    "results": [
        {
            "id": 561,
            "name": "Netflix Executive",
            "status": "Alive",
            "species": "Human",
            "type": "",
            "gender": "Male",
            "origin": {
                "name": "Earth (Replacement Dimension)",
                "url": "https://rickandmortyapi.com/api/location/20"
            },
            "location": {
                "name": "Earth (Replacement Dimension)",
                "url": "https://rickandmortyapi.com/api/location/20"
            },
            "image": "https://rickandmortyapi.com/api/character/avatar/561.jpeg",
            "episode": [
                "https://rickandmortyapi.com/api/episode/34"
            ],
            "url": "https://rickandmortyapi.com/api/character/561",
            "created": "2020-05-07T11:19:57.540Z"
        },
        {
            "id": 562,
            "name": "Balthromaw",
            "status": "Alive",
            "species": "Mythological Creature",
            "type": "Dragon",
            "gender": "Male",
            "origin": {
                "name": "Draygon",
                "url": "https://rickandmortyapi.com/api/location/94"
            },
            "location": {
                "name": "Earth (Replacement Dimension)",
                "url": "https://rickandmortyapi.com/api/location/20"
            },
            "image": "https://rickandmortyapi.com/api/character/avatar/562.jpeg",
            "episode": [
                "https://rickandmortyapi.com/api/episode/35"
            ],
            "url": "https://rickandmortyapi.com/api/character/562",
            "created": "2020-05-07T11:32:16.357Z"
        },
        {
            "id": 563,
            "name": "The Wizard",
            "status": "Dead",
            "species": "Human",
            "type": "",
            "gender": "Male",
            "origin": {
                "name": "Draygon",
                "url": "https://rickandmortyapi.com/api/location/94"
            },
            "location": {
                "name": "Draygon",
                "url": "https://rickandmortyapi.com/api/location/94"
            },
            "image": "https://rickandmortyapi.com/api/character/avatar/563.jpeg",
            "episode": [
                "https://rickandmortyapi.com/api/episode/35"
            ],
            "url": "https://rickandmortyapi.com/api/character/563",
            "created": "2020-05-07T11:32:52.469Z"
        },
        {
            "id": 564,
            "name": "Talking Cat",
            "status": "Alive",
            "species": "Animal",
            "type": "",
            "gender": "Male",
            "origin": {
                "name": "unknown",
                "url": ""
            },
            "location": {
                "name": "Earth (Replacement Dimension)",
                "url": "https://rickandmortyapi.com/api/location/20"
            },
            "image": "https://rickandmortyapi.com/api/character/avatar/564.jpeg",
            "episode": [
                "https://rickandmortyapi.com/api/episode/35"
            ],
            "url": "https://rickandmortyapi.com/api/character/564",
            "created": "2020-05-07T11:33:37.456Z"
        },
        {
            "id": 565,
            "name": "Debrah",
            "status": "Alive",
            "species": "Mythological Creature",
            "type": "Dragon",
            "gender": "Male",
            "origin": {
                "name": "Draygon",
                "url": "https://rickandmortyapi.com/api/location/94"
            },
            "location": {
                "name": "Draygon",
                "url": "https://rickandmortyapi.com/api/location/94"
            },
            "image": "https://rickandmortyapi.com/api/character/avatar/565.jpeg",
            "episode": [
                "https://rickandmortyapi.com/api/episode/35"
            ],
            "url": "https://rickandmortyapi.com/api/character/565",
            "created": "2020-05-07T11:34:43.083Z"
        },
        {
            "id": 566,
            "name": "Debrah’s Partner",
            "status": "Alive",
            "species": "Mythological Creature",
            "type": "Dragon",
            "gender": "Male",
            "origin": {
                "name": "Draygon",
                "url": "https://rickandmortyapi.com/api/location/94"
            },
            "location": {
                "name": "Draygon",
                "url": "https://rickandmortyapi.com/api/location/94"
            },
            "image": "https://rickandmortyapi.com/api/character/avatar/566.jpeg",
            "episode": [
                "https://rickandmortyapi.com/api/episode/35"
            ],
            "url": "https://rickandmortyapi.com/api/character/566",
            "created": "2020-05-07T11:35:29.625Z"
        },
        {
            "id": 567,
            "name": "Michael",
            "status": "Alive",
            "species": "Mythological Creature",
            "type": "Dragon",
            "gender": "Male",
            "origin": {
                "name": "Draygon",
                "url": "https://rickandmortyapi.com/api/location/94"
            },
            "location": {
                "name": "Draygon",
                "url": "https://rickandmortyapi.com/api/location/94"
            },
            "image": "https://rickandmortyapi.com/api/character/avatar/567.jpeg",
            "episode": [
                "https://rickandmortyapi.com/api/episode/35"
            ],
            "url": "https://rickandmortyapi.com/api/character/567",
            "created": "2020-05-07T11:36:12.044Z"
        },
        {
            "id": 568,
            "name": "Slut Dragon",
            "status": "Alive",
            "species": "Mythological Creature",
            "type": "Dragon",
            "gender": "Male",
            "origin": {
                "name": "Draygon",
                "url": "https://rickandmortyapi.com/api/location/94"
            },
            "location": {
                "name": "Draygon",
                "url": "https://rickandmortyapi.com/api/location/94"
            },
            "image": "https://rickandmortyapi.com/api/character/avatar/568.jpeg",
            "episode": [
                "https://rickandmortyapi.com/api/episode/35"
            ],
            "url": "https://rickandmortyapi.com/api/character/568",
            "created": "2020-05-07T11:37:05.857Z"
        },
        {
            "id": 569,
            "name": "Shadow Jacker",
            "status": "Alive",
            "species": "Mythological Creature",
            "type": "Dragon",
            "gender": "Male",
            "origin": {
                "name": "Draygon",
                "url": "https://rickandmortyapi.com/api/location/94"
            },
            "location": {
                "name": "Draygon",
                "url": "https://rickandmortyapi.com/api/location/94"
            },
            "image": "https://rickandmortyapi.com/api/character/avatar/569.jpeg",
            "episode": [
                "https://rickandmortyapi.com/api/episode/35"
            ],
            "url": "https://rickandmortyapi.com/api/character/569",
            "created": "2020-05-07T11:37:49.533Z"
        },
        {
            "id": 570,
            "name": "Chachi",
            "status": "Dead",
            "species": "Alien",
            "type": "",
            "gender": "Male",
            "origin": {
                "name": "unknown",
                "url": ""
            },
            "location": {
                "name": "Earth (Replacement Dimension)",
                "url": "https://rickandmortyapi.com/api/location/20"
            },
            "image": "https://rickandmortyapi.com/api/character/avatar/570.jpeg",
            "episode": [
                "https://rickandmortyapi.com/api/episode/35"
            ],
            "url": "https://rickandmortyapi.com/api/character/570",
            "created": "2020-05-07T12:01:38.426Z"
        },
        {
            "id": 571,
            "name": "Slippy",
            "status": "Alive",
            "species": "Animal",
            "type": "Snake",
            "gender": "Female",
            "origin": {
                "name": "Earth (Replacement Dimension)",
                "url": "https://rickandmortyapi.com/api/location/20"
            },
            "location": {
                "name": "Snake Planet",
                "url": "https://rickandmortyapi.com/api/location/78"
            },
            "image": "https://rickandmortyapi.com/api/character/avatar/571.jpeg",
            "episode": [
                "https://rickandmortyapi.com/api/episode/36"
            ],
            "url": "https://rickandmortyapi.com/api/character/571",
            "created": "2020-05-07T12:10:34.574Z"
        },
        {
            "id": 572,
            "name": "Robot Snake",
            "status": "unknown",
            "species": "Robot",
            "type": "Snake",
            "gender": "Genderless",
            "origin": {
                "name": "Snake Planet",
                "url": "https://rickandmortyapi.com/api/location/78"
            },
            "location": {
                "name": "Snake Planet",
                "url": "https://rickandmortyapi.com/api/location/78"
            },
            "image": "https://rickandmortyapi.com/api/character/avatar/572.jpeg",
            "episode": [
                "https://rickandmortyapi.com/api/episode/36"
            ],
            "url": "https://rickandmortyapi.com/api/character/572",
            "created": "2020-05-07T12:11:58.105Z"
        },
        {
            "id": 573,
            "name": "Snake Hitler",
            "status": "Dead",
            "species": "Animal",
            "type": "Snake",
            "gender": "Male",
            "origin": {
                "name": "Snake Planet",
                "url": "https://rickandmortyapi.com/api/location/78"
            },
            "location": {
                "name": "Snake Planet",
                "url": "https://rickandmortyapi.com/api/location/78"
            },
            "image": "https://rickandmortyapi.com/api/character/avatar/573.jpeg",
            "episode": [
                "https://rickandmortyapi.com/api/episode/36"
            ],
            "url": "https://rickandmortyapi.com/api/character/573",
            "created": "2020-05-07T12:12:53.568Z"
        },
        {
            "id": 574,
            "name": "Snake Lincoln",
            "status": "Dead",
            "species": "Animal",
            "type": "Snake",
            "gender": "Male",
            "origin": {
                "name": "Snake Planet",
                "url": "https://rickandmortyapi.com/api/location/78"
            },
            "location": {
                "name": "Snake Planet",
                "url": "https://rickandmortyapi.com/api/location/78"
            },
            "image": "https://rickandmortyapi.com/api/character/avatar/574.jpeg",
            "episode": [
                "https://rickandmortyapi.com/api/episode/36"
            ],
            "url": "https://rickandmortyapi.com/api/character/574",
            "created": "2020-05-07T12:13:44.361Z"
        },
        {
            "id": 575,
            "name": "Snake Resistance Robot",
            "status": "Dead",
            "species": "Robot",
            "type": "Human-Snake hybrid",
            "gender": "Genderless",
            "origin": {
                "name": "Snake Planet",
                "url": "https://rickandmortyapi.com/api/location/78"
            },
            "location": {
                "name": "Earth (Replacement Dimension)",
                "url": "https://rickandmortyapi.com/api/location/20"
            },
            "image": "https://rickandmortyapi.com/api/character/avatar/575.jpeg",
            "episode": [
                "https://rickandmortyapi.com/api/episode/36"
            ],
            "url": "https://rickandmortyapi.com/api/character/575",
            "created": "2020-05-07T12:15:50.438Z"
        },
        {
            "id": 576,
            "name": "Snake Linguist",
            "status": "unknown",
            "species": "Animal",
            "type": "Snake",
            "gender": "Male",
            "origin": {
                "name": "Snake Planet",
                "url": "https://rickandmortyapi.com/api/location/78"
            },
            "location": {
                "name": "Snake Planet",
                "url": "https://rickandmortyapi.com/api/location/78"
            },
            "image": "https://rickandmortyapi.com/api/character/avatar/576.jpeg",
            "episode": [
                "https://rickandmortyapi.com/api/episode/36"
            ],
            "url": "https://rickandmortyapi.com/api/character/576",
            "created": "2020-05-07T12:16:53.781Z"
        },
        {
            "id": 577,
            "name": "Snake Terminator",
            "status": "unknown",
            "species": "Robot",
            "type": "Snake",
            "gender": "Male",
            "origin": {
                "name": "Snake Planet",
                "url": "https://rickandmortyapi.com/api/location/78"
            },
            "location": {
                "name": "Snake Planet",
                "url": "https://rickandmortyapi.com/api/location/78"
            },
            "image": "https://rickandmortyapi.com/api/character/avatar/577.jpeg",
            "episode": [
                "https://rickandmortyapi.com/api/episode/36"
            ],
            "url": "https://rickandmortyapi.com/api/character/577",
            "created": "2020-05-07T12:19:06.599Z"
        },
        {
            "id": 578,
            "name": "Snake Soldier",
            "status": "Alive",
            "species": "Animal",
            "type": "Snake",
            "gender": "Male",
            "origin": {
                "name": "Snake Planet",
                "url": "https://rickandmortyapi.com/api/location/78"
            },
            "location": {
                "name": "Snake Planet",
                "url": "https://rickandmortyapi.com/api/location/78"
            },
            "image": "https://rickandmortyapi.com/api/character/avatar/578.jpeg",
            "episode": [
                "https://rickandmortyapi.com/api/episode/36"
            ],
            "url": "https://rickandmortyapi.com/api/character/578",
            "created": "2020-05-07T12:19:11.205Z"
        },
        {
            "id": 579,
            "name": "Snake with Legs",
            "status": "Alive",
            "species": "Animal",
            "type": "Snake",
            "gender": "Male",
            "origin": {
                "name": "Snake Planet",
                "url": "https://rickandmortyapi.com/api/location/78"
            },
            "location": {
                "name": "Snake Planet",
                "url": "https://rickandmortyapi.com/api/location/78"
            },
            "image": "https://rickandmortyapi.com/api/character/avatar/579.jpeg",
            "episode": [
                "https://rickandmortyapi.com/api/episode/36"
            ],
            "url": "https://rickandmortyapi.com/api/character/579",
            "created": "2020-05-07T12:22:08.800Z"
        },
        {
            "id": 580,
            "name": "Secret Service Snake",
            "status": "Alive",
            "species": "Animal",
            "type": "Snake",
            "gender": "Male",
            "origin": {
                "name": "Snake Planet",
                "url": "https://rickandmortyapi.com/api/location/78"
            },
            "location": {
                "name": "Snake Planet",
                "url": "https://rickandmortyapi.com/api/location/78"
            },
            "image": "https://rickandmortyapi.com/api/character/avatar/580.jpeg",
            "episode": [
                "https://rickandmortyapi.com/api/episode/36"
            ],
            "url": "https://rickandmortyapi.com/api/character/580",
            "created": "2020-05-07T12:23:20.171Z"
        }
    ]
}