{
    "info": {
        "count": 826,
        "pages": 42,
        "next": "https://rickandmortyapi.com/api/character?page=26",
        "prev": "https://rickandmortyapi.com/api/character?page=24"
    },
    "results": [
        {
            "id": 481,
            "name": "Retired General Rick",
            "status": "unknown",
            "species": "Human",
            "type": "",
            "gender": "Male",
            "origin": {
                "name": "unknown",
                "url": ""
            },
            "location": {
                "name": "Citadel of Ricks",
                "url": "https://rickandmortyapi.com/api/location/3"
            },
            "image": "https://rickandmortyapi.com/api/character/avatar/481.jpeg",
            "episode": [
                "https://rickandmortyapi.com/api/episode/28"
            ],
            "url": "https://rickandmortyapi.com/api/character/481",
            "created": "2018-05-22T17:29:50.642Z"
        },
        {
            "id": 482,
            "name": "Secret Service Rick",
            "status": "Alive",
            "species": "Human",
            "type": "",
            "gender": "Male",
            "origin": {
                "name": "unknown",
                "url": ""
            },
            "location": {
                "name": "Citadel of Ricks",
                "url": "https://rickandmortyapi.com/api/location/3"
            },
            "image": "https://rickandmortyapi.com/api/character/avatar/482.jpeg",
            "episode": [
                "https://rickandmortyapi.com/api/episode/28"
            ],
            "url": "https://rickandmortyapi.com/api/character/482",
            "created": "2018-05-22T17:32:32.561Z"
        },
        {
            "id": 483,
            "name": "Steve Jobs Rick",
            "status": "Alive",
            "species": "Human",
            "type": "",
            "gender": "Male",
            "origin": {
                "name": "unknown",
                "url": ""
            },
            "location": {
                "name": "Citadel of Ricks",
                "url": "https://rickandmortyapi.com/api/location/3"
            },
            "image": "https://rickandmortyapi.com/api/character/avatar/483.jpeg",
            "episode": [
                "https://rickandmortyapi.com/api/episode/28"
            ],
            "url": "https://rickandmortyapi.com/api/character/483",
            "created": "2018-05-22T17:33:33.815Z"
        },
        {
            "id": 484,
            "name": "Sheik Rick",
            "status": "Dead",
            "species": "Human",
            "type": "",
            "gender": "Male",
            "origin": {
                "name": "unknown",
                "url": ""
            },
            "location": {
                "name": "Citadel of Ricks",
                "url": "https://rickandmortyapi.com/api/location/3"
            },
            "image": "https://rickandmortyapi.com/api/character/avatar/484.jpeg",
            "episode": [
                "https://rickandmortyapi.com/api/episode/28"
            ],
            "url": "https://rickandmortyapi.com/api/character/484",
            "created": "2018-05-22T17:35:26.250Z"
        },
        {
            "id": 485,
            "name": "Modern Rick",
            "status": "Alive",
            "species": "Human",
            "type": "",
            "gender": "Male",
            "origin": {
                "name": "unknown",
                "url": ""
            },
            "location": {
                "name": "Citadel of Ricks",
                "url": "https://rickandmortyapi.com/api/location/3"
            },
            "image": "https://rickandmortyapi.com/api/character/avatar/485.jpeg",
            "episode": [
                "https://rickandmortyapi.com/api/episode/28"
            ],
            "url": "https://rickandmortyapi.com/api/character/485",
            "created": "2018-05-22T17:36:56.925Z"
        },
        {
            "id": 486,
            "name": "Tan Rick",
            "status": "Dead",
            "species": "Human",
            "type": "",
            "gender": "Male",
            "origin": {
                "name": "unknown",
                "url": ""
            },
            "location": {
                "name": "Citadel of Ricks",
                "url": "https://rickandmortyapi.com/api/location/3"
            },
            "image": "https://rickandmortyapi.com/api/character/avatar/486.jpeg",
            "episode": [
                "https://rickandmortyapi.com/api/episode/28"
            ],
            "url": "https://rickandmortyapi.com/api/character/486",
            "created": "2018-05-22T17:37:37.764Z"
        },
        {
            "id": 487,
            "name": "Visor Rick",
            "status": "Dead",
            "species": "Human",
            "type": "",
            "gender": "Male",
            "origin": {
                "name": "unknown",
                "url": ""
            },
            "location": {
                "name": "Citadel of Ricks",
                "url": "https://rickandmortyapi.com/api/location/3"
            },
            "image": "https://rickandmortyapi.com/api/character/avatar/487.jpeg",
            "episode": [
                "https://rickandmortyapi.com/api/episode/28"
            ],
            "url": "https://rickandmortyapi.com/api/character/487",
            "created": "2018-05-22T17:38:28.593Z"
        },
        {
            "id": 488,
            "name": "Colonial Rick",
            "status": "Dead",
            "species": "Human",
            "type": "",
            "gender": "Male",
            "origin": {
                "name": "unknown",
                "url": ""
            },
            "location": {
                "name": "Citadel of Ricks",
                "url": "https://rickandmortyapi.com/api/location/3"
            },
            "image": "https://rickandmortyapi.com/api/character/avatar/488.jpeg",
            "episode": [
                "https://rickandmortyapi.com/api/episode/28"
            ],
            "url": "https://rickandmortyapi.com/api/character/488",
            "created": "2018-05-22T17:39:06.439Z"
        },
        {
            "id": 489,
            "name": "P-Coat Rick",
            "status": "Dead",
            "species": "Human",
            "type": "",
            "gender": "Male",
            "origin": {
                "name": "unknown",
                "url": ""
            },
            "location": {
                "name": "Citadel of Ricks",
                "url": "https://rickandmortyapi.com/api/location/3"
            },
            "image": "https://rickandmortyapi.com/api/character/avatar/489.jpeg",
            "episode": [
                "https://rickandmortyapi.com/api/episode/28"
            ],
            "url": "https://rickandmortyapi.com/api/character/489",
            "created": "2018-05-22T17:39:37.604Z"
        },
        {
            "id": 490,
            "name": "Chang",
            "status": "Alive",
            "species": "Human",
            "type": "",
            "gender": "Male",
            "origin": {
                "name": "unknown",
                "url": ""
            },
            "location": {
                "name": "The Menagerie",
                "url": "https://rickandmortyapi.com/api/location/25"
            },
            "image": "https://rickandmortyapi.com/api/character/avatar/490.jpeg",
            "episode": [
                "https://rickandmortyapi.com/api/episode/29"
            ],
            "url": "https://rickandmortyapi.com/api/character/490",
            "created": "2018-05-22T17:43:52.543Z"
        },
        {
            "id": 491,
            "name": "Dr. Eleanor Arroway",
            "status": "Alive",
            "species": "Human",
            "type": "",
            "gender": "Female",
            "origin": {
                "name": "unknown",
                "url": ""
            },
            "location": {
                "name": "The Menagerie",
                "url": "https://rickandmortyapi.com/api/location/25"
            },
            "image": "https://rickandmortyapi.com/api/character/avatar/491.jpeg",
            "episode": [
                "https://rickandmortyapi.com/api/episode/29"
            ],
            "url": "https://rickandmortyapi.com/api/character/491",
            "created": "2018-05-22T17:44:32.071Z"
        },
        {
            "id": 492,
            "name": "Varrix",
            "status": "Alive",
            "species": "Alien",
            "type": "",
            "gender": "unknown",
            "origin": {
                "name": "unknown",
                "url": ""
            },
            "location": {
                "name": "Earth (Replacement Dimension)",
                "url": "https://rickandmortyapi.com/api/location/20"
            },
            "image": "https://rickandmortyapi.com/api/character/avatar/492.jpeg",
            "episode": [
                "https://rickandmortyapi.com/api/episode/30"
            ],
            "url": "https://rickandmortyapi.com/api/character/492",
            "created": "2018-05-22T17:49:13.883Z"
        },
        {
            "id": 493,
            "name": "Secretary of the Interior",
            "status": "Alive",
            "species": "Human",
            "type": "",
            "gender": "Male",
            "origin": {
                "name": "Earth (Replacement Dimension)",
                "url": "https://rickandmortyapi.com/api/location/20"
            },
            "location": {
                "name": "Earth (Replacement Dimension)",
                "url": "https://rickandmortyapi.com/api/location/20"
            },
            "image": "https://rickandmortyapi.com/api/character/avatar/493.jpeg",
            "episode": [
                "https://rickandmortyapi.com/api/episode/31"
            ],
            "url": "https://rickandmortyapi.com/api/character/493",
            "created": "2018-05-22T17:51:07.373Z"
        },
        {
            "id": 494,
            "name": "Crystal Poacher",
            "status": "Dead",
            "species": "Alien",
            "type": "",
            "gender": "Male",
            "origin": {
                "name": "unknown",
                "url": ""
            },
            "location": {
                "name": "Forbodulon Prime",
                "url": "https://rickandmortyapi.com/api/location/79"
            },
            "image": "https://rickandmortyapi.com/api/character/avatar/494.jpeg",
            "episode": [
                "https://rickandmortyapi.com/api/episode/32"
            ],
            "url": "https://rickandmortyapi.com/api/character/494",
            "created": "2020-05-02T10:05:08.737Z"
        },
        {
            "id": 495,
            "name": "Crystal Poacher",
            "status": "Dead",
            "species": "Alien",
            "type": "",
            "gender": "Male",
            "origin": {
                "name": "unknown",
                "url": ""
            },
            "location": {
                "name": "Forbodulon Prime",
                "url": "https://rickandmortyapi.com/api/location/79"
            },
            "image": "https://rickandmortyapi.com/api/character/avatar/495.jpeg",
            "episode": [
                "https://rickandmortyapi.com/api/episode/32"
            ],
            "url": "https://rickandmortyapi.com/api/character/495",
            "created": "2020-05-02T10:10:44.766Z"
        },
        {
            "id": 496,
            "name": "Crystal Poacher",
            "status": "Dead",
            "species": "Alien",
            "type": "",
            "gender": "Male",
            "origin": {
                "name": "unknown",
                "url": ""
            },
            "location": {
                "name": "Forbodulon Prime",
                "url": "https://rickandmortyapi.com/api/location/79"
            },
            "image": "https://rickandmortyapi.com/api/character/avatar/496.jpeg",
            "episode": [
                "https://rickandmortyapi.com/api/episode/32"
            ],
            "url": "https://rickandmortyapi.com/api/character/496",
            "created": "2020-05-02T10:27:21.015Z"
        },
        {
            "id": 497,
            "name": "Hologram Rick",
            "status": "Dead",
            "species": "Humanoid",
            "type": "Hologram",
            "gender": "Male",
            "origin": {
                "name": "Earth (Replacement Dimension)",
                "url": "https://rickandmortyapi.com/api/location/20"
            },
            "location": {
                "name": "Earth (Replacement Dimension)",
                "url": "https://rickandmortyapi.com/api/location/20"
            },
            "image": "https://rickandmortyapi.com/api/character/avatar/497.jpeg",
            "episode": [
                "https://rickandmortyapi.com/api/episode/32"
            ],
            "url": "https://rickandmortyapi.com/api/character/497",
            "created": "2020-05-02T10:30:38.622Z"
        },
        {
            "id": 498,
            "name": "Fascist Rick",
            "status": "Dead",
            "species": "Human",
            "type": "",
            "gender": "Male",
            "origin": {
                "name": "Earth (Fascist Dimension)",
                "url": "https://rickandmortyapi.com/api/location/77"
            },
            "location": {
                "name": "Earth (Fascist Dimension)",
                "url": "https://rickandmortyapi.com/api/location/77"
            },
            "image": "https://rickandmortyapi.com/api/character/avatar/498.jpeg",
            "episode": [
                "https://rickandmortyapi.com/api/episode/32"
            ],
            "url": "https://rickandmortyapi.com/api/character/498",
            "created": "2020-05-02T10:34:12.495Z"
        },
        {
            "id": 499,
            "name": "Fascist Morty",
            "status": "Dead",
            "species": "Human",
            "type": "",
            "gender": "Male",
            "origin": {
                "name": "Earth (Fascist Dimension)",
                "url": "https://rickandmortyapi.com/api/location/77"
            },
            "location": {
                "name": "Earth (Fascist Dimension)",
                "url": "https://rickandmortyapi.com/api/location/77"
            },
            "image": "https://rickandmortyapi.com/api/character/avatar/499.jpeg",
            "episode": [
                "https://rickandmortyapi.com/api/episode/32"
            ],
            "url": "https://rickandmortyapi.com/api/character/499",
            "created": "2020-05-02T11:24:36.156Z"
        },
        {
            "id": 500,
            "name": "Fascist Mr. President",
            "status": "Alive",
            "species": "Human",
            "type": "",
            "gender": "Male",
            "origin": {
                "name": "Earth (Fascist Dimension)",
                "url": "https://rickandmortyapi.com/api/location/77"
            },
            "location": {
                "name": "Earth (Fascist Dimension)",
                "url": "https://rickandmortyapi.com/api/location/77"
            },
            "image": "https://rickandmortyapi.com/api/character/avatar/500.jpeg",
            "episode": [
                "https://rickandmortyapi.com/api/episode/32"
            ],
            "url": "https://rickandmortyapi.com/api/character/500",
            "created": "2020-05-02T11:25:26.903Z"
        }
    ]
}