{
    "info": {
        "count": 826,
        "pages": 42,
        "next": "https://rickandmortyapi.com/api/character?page=25",
        "prev": "https://rickandmortyapi.com/api/character?page=23"
    },
    "results": [
        {
            "id": 461,
            "name": "Communication's Responsible Rick",
            "status": "Dead",
            "species": "Human",
            "type": "",
            "gender": "Male",
            "origin": {
                "name": "unknown",
                "url": ""
            },
            "location": {
                "name": "Citadel of Ricks",
                "url": "https://rickandmortyapi.com/api/location/3"
            },
            "image": "https://rickandmortyapi.com/api/character/avatar/461.jpeg",
            "episode": [
                "https://rickandmortyapi.com/api/episode/22"
            ],
            "url": "https://rickandmortyapi.com/api/character/461",
            "created": "2018-05-22T16:06:28.494Z"
        },
        {
            "id": 462,
            "name": "Teleportation's Responsible Rick",
            "status": "unknown",
            "species": "Human",
            "type": "",
            "gender": "Male",
            "origin": {
                "name": "unknown",
                "url": ""
            },
            "location": {
                "name": "Citadel of Ricks",
                "url": "https://rickandmortyapi.com/api/location/3"
            },
            "image": "https://rickandmortyapi.com/api/character/avatar/462.jpeg",
            "episode": [
                "https://rickandmortyapi.com/api/episode/22"
            ],
            "url": "https://rickandmortyapi.com/api/character/462",
            "created": "2018-05-22T16:16:02.653Z"
        },
        {
            "id": 463,
            "name": "SEAL Team Rick",
            "status": "Dead",
            "species": "Human",
            "type": "",
            "gender": "Male",
            "origin": {
                "name": "unknown",
                "url": ""
            },
            "location": {
                "name": "Citadel of Ricks",
                "url": "https://rickandmortyapi.com/api/location/3"
            },
            "image": "https://rickandmortyapi.com/api/character/avatar/463.jpeg",
            "episode": [
                "https://rickandmortyapi.com/api/episode/22"
            ],
            "url": "https://rickandmortyapi.com/api/character/463",
            "created": "2018-05-22T16:21:44.379Z"
        },
        {
            "id": 464,
            "name": "SEAL Team Rick",
            "status": "Dead",
            "species": "Human",
            "type": "",
            "gender": "Male",
            "origin": {
                "name": "unknown",
                "url": ""
            },
            "location": {
                "name": "Citadel of Ricks",
                "url": "https://rickandmortyapi.com/api/location/3"
            },
            "image": "https://rickandmortyapi.com/api/character/avatar/464.jpeg",
            "episode": [
                "https://rickandmortyapi.com/api/episode/22"
            ],
            "url": "https://rickandmortyapi.com/api/character/464",
            "created": "2018-05-22T16:21:58.176Z"
        },
        {
            "id": 465,
            "name": "SEAL Team Rick",
            "status": "Dead",
            "species": "Human",
            "type": "",
            "gender": "Male",
            "origin": {
                "name": "unknown",
                "url": ""
            },
            "location": {
                "name": "Citadel of Ricks",
                "url": "https://rickandmortyapi.com/api/location/3"
            },
            "image": "https://rickandmortyapi.com/api/character/avatar/465.jpeg",
            "episode": [
                "https://rickandmortyapi.com/api/episode/22"
            ],
            "url": "https://rickandmortyapi.com/api/character/465",
            "created": "2018-05-22T16:22:12.309Z"
        },
        {
            "id": 466,
            "name": "SEAL Team Rick",
            "status": "Dead",
            "species": "Human",
            "type": "",
            "gender": "Male",
            "origin": {
                "name": "unknown",
                "url": ""
            },
            "location": {
                "name": "Citadel of Ricks",
                "url": "https://rickandmortyapi.com/api/location/3"
            },
            "image": "https://rickandmortyapi.com/api/character/avatar/466.jpeg",
            "episode": [
                "https://rickandmortyapi.com/api/episode/22"
            ],
            "url": "https://rickandmortyapi.com/api/character/466",
            "created": "2018-05-22T16:23:24.470Z"
        },
        {
            "id": 467,
            "name": "Morphizer-XE Customer Support",
            "status": "Alive",
            "species": "Alien",
            "type": "",
            "gender": "Male",
            "origin": {
                "name": "unknown",
                "url": ""
            },
            "location": {
                "name": "Earth (Replacement Dimension)",
                "url": "https://rickandmortyapi.com/api/location/20"
            },
            "image": "https://rickandmortyapi.com/api/character/avatar/467.jpeg",
            "episode": [
                "https://rickandmortyapi.com/api/episode/26"
            ],
            "url": "https://rickandmortyapi.com/api/character/467",
            "created": "2018-05-22T16:46:18.038Z"
        },
        {
            "id": 468,
            "name": "Morphizer-XE Customer Support",
            "status": "Alive",
            "species": "Alien",
            "type": "",
            "gender": "Male",
            "origin": {
                "name": "unknown",
                "url": ""
            },
            "location": {
                "name": "Earth (Replacement Dimension)",
                "url": "https://rickandmortyapi.com/api/location/20"
            },
            "image": "https://rickandmortyapi.com/api/character/avatar/468.jpeg",
            "episode": [
                "https://rickandmortyapi.com/api/episode/26"
            ],
            "url": "https://rickandmortyapi.com/api/character/468",
            "created": "2018-05-22T16:46:37.603Z"
        },
        {
            "id": 469,
            "name": "Morphizer-XE Customer Support",
            "status": "unknown",
            "species": "Alien",
            "type": "",
            "gender": "Male",
            "origin": {
                "name": "unknown",
                "url": ""
            },
            "location": {
                "name": "Earth (Replacement Dimension)",
                "url": "https://rickandmortyapi.com/api/location/20"
            },
            "image": "https://rickandmortyapi.com/api/character/avatar/469.jpeg",
            "episode": [
                "https://rickandmortyapi.com/api/episode/26"
            ],
            "url": "https://rickandmortyapi.com/api/character/469",
            "created": "2018-05-22T16:46:50.518Z"
        },
        {
            "id": 470,
            "name": "Alien Spa Employee",
            "status": "Alive",
            "species": "Alien",
            "type": "",
            "gender": "Male",
            "origin": {
                "name": "unknown",
                "url": ""
            },
            "location": {
                "name": "Alien Day Spa",
                "url": "https://rickandmortyapi.com/api/location/76"
            },
            "image": "https://rickandmortyapi.com/api/character/avatar/470.jpeg",
            "episode": [
                "https://rickandmortyapi.com/api/episode/27"
            ],
            "url": "https://rickandmortyapi.com/api/character/470",
            "created": "2018-05-22T17:01:59.602Z"
        },
        {
            "id": 471,
            "name": "Little Voltron",
            "status": "Alive",
            "species": "Robot",
            "type": "",
            "gender": "Genderless",
            "origin": {
                "name": "unknown",
                "url": ""
            },
            "location": {
                "name": "Earth (Replacement Dimension)",
                "url": "https://rickandmortyapi.com/api/location/20"
            },
            "image": "https://rickandmortyapi.com/api/character/avatar/471.jpeg",
            "episode": [
                "https://rickandmortyapi.com/api/episode/27"
            ],
            "url": "https://rickandmortyapi.com/api/character/471",
            "created": "2018-05-22T17:07:21.833Z"
        },
        {
            "id": 472,
            "name": "Baby Rick",
            "status": "Alive",
            "species": "Human",
            "type": "Clone",
            "gender": "Male",
            "origin": {
                "name": "Citadel of Ricks",
                "url": "https://rickandmortyapi.com/api/location/3"
            },
            "location": {
                "name": "Citadel of Ricks",
                "url": "https://rickandmortyapi.com/api/location/3"
            },
            "image": "https://rickandmortyapi.com/api/character/avatar/472.jpeg",
            "episode": [
                "https://rickandmortyapi.com/api/episode/28"
            ],
            "url": "https://rickandmortyapi.com/api/character/472",
            "created": "2018-05-22T17:11:53.084Z"
        },
        {
            "id": 473,
            "name": "Bartender Morty",
            "status": "Alive",
            "species": "Human",
            "type": "",
            "gender": "Male",
            "origin": {
                "name": "unknown",
                "url": ""
            },
            "location": {
                "name": "Citadel of Ricks",
                "url": "https://rickandmortyapi.com/api/location/3"
            },
            "image": "https://rickandmortyapi.com/api/character/avatar/473.jpeg",
            "episode": [
                "https://rickandmortyapi.com/api/episode/28"
            ],
            "url": "https://rickandmortyapi.com/api/character/473",
            "created": "2018-05-22T17:14:41.628Z"
        },
        {
            "id": 474,
            "name": "Dancer Cowboy Morty",
            "status": "Alive",
            "species": "Human",
            "type": "",
            "gender": "Male",
            "origin": {
                "name": "unknown",
                "url": ""
            },
            "location": {
                "name": "Citadel of Ricks",
                "url": "https://rickandmortyapi.com/api/location/3"
            },
            "image": "https://rickandmortyapi.com/api/character/avatar/474.jpeg",
            "episode": [
                "https://rickandmortyapi.com/api/episode/28"
            ],
            "url": "https://rickandmortyapi.com/api/character/474",
            "created": "2018-05-22T17:17:10.102Z"
        },
        {
            "id": 475,
            "name": "Dancer Morty",
            "status": "Alive",
            "species": "Human",
            "type": "",
            "gender": "Male",
            "origin": {
                "name": "unknown",
                "url": ""
            },
            "location": {
                "name": "Citadel of Ricks",
                "url": "https://rickandmortyapi.com/api/location/3"
            },
            "image": "https://rickandmortyapi.com/api/character/avatar/475.jpeg",
            "episode": [
                "https://rickandmortyapi.com/api/episode/28"
            ],
            "url": "https://rickandmortyapi.com/api/character/475",
            "created": "2018-05-22T17:17:49.270Z"
        },
        {
            "id": 476,
            "name": "Flower Morty",
            "status": "Alive",
            "species": "Human",
            "type": "Human with a flower in his head",
            "gender": "Male",
            "origin": {
                "name": "unknown",
                "url": ""
            },
            "location": {
                "name": "Citadel of Ricks",
                "url": "https://rickandmortyapi.com/api/location/3"
            },
            "image": "https://rickandmortyapi.com/api/character/avatar/476.jpeg",
            "episode": [
                "https://rickandmortyapi.com/api/episode/28"
            ],
            "url": "https://rickandmortyapi.com/api/character/476",
            "created": "2018-05-22T17:18:46.129Z"
        },
        {
            "id": 477,
            "name": "Hairdresser Rick",
            "status": "Alive",
            "species": "Human",
            "type": "",
            "gender": "Male",
            "origin": {
                "name": "unknown",
                "url": ""
            },
            "location": {
                "name": "Citadel of Ricks",
                "url": "https://rickandmortyapi.com/api/location/3"
            },
            "image": "https://rickandmortyapi.com/api/character/avatar/477.jpeg",
            "episode": [
                "https://rickandmortyapi.com/api/episode/28"
            ],
            "url": "https://rickandmortyapi.com/api/character/477",
            "created": "2018-05-22T17:19:36.127Z"
        },
        {
            "id": 478,
            "name": "Journalist Rick",
            "status": "Alive",
            "species": "Human",
            "type": "",
            "gender": "Male",
            "origin": {
                "name": "unknown",
                "url": ""
            },
            "location": {
                "name": "Citadel of Ricks",
                "url": "https://rickandmortyapi.com/api/location/3"
            },
            "image": "https://rickandmortyapi.com/api/character/avatar/478.jpeg",
            "episode": [
                "https://rickandmortyapi.com/api/episode/28"
            ],
            "url": "https://rickandmortyapi.com/api/character/478",
            "created": "2018-05-22T17:22:18.417Z"
        },
        {
            "id": 479,
            "name": "Private Sector Rick",
            "status": "Dead",
            "species": "Human",
            "type": "",
            "gender": "Male",
            "origin": {
                "name": "unknown",
                "url": ""
            },
            "location": {
                "name": "Citadel of Ricks",
                "url": "https://rickandmortyapi.com/api/location/3"
            },
            "image": "https://rickandmortyapi.com/api/character/avatar/479.jpeg",
            "episode": [
                "https://rickandmortyapi.com/api/episode/28"
            ],
            "url": "https://rickandmortyapi.com/api/character/479",
            "created": "2018-05-22T17:23:18.546Z"
        },
        {
            "id": 480,
            "name": "Purple Morty",
            "status": "Alive",
            "species": "Alien",
            "type": "",
            "gender": "Male",
            "origin": {
                "name": "unknown",
                "url": ""
            },
            "location": {
                "name": "Citadel of Ricks",
                "url": "https://rickandmortyapi.com/api/location/3"
            },
            "image": "https://rickandmortyapi.com/api/character/avatar/480.jpeg",
            "episode": [
                "https://rickandmortyapi.com/api/episode/28"
            ],
            "url": "https://rickandmortyapi.com/api/character/480",
            "created": "2018-05-22T17:24:38.571Z"
        }
    ]
}