{
    "info": {
        "count": 826,
        "pages": 42,
        "next": "https://rickandmortyapi.com/api/character?page=34",
        "prev": "https://rickandmortyapi.com/api/character?page=32"
    },
    "results": [
        {
            "id": 641,
            "name": "Bruce",
            "status": "Dead",
            "species": "Alien",
            "type": "Glorzo",
            "gender": "Male",
            "origin": {
                "name": "Glorzo Asteroid",
                "url": "https://rickandmortyapi.com/api/location/101"
            },
            "location": {
                "name": "Glorzo Asteroid",
                "url": "https://rickandmortyapi.com/api/location/101"
            },
            "image": "https://rickandmortyapi.com/api/character/avatar/641.jpeg",
            "episode": [
                "https://rickandmortyapi.com/api/episode/38"
            ],
            "url": "https://rickandmortyapi.com/api/character/641",
            "created": "2020-08-07T11:37:06.351Z"
        },
        {
            "id": 642,
            "name": "Council of Glorzos Member",
            "status": "Dead",
            "species": "Alien",
            "type": "Glorzo",
            "gender": "Male",
            "origin": {
                "name": "Glorzo Asteroid",
                "url": "https://rickandmortyapi.com/api/location/101"
            },
            "location": {
                "name": "Glorzo Asteroid",
                "url": "https://rickandmortyapi.com/api/location/101"
            },
            "image": "https://rickandmortyapi.com/api/character/avatar/642.jpeg",
            "episode": [
                "https://rickandmortyapi.com/api/episode/38"
            ],
            "url": "https://rickandmortyapi.com/api/character/642",
            "created": "2020-08-07T11:38:26.393Z"
        },
        {
            "id": 643,
            "name": "Council of Glorzos Member",
            "status": "Dead",
            "species": "Alien",
            "type": "Glorzo",
            "gender": "Male",
            "origin": {
                "name": "Glorzo Asteroid",
                "url": "https://rickandmortyapi.com/api/location/101"
            },
            "location": {
                "name": "Glorzo Asteroid",
                "url": "https://rickandmortyapi.com/api/location/101"
            },
            "image": "https://rickandmortyapi.com/api/character/avatar/643.jpeg",
            "episode": [
                "https://rickandmortyapi.com/api/episode/38"
            ],
            "url": "https://rickandmortyapi.com/api/character/643",
            "created": "2020-08-07T11:39:06.237Z"
        },
        {
            "id": 644,
            "name": "Old Glorzo",
            "status": "Dead",
            "species": "Alien",
            "type": "Glorzo",
            "gender": "Male",
            "origin": {
                "name": "Glorzo Asteroid",
                "url": "https://rickandmortyapi.com/api/location/101"
            },
            "location": {
                "name": "Glorzo Asteroid",
                "url": "https://rickandmortyapi.com/api/location/101"
            },
            "image": "https://rickandmortyapi.com/api/character/avatar/644.jpeg",
            "episode": [
                "https://rickandmortyapi.com/api/episode/38"
            ],
            "url": "https://rickandmortyapi.com/api/character/644",
            "created": "2020-08-07T11:40:03.124Z"
        },
        {
            "id": 645,
            "name": "Shane",
            "status": "unknown",
            "species": "Alien",
            "type": "Glorzo",
            "gender": "Male",
            "origin": {
                "name": "Glorzo Asteroid",
                "url": "https://rickandmortyapi.com/api/location/101"
            },
            "location": {
                "name": "Glorzo Asteroid",
                "url": "https://rickandmortyapi.com/api/location/101"
            },
            "image": "https://rickandmortyapi.com/api/character/avatar/645.jpeg",
            "episode": [
                "https://rickandmortyapi.com/api/episode/38"
            ],
            "url": "https://rickandmortyapi.com/api/character/645",
            "created": "2020-08-07T11:40:51.282Z"
        },
        {
            "id": 646,
            "name": "Steve",
            "status": "Dead",
            "species": "Alien",
            "type": "Glorzo",
            "gender": "Male",
            "origin": {
                "name": "Glorzo Asteroid",
                "url": "https://rickandmortyapi.com/api/location/101"
            },
            "location": {
                "name": "Glorzo Asteroid",
                "url": "https://rickandmortyapi.com/api/location/101"
            },
            "image": "https://rickandmortyapi.com/api/character/avatar/646.jpeg",
            "episode": [
                "https://rickandmortyapi.com/api/episode/38"
            ],
            "url": "https://rickandmortyapi.com/api/character/646",
            "created": "2020-08-07T11:41:34.032Z"
        },
        {
            "id": 647,
            "name": "Troy",
            "status": "Dead",
            "species": "Alien",
            "type": "Glorzo",
            "gender": "Male",
            "origin": {
                "name": "Glorzo Asteroid",
                "url": "https://rickandmortyapi.com/api/location/101"
            },
            "location": {
                "name": "Glorzo Asteroid",
                "url": "https://rickandmortyapi.com/api/location/101"
            },
            "image": "https://rickandmortyapi.com/api/character/avatar/647.jpeg",
            "episode": [
                "https://rickandmortyapi.com/api/episode/38"
            ],
            "url": "https://rickandmortyapi.com/api/character/647",
            "created": "2020-08-07T11:42:14.362Z"
        },
        {
            "id": 648,
            "name": "Crystal Dealers Boss",
            "status": "Dead",
            "species": "Alien",
            "type": "",
            "gender": "Male",
            "origin": {
                "name": "unknown",
                "url": ""
            },
            "location": {
                "name": "Alien Acid Plant",
                "url": "https://rickandmortyapi.com/api/location/102"
            },
            "image": "https://rickandmortyapi.com/api/character/avatar/648.jpeg",
            "episode": [
                "https://rickandmortyapi.com/api/episode/39"
            ],
            "url": "https://rickandmortyapi.com/api/character/648",
            "created": "2020-08-13T10:09:21.278Z"
        },
        {
            "id": 649,
            "name": "Crystal Dealer",
            "status": "Dead",
            "species": "Alien",
            "type": "",
            "gender": "Male",
            "origin": {
                "name": "unknown",
                "url": ""
            },
            "location": {
                "name": "Alien Acid Plant",
                "url": "https://rickandmortyapi.com/api/location/102"
            },
            "image": "https://rickandmortyapi.com/api/character/avatar/649.jpeg",
            "episode": [
                "https://rickandmortyapi.com/api/episode/39"
            ],
            "url": "https://rickandmortyapi.com/api/character/649",
            "created": "2020-08-13T10:10:01.602Z"
        },
        {
            "id": 650,
            "name": "Crystal Dealer",
            "status": "Dead",
            "species": "Alien",
            "type": "",
            "gender": "Male",
            "origin": {
                "name": "unknown",
                "url": ""
            },
            "location": {
                "name": "Alien Acid Plant",
                "url": "https://rickandmortyapi.com/api/location/102"
            },
            "image": "https://rickandmortyapi.com/api/character/avatar/650.jpeg",
            "episode": [
                "https://rickandmortyapi.com/api/episode/39"
            ],
            "url": "https://rickandmortyapi.com/api/character/650",
            "created": "2020-08-13T10:10:33.026Z"
        },
        {
            "id": 651,
            "name": "Crystal Dealer",
            "status": "Dead",
            "species": "Alien",
            "type": "",
            "gender": "Male",
            "origin": {
                "name": "unknown",
                "url": ""
            },
            "location": {
                "name": "Alien Acid Plant",
                "url": "https://rickandmortyapi.com/api/location/102"
            },
            "image": "https://rickandmortyapi.com/api/character/avatar/651.jpeg",
            "episode": [
                "https://rickandmortyapi.com/api/episode/39"
            ],
            "url": "https://rickandmortyapi.com/api/character/651",
            "created": "2020-08-13T10:11:00.473Z"
        },
        {
            "id": 652,
            "name": "SWAT Officer",
            "status": "Dead",
            "species": "Human",
            "type": "",
            "gender": "Male",
            "origin": {
                "name": "Merged Universe",
                "url": "https://rickandmortyapi.com/api/location/103"
            },
            "location": {
                "name": "Merged Universe",
                "url": "https://rickandmortyapi.com/api/location/103"
            },
            "image": "https://rickandmortyapi.com/api/character/avatar/652.jpeg",
            "episode": [
                "https://rickandmortyapi.com/api/episode/39"
            ],
            "url": "https://rickandmortyapi.com/api/character/652",
            "created": "2020-08-13T10:16:47.618Z"
        },
        {
            "id": 653,
            "name": "Plane Crash Survivor",
            "status": "unknown",
            "species": "Human",
            "type": "",
            "gender": "Female",
            "origin": {
                "name": "Near-Duplicate Reality",
                "url": "https://rickandmortyapi.com/api/location/104"
            },
            "location": {
                "name": "Near-Duplicate Reality",
                "url": "https://rickandmortyapi.com/api/location/104"
            },
            "image": "https://rickandmortyapi.com/api/character/avatar/653.jpeg",
            "episode": [
                "https://rickandmortyapi.com/api/episode/39"
            ],
            "url": "https://rickandmortyapi.com/api/character/653",
            "created": "2020-08-13T11:16:21.997Z"
        },
        {
            "id": 654,
            "name": "Plane Crash Survivor",
            "status": "unknown",
            "species": "Human",
            "type": "",
            "gender": "Male",
            "origin": {
                "name": "Near-Duplicate Reality",
                "url": "https://rickandmortyapi.com/api/location/104"
            },
            "location": {
                "name": "Near-Duplicate Reality",
                "url": "https://rickandmortyapi.com/api/location/104"
            },
            "image": "https://rickandmortyapi.com/api/character/avatar/654.jpeg",
            "episode": [
                "https://rickandmortyapi.com/api/episode/39"
            ],
            "url": "https://rickandmortyapi.com/api/character/654",
            "created": "2020-08-13T11:17:08.527Z"
        },
        {
            "id": 655,
            "name": "Heroine Keith",
            "status": "Alive",
            "species": "Human",
            "type": "",
            "gender": "Male",
            "origin": {
                "name": "Near-Duplicate Reality",
                "url": "https://rickandmortyapi.com/api/location/104"
            },
            "location": {
                "name": "Merged Universe",
                "url": "https://rickandmortyapi.com/api/location/103"
            },
            "image": "https://rickandmortyapi.com/api/character/avatar/655.jpeg",
            "episode": [
                "https://rickandmortyapi.com/api/episode/39"
            ],
            "url": "https://rickandmortyapi.com/api/character/655",
            "created": "2020-08-13T11:17:47.228Z"
        },
        {
            "id": 656,
            "name": "Impervious to Acid SWAT Officer",
            "status": "Dead",
            "species": "Human",
            "type": "",
            "gender": "Male",
            "origin": {
                "name": "Merged Universe",
                "url": "https://rickandmortyapi.com/api/location/103"
            },
            "location": {
                "name": "Merged Universe",
                "url": "https://rickandmortyapi.com/api/location/103"
            },
            "image": "https://rickandmortyapi.com/api/character/avatar/656.jpeg",
            "episode": [
                "https://rickandmortyapi.com/api/episode/39"
            ],
            "url": "https://rickandmortyapi.com/api/character/656",
            "created": "2020-08-13T11:20:20.047Z"
        },
        {
            "id": 657,
            "name": "Johnny Carson",
            "status": "Alive",
            "species": "Human",
            "type": "",
            "gender": "Male",
            "origin": {
                "name": "Merged Universe",
                "url": "https://rickandmortyapi.com/api/location/103"
            },
            "location": {
                "name": "Merged Universe",
                "url": "https://rickandmortyapi.com/api/location/103"
            },
            "image": "https://rickandmortyapi.com/api/character/avatar/657.jpeg",
            "episode": [
                "https://rickandmortyapi.com/api/episode/39"
            ],
            "url": "https://rickandmortyapi.com/api/character/657",
            "created": "2020-08-13T11:21:32.236Z"
        },
        {
            "id": 658,
            "name": "Sonia Sotomayor",
            "status": "Alive",
            "species": "Human",
            "type": "",
            "gender": "Female",
            "origin": {
                "name": "Merged Universe",
                "url": "https://rickandmortyapi.com/api/location/103"
            },
            "location": {
                "name": "Merged Universe",
                "url": "https://rickandmortyapi.com/api/location/103"
            },
            "image": "https://rickandmortyapi.com/api/character/avatar/658.jpeg",
            "episode": [
                "https://rickandmortyapi.com/api/episode/39"
            ],
            "url": "https://rickandmortyapi.com/api/character/658",
            "created": "2020-08-13T11:23:00.414Z"
        },
        {
            "id": 659,
            "name": "Morty’s Father-in-law",
            "status": "Alive",
            "species": "Human",
            "type": "",
            "gender": "Male",
            "origin": {
                "name": "Near-Duplicate Reality",
                "url": "https://rickandmortyapi.com/api/location/104"
            },
            "location": {
                "name": "Near-Duplicate Reality",
                "url": "https://rickandmortyapi.com/api/location/104"
            },
            "image": "https://rickandmortyapi.com/api/character/avatar/659.jpeg",
            "episode": [
                "https://rickandmortyapi.com/api/episode/39"
            ],
            "url": "https://rickandmortyapi.com/api/character/659",
            "created": "2020-08-13T11:23:55.003Z"
        },
        {
            "id": 660,
            "name": "Morty’s Mother-in-law",
            "status": "Alive",
            "species": "Human",
            "type": "",
            "gender": "Female",
            "origin": {
                "name": "Near-Duplicate Reality",
                "url": "https://rickandmortyapi.com/api/location/104"
            },
            "location": {
                "name": "Near-Duplicate Reality",
                "url": "https://rickandmortyapi.com/api/location/104"
            },
            "image": "https://rickandmortyapi.com/api/character/avatar/660.jpeg",
            "episode": [
                "https://rickandmortyapi.com/api/episode/39"
            ],
            "url": "https://rickandmortyapi.com/api/character/660",
            "created": "2020-08-13T11:25:50.784Z"
        }
    ]
}