{
    "info": {
        "count": 826,
        "pages": 42,
        "next": "https://rickandmortyapi.com/api/character?page=12",
        "prev": "https://rickandmortyapi.com/api/character?page=10"
    },
    "results": [
        {
            "id": 201,
            "name": "Leonard Smith",
            "status": "Alive",
            "species": "Human",
            "type": "",
            "gender": "Male",
            "origin": {
                "name": "Earth (C-137)",
                "url": "https://rickandmortyapi.com/api/location/1"
            },
            "location": {
                "name": "Earth (C-137)",
                "url": "https://rickandmortyapi.com/api/location/1"
            },
            "image": "https://rickandmortyapi.com/api/character/avatar/201.jpeg",
            "episode": [
                "https://rickandmortyapi.com/api/episode/3"
            ],
            "url": "https://rickandmortyapi.com/api/character/201",
            "created": "2017-12-30T12:51:27.835Z"
        },
        {
            "id": 202,
            "name": "Lighthouse Keeper",
            "status": "Dead",
            "species": "Alien",
            "type": "Cat-Person",
            "gender": "Male",
            "origin": {
                "name": "Purge Planet",
                "url": "https://rickandmortyapi.com/api/location/9"
            },
            "location": {
                "name": "Purge Planet",
                "url": "https://rickandmortyapi.com/api/location/9"
            },
            "image": "https://rickandmortyapi.com/api/character/avatar/202.jpeg",
            "episode": [
                "https://rickandmortyapi.com/api/episode/20"
            ],
            "url": "https://rickandmortyapi.com/api/character/202",
            "created": "2017-12-30T12:53:11.937Z"
        },
        {
            "id": 203,
            "name": "Lil B",
            "status": "Dead",
            "species": "Alien",
            "type": "Snail alien",
            "gender": "Male",
            "origin": {
                "name": "unknown",
                "url": ""
            },
            "location": {
                "name": "Earth (Replacement Dimension)",
                "url": "https://rickandmortyapi.com/api/location/20"
            },
            "image": "https://rickandmortyapi.com/api/character/avatar/203.jpeg",
            "episode": [
                "https://rickandmortyapi.com/api/episode/21",
                "https://rickandmortyapi.com/api/episode/48"
            ],
            "url": "https://rickandmortyapi.com/api/character/203",
            "created": "2017-12-30T12:54:31.725Z"
        },
        {
            "id": 204,
            "name": "Lisa",
            "status": "Dead",
            "species": "Alien",
            "type": "",
            "gender": "Female",
            "origin": {
                "name": "unknown",
                "url": ""
            },
            "location": {
                "name": "Immortality Field Resort",
                "url": "https://rickandmortyapi.com/api/location/7"
            },
            "image": "https://rickandmortyapi.com/api/character/avatar/204.jpeg",
            "episode": [
                "https://rickandmortyapi.com/api/episode/26"
            ],
            "url": "https://rickandmortyapi.com/api/character/204",
            "created": "2017-12-30T12:59:58.460Z"
        },
        {
            "id": 205,
            "name": "Little Dipper",
            "status": "Alive",
            "species": "Humanoid",
            "type": "Tinymouth",
            "gender": "Male",
            "origin": {
                "name": "unknown",
                "url": ""
            },
            "location": {
                "name": "Interdimensional Cable",
                "url": "https://rickandmortyapi.com/api/location/6"
            },
            "image": "https://rickandmortyapi.com/api/character/avatar/205.jpeg",
            "episode": [
                "https://rickandmortyapi.com/api/episode/19"
            ],
            "url": "https://rickandmortyapi.com/api/character/205",
            "created": "2017-12-30T13:03:12.366Z"
        },
        {
            "id": 206,
            "name": "Lizard Morty",
            "status": "Alive",
            "species": "Humanoid",
            "type": "Lizard-Person",
            "gender": "Male",
            "origin": {
                "name": "unknown",
                "url": ""
            },
            "location": {
                "name": "Citadel of Ricks",
                "url": "https://rickandmortyapi.com/api/location/3"
            },
            "image": "https://rickandmortyapi.com/api/character/avatar/206.jpeg",
            "episode": [
                "https://rickandmortyapi.com/api/episode/28"
            ],
            "url": "https://rickandmortyapi.com/api/character/206",
            "created": "2017-12-30T13:06:09.094Z"
        },
        {
            "id": 207,
            "name": "Loggins",
            "status": "Alive",
            "species": "Alien",
            "type": "Alligator-Person",
            "gender": "Male",
            "origin": {
                "name": "unknown",
                "url": ""
            },
            "location": {
                "name": "Interdimensional Cable",
                "url": "https://rickandmortyapi.com/api/location/6"
            },
            "image": "https://rickandmortyapi.com/api/character/avatar/207.jpeg",
            "episode": [
                "https://rickandmortyapi.com/api/episode/8",
                "https://rickandmortyapi.com/api/episode/13",
                "https://rickandmortyapi.com/api/episode/17"
            ],
            "url": "https://rickandmortyapi.com/api/character/207",
            "created": "2017-12-30T13:54:28.627Z"
        },
        {
            "id": 208,
            "name": "Logic",
            "status": "Alive",
            "species": "Human",
            "type": "",
            "gender": "Male",
            "origin": {
                "name": "unknown",
                "url": ""
            },
            "location": {
                "name": "Worldender's lair",
                "url": "https://rickandmortyapi.com/api/location/4"
            },
            "image": "https://rickandmortyapi.com/api/character/avatar/208.jpeg",
            "episode": [
                "https://rickandmortyapi.com/api/episode/25"
            ],
            "url": "https://rickandmortyapi.com/api/character/208",
            "created": "2017-12-30T13:58:41.417Z"
        },
        {
            "id": 209,
            "name": "Long Sleeved Morty",
            "status": "unknown",
            "species": "Human",
            "type": "",
            "gender": "Male",
            "origin": {
                "name": "unknown",
                "url": ""
            },
            "location": {
                "name": "Citadel of Ricks",
                "url": "https://rickandmortyapi.com/api/location/3"
            },
            "image": "https://rickandmortyapi.com/api/character/avatar/209.jpeg",
            "episode": [
                "https://rickandmortyapi.com/api/episode/10"
            ],
            "url": "https://rickandmortyapi.com/api/character/209",
            "created": "2017-12-30T14:00:06.755Z"
        },
        {
            "id": 210,
            "name": "Lucy",
            "status": "Dead",
            "species": "Human",
            "type": "",
            "gender": "Female",
            "origin": {
                "name": "Earth (Replacement Dimension)",
                "url": "https://rickandmortyapi.com/api/location/20"
            },
            "location": {
                "name": "Earth (Replacement Dimension)",
                "url": "https://rickandmortyapi.com/api/location/20"
            },
            "image": "https://rickandmortyapi.com/api/character/avatar/210.jpeg",
            "episode": [
                "https://rickandmortyapi.com/api/episode/11"
            ],
            "url": "https://rickandmortyapi.com/api/character/210",
            "created": "2017-12-30T14:01:23.319Z"
        },
        {
            "id": 211,
            "name": "Ma-Sha",
            "status": "Alive",
            "species": "Alien",
            "type": "Gazorpian",
            "gender": "Female",
            "origin": {
                "name": "Gazorpazorp",
                "url": "https://rickandmortyapi.com/api/location/40"
            },
            "location": {
                "name": "Gazorpazorp",
                "url": "https://rickandmortyapi.com/api/location/40"
            },
            "image": "https://rickandmortyapi.com/api/character/avatar/211.jpeg",
            "episode": [
                "https://rickandmortyapi.com/api/episode/7"
            ],
            "url": "https://rickandmortyapi.com/api/character/211",
            "created": "2017-12-30T14:16:00.484Z"
        },
        {
            "id": 212,
            "name": "Magma-Q",
            "status": "Dead",
            "species": "Alien",
            "type": "Alphabetrian",
            "gender": "Male",
            "origin": {
                "name": "Alphabetrium",
                "url": "https://rickandmortyapi.com/api/location/43"
            },
            "location": {
                "name": "Alphabetrium",
                "url": "https://rickandmortyapi.com/api/location/43"
            },
            "image": "https://rickandmortyapi.com/api/character/avatar/212.jpeg",
            "episode": [
                "https://rickandmortyapi.com/api/episode/16"
            ],
            "url": "https://rickandmortyapi.com/api/character/212",
            "created": "2017-12-30T14:19:10.419Z"
        },
        {
            "id": 213,
            "name": "Magnesium-J",
            "status": "Alive",
            "species": "Alien",
            "type": "Alphabetrian",
            "gender": "Male",
            "origin": {
                "name": "Alphabetrium",
                "url": "https://rickandmortyapi.com/api/location/43"
            },
            "location": {
                "name": "Alphabetrium",
                "url": "https://rickandmortyapi.com/api/location/43"
            },
            "image": "https://rickandmortyapi.com/api/character/avatar/213.jpeg",
            "episode": [
                "https://rickandmortyapi.com/api/episode/16"
            ],
            "url": "https://rickandmortyapi.com/api/character/213",
            "created": "2017-12-30T14:21:16.121Z"
        },
        {
            "id": 214,
            "name": "Man Painted Silver Who Makes Robot Noises",
            "status": "Alive",
            "species": "Human",
            "type": "",
            "gender": "Male",
            "origin": {
                "name": "unknown",
                "url": ""
            },
            "location": {
                "name": "Interdimensional Cable",
                "url": "https://rickandmortyapi.com/api/location/6"
            },
            "image": "https://rickandmortyapi.com/api/character/avatar/214.jpeg",
            "episode": [
                "https://rickandmortyapi.com/api/episode/8"
            ],
            "url": "https://rickandmortyapi.com/api/character/214",
            "created": "2017-12-30T14:24:57.993Z"
        },
        {
            "id": 215,
            "name": "Maximums Rickimus",
            "status": "Dead",
            "species": "Human",
            "type": "",
            "gender": "Male",
            "origin": {
                "name": "unknown",
                "url": ""
            },
            "location": {
                "name": "Rick's Memories",
                "url": "https://rickandmortyapi.com/api/location/126"
            },
            "image": "https://rickandmortyapi.com/api/character/avatar/215.jpeg",
            "episode": [
                "https://rickandmortyapi.com/api/episode/10",
                "https://rickandmortyapi.com/api/episode/22",
                "https://rickandmortyapi.com/api/episode/51"
            ],
            "url": "https://rickandmortyapi.com/api/character/215",
            "created": "2017-12-30T14:27:55.489Z"
        },
        {
            "id": 216,
            "name": "MC Haps",
            "status": "Alive",
            "species": "Human",
            "type": "",
            "gender": "Male",
            "origin": {
                "name": "Earth (C-137)",
                "url": "https://rickandmortyapi.com/api/location/1"
            },
            "location": {
                "name": "Earth (C-137)",
                "url": "https://rickandmortyapi.com/api/location/1"
            },
            "image": "https://rickandmortyapi.com/api/character/avatar/216.jpeg",
            "episode": [
                "https://rickandmortyapi.com/api/episode/6",
                "https://rickandmortyapi.com/api/episode/11",
                "https://rickandmortyapi.com/api/episode/25"
            ],
            "url": "https://rickandmortyapi.com/api/character/216",
            "created": "2017-12-30T14:30:06.479Z"
        },
        {
            "id": 217,
            "name": "Mechanical Morty",
            "status": "Dead",
            "species": "Robot",
            "type": "",
            "gender": "Male",
            "origin": {
                "name": "Earth (Replacement Dimension)",
                "url": "https://rickandmortyapi.com/api/location/20"
            },
            "location": {
                "name": "Earth (Replacement Dimension)",
                "url": "https://rickandmortyapi.com/api/location/20"
            },
            "image": "https://rickandmortyapi.com/api/character/avatar/217.jpeg",
            "episode": [
                "https://rickandmortyapi.com/api/episode/23"
            ],
            "url": "https://rickandmortyapi.com/api/character/217",
            "created": "2017-12-30T14:32:17.158Z"
        },
        {
            "id": 218,
            "name": "Mechanical Rick",
            "status": "unknown",
            "species": "Robot",
            "type": "",
            "gender": "Male",
            "origin": {
                "name": "Earth (Replacement Dimension)",
                "url": "https://rickandmortyapi.com/api/location/20"
            },
            "location": {
                "name": "Earth (Replacement Dimension)",
                "url": "https://rickandmortyapi.com/api/location/20"
            },
            "image": "https://rickandmortyapi.com/api/character/avatar/218.jpeg",
            "episode": [
                "https://rickandmortyapi.com/api/episode/23"
            ],
            "url": "https://rickandmortyapi.com/api/character/218",
            "created": "2017-12-30T14:33:16.920Z"
        },
        {
            "id": 219,
            "name": "Mechanical Summer",
            "status": "unknown",
            "species": "Robot",
            "type": "",
            "gender": "Female",
            "origin": {
                "name": "Earth (Replacement Dimension)",
                "url": "https://rickandmortyapi.com/api/location/20"
            },
            "location": {
                "name": "Earth (Replacement Dimension)",
                "url": "https://rickandmortyapi.com/api/location/20"
            },
            "image": "https://rickandmortyapi.com/api/character/avatar/219.jpeg",
            "episode": [
                "https://rickandmortyapi.com/api/episode/23"
            ],
            "url": "https://rickandmortyapi.com/api/character/219",
            "created": "2017-12-30T14:33:49.392Z"
        },
        {
            "id": 220,
            "name": "Mega Fruit Farmer Rick",
            "status": "Alive",
            "species": "Human",
            "type": "",
            "gender": "Male",
            "origin": {
                "name": "unknown",
                "url": ""
            },
            "location": {
                "name": "Citadel of Ricks",
                "url": "https://rickandmortyapi.com/api/location/3"
            },
            "image": "https://rickandmortyapi.com/api/character/avatar/220.jpeg",
            "episode": [
                "https://rickandmortyapi.com/api/episode/28"
            ],
            "url": "https://rickandmortyapi.com/api/character/220",
            "created": "2017-12-30T14:35:30.736Z"
        }
    ]
}