{
    "info": {
        "count": 826,
        "pages": 42,
        "next": "https://rickandmortyapi.com/api/character?page=15",
        "prev": "https://rickandmortyapi.com/api/character?page=13"
    },
    "results": [
        {
            "id": 261,
            "name": "Photography Cyborg",
            "status": "unknown",
            "species": "Robot",
            "type": "",
            "gender": "Male",
            "origin": {
                "name": "unknown",
                "url": ""
            },
            "location": {
                "name": "Planet Squanch",
                "url": "https://rickandmortyapi.com/api/location/35"
            },
            "image": "https://rickandmortyapi.com/api/character/avatar/261.jpeg",
            "episode": [
                "https://rickandmortyapi.com/api/episode/21"
            ],
            "url": "https://rickandmortyapi.com/api/character/261",
            "created": "2017-12-31T13:38:53.640Z"
        },
        {
            "id": 262,
            "name": "Photography Raptor",
            "status": "Dead",
            "species": "Alien",
            "type": "Parasite",
            "gender": "unknown",
            "origin": {
                "name": "unknown",
                "url": ""
            },
            "location": {
                "name": "Earth (Replacement Dimension)",
                "url": "https://rickandmortyapi.com/api/location/20"
            },
            "image": "https://rickandmortyapi.com/api/character/avatar/262.jpeg",
            "episode": [
                "https://rickandmortyapi.com/api/episode/15"
            ],
            "url": "https://rickandmortyapi.com/api/character/262",
            "created": "2017-12-31T13:40:32.312Z"
        },
        {
            "id": 263,
            "name": "Pibbles Bodyguard",
            "status": "Alive",
            "species": "Alien",
            "type": "Hairy alien",
            "gender": "Male",
            "origin": {
                "name": "unknown",
                "url": ""
            },
            "location": {
                "name": "St. Gloopy Noops Hospital",
                "url": "https://rickandmortyapi.com/api/location/16"
            },
            "image": "https://rickandmortyapi.com/api/character/avatar/263.jpeg",
            "episode": [
                "https://rickandmortyapi.com/api/episode/19"
            ],
            "url": "https://rickandmortyapi.com/api/character/263",
            "created": "2017-12-31T13:43:30.513Z"
        },
        {
            "id": 264,
            "name": "Pichael Thompson",
            "status": "Alive",
            "species": "Humanoid",
            "type": "Conjoined twin",
            "gender": "Male",
            "origin": {
                "name": "unknown",
                "url": ""
            },
            "location": {
                "name": "Interdimensional Cable",
                "url": "https://rickandmortyapi.com/api/location/6"
            },
            "image": "https://rickandmortyapi.com/api/character/avatar/264.jpeg",
            "episode": [
                "https://rickandmortyapi.com/api/episode/19"
            ],
            "url": "https://rickandmortyapi.com/api/character/264",
            "created": "2017-12-31T13:44:43.176Z"
        },
        {
            "id": 265,
            "name": "Pickle Rick",
            "status": "Alive",
            "species": "unknown",
            "type": "Pickle",
            "gender": "Male",
            "origin": {
                "name": "Earth (C-137)",
                "url": "https://rickandmortyapi.com/api/location/1"
            },
            "location": {
                "name": "Earth (Replacement Dimension)",
                "url": "https://rickandmortyapi.com/api/location/20"
            },
            "image": "https://rickandmortyapi.com/api/character/avatar/265.jpeg",
            "episode": [
                "https://rickandmortyapi.com/api/episode/24"
            ],
            "url": "https://rickandmortyapi.com/api/character/265",
            "created": "2017-12-31T13:47:10.617Z"
        },
        {
            "id": 266,
            "name": "Piece of Toast",
            "status": "Alive",
            "species": "unknown",
            "type": "Bread",
            "gender": "Genderless",
            "origin": {
                "name": "unknown",
                "url": ""
            },
            "location": {
                "name": "Interdimensional Cable",
                "url": "https://rickandmortyapi.com/api/location/6"
            },
            "image": "https://rickandmortyapi.com/api/character/avatar/266.jpeg",
            "episode": [
                "https://rickandmortyapi.com/api/episode/8",
                "https://rickandmortyapi.com/api/episode/17"
            ],
            "url": "https://rickandmortyapi.com/api/character/266",
            "created": "2017-12-31T13:48:58.850Z"
        },
        {
            "id": 267,
            "name": "Plumber Rick",
            "status": "Alive",
            "species": "Human",
            "type": "",
            "gender": "Male",
            "origin": {
                "name": "unknown",
                "url": ""
            },
            "location": {
                "name": "Citadel of Ricks",
                "url": "https://rickandmortyapi.com/api/location/3"
            },
            "image": "https://rickandmortyapi.com/api/character/avatar/267.jpeg",
            "episode": [
                "https://rickandmortyapi.com/api/episode/28"
            ],
            "url": "https://rickandmortyapi.com/api/character/267",
            "created": "2017-12-31T13:50:57.337Z"
        },
        {
            "id": 268,
            "name": "Poncho",
            "status": "Dead",
            "species": "Human",
            "type": "",
            "gender": "Male",
            "origin": {
                "name": "unknown",
                "url": ""
            },
            "location": {
                "name": "Anatomy Park",
                "url": "https://rickandmortyapi.com/api/location/5"
            },
            "image": "https://rickandmortyapi.com/api/character/avatar/268.jpeg",
            "episode": [
                "https://rickandmortyapi.com/api/episode/3"
            ],
            "url": "https://rickandmortyapi.com/api/character/268",
            "created": "2017-12-31T13:53:25.411Z"
        },
        {
            "id": 269,
            "name": "Presidentress of The Mega Gargantuans",
            "status": "Alive",
            "species": "Humanoid",
            "type": "Mega Gargantuan",
            "gender": "Female",
            "origin": {
                "name": "Mega Gargantuan Kingdom",
                "url": "https://rickandmortyapi.com/api/location/56"
            },
            "location": {
                "name": "Mega Gargantuan Kingdom",
                "url": "https://rickandmortyapi.com/api/location/56"
            },
            "image": "https://rickandmortyapi.com/api/character/avatar/269.jpeg",
            "episode": [
                "https://rickandmortyapi.com/api/episode/31"
            ],
            "url": "https://rickandmortyapi.com/api/character/269",
            "created": "2017-12-31T14:01:44.995Z"
        },
        {
            "id": 270,
            "name": "Prince Nebulon",
            "status": "Dead",
            "species": "Alien",
            "type": "Zigerion",
            "gender": "Male",
            "origin": {
                "name": "unknown",
                "url": ""
            },
            "location": {
                "name": "Zigerion's Base",
                "url": "https://rickandmortyapi.com/api/location/46"
            },
            "image": "https://rickandmortyapi.com/api/character/avatar/270.jpeg",
            "episode": [
                "https://rickandmortyapi.com/api/episode/4"
            ],
            "url": "https://rickandmortyapi.com/api/character/270",
            "created": "2017-12-31T14:05:24.406Z"
        },
        {
            "id": 271,
            "name": "Principal Vagina",
            "status": "Alive",
            "species": "Cronenberg",
            "type": "",
            "gender": "Male",
            "origin": {
                "name": "Earth (C-137)",
                "url": "https://rickandmortyapi.com/api/location/1"
            },
            "location": {
                "name": "Earth (C-137)",
                "url": "https://rickandmortyapi.com/api/location/1"
            },
            "image": "https://rickandmortyapi.com/api/character/avatar/271.jpeg",
            "episode": [
                "https://rickandmortyapi.com/api/episode/1",
                "https://rickandmortyapi.com/api/episode/5",
                "https://rickandmortyapi.com/api/episode/6"
            ],
            "url": "https://rickandmortyapi.com/api/character/271",
            "created": "2017-12-31T14:08:43.602Z"
        },
        {
            "id": 272,
            "name": "Principal Vagina",
            "status": "Alive",
            "species": "Human",
            "type": "",
            "gender": "Male",
            "origin": {
                "name": "Earth (Replacement Dimension)",
                "url": "https://rickandmortyapi.com/api/location/20"
            },
            "location": {
                "name": "Earth (Replacement Dimension)",
                "url": "https://rickandmortyapi.com/api/location/20"
            },
            "image": "https://rickandmortyapi.com/api/character/avatar/272.jpeg",
            "episode": [
                "https://rickandmortyapi.com/api/episode/9",
                "https://rickandmortyapi.com/api/episode/16",
                "https://rickandmortyapi.com/api/episode/18",
                "https://rickandmortyapi.com/api/episode/24",
                "https://rickandmortyapi.com/api/episode/27",
                "https://rickandmortyapi.com/api/episode/29"
            ],
            "url": "https://rickandmortyapi.com/api/character/272",
            "created": "2017-12-31T14:09:09.071Z"
        },
        {
            "id": 273,
            "name": "Purge Planet Ruler",
            "status": "Dead",
            "species": "Alien",
            "type": "Cat-Person",
            "gender": "Male",
            "origin": {
                "name": "Purge Planet",
                "url": "https://rickandmortyapi.com/api/location/9"
            },
            "location": {
                "name": "Purge Planet",
                "url": "https://rickandmortyapi.com/api/location/9"
            },
            "image": "https://rickandmortyapi.com/api/character/avatar/273.jpeg",
            "episode": [
                "https://rickandmortyapi.com/api/episode/20"
            ],
            "url": "https://rickandmortyapi.com/api/character/273",
            "created": "2017-12-31T14:13:54.909Z"
        },
        {
            "id": 274,
            "name": "Quantum Rick",
            "status": "unknown",
            "species": "Human",
            "type": "",
            "gender": "Male",
            "origin": {
                "name": "unknown",
                "url": ""
            },
            "location": {
                "name": "Rick's Memories",
                "url": "https://rickandmortyapi.com/api/location/126"
            },
            "image": "https://rickandmortyapi.com/api/character/avatar/274.jpeg",
            "episode": [
                "https://rickandmortyapi.com/api/episode/10",
                "https://rickandmortyapi.com/api/episode/22",
                "https://rickandmortyapi.com/api/episode/51"
            ],
            "url": "https://rickandmortyapi.com/api/character/274",
            "created": "2017-12-31T14:15:28.051Z"
        },
        {
            "id": 275,
            "name": "Randy Dicknose",
            "status": "Alive",
            "species": "Human",
            "type": "",
            "gender": "Male",
            "origin": {
                "name": "unknown",
                "url": ""
            },
            "location": {
                "name": "Interdimensional Cable",
                "url": "https://rickandmortyapi.com/api/location/6"
            },
            "image": "https://rickandmortyapi.com/api/character/avatar/275.jpeg",
            "episode": [
                "https://rickandmortyapi.com/api/episode/19"
            ],
            "url": "https://rickandmortyapi.com/api/character/275",
            "created": "2017-12-31T14:16:45.776Z"
        },
        {
            "id": 276,
            "name": "Rat Boss",
            "status": "Dead",
            "species": "Animal",
            "type": "Rat",
            "gender": "unknown",
            "origin": {
                "name": "Earth (Replacement Dimension)",
                "url": "https://rickandmortyapi.com/api/location/20"
            },
            "location": {
                "name": "Earth (Replacement Dimension)",
                "url": "https://rickandmortyapi.com/api/location/20"
            },
            "image": "https://rickandmortyapi.com/api/character/avatar/276.jpeg",
            "episode": [
                "https://rickandmortyapi.com/api/episode/24"
            ],
            "url": "https://rickandmortyapi.com/api/character/276",
            "created": "2017-12-31T14:17:21.782Z"
        },
        {
            "id": 277,
            "name": "Real Fake Doors Salesman",
            "status": "Alive",
            "species": "Human",
            "type": "",
            "gender": "Male",
            "origin": {
                "name": "unknown",
                "url": ""
            },
            "location": {
                "name": "Interdimensional Cable",
                "url": "https://rickandmortyapi.com/api/location/6"
            },
            "image": "https://rickandmortyapi.com/api/character/avatar/277.jpeg",
            "episode": [
                "https://rickandmortyapi.com/api/episode/8"
            ],
            "url": "https://rickandmortyapi.com/api/character/277",
            "created": "2017-12-31T14:18:30.570Z"
        },
        {
            "id": 278,
            "name": "Regional Manager Rick",
            "status": "Dead",
            "species": "Human",
            "type": "",
            "gender": "Male",
            "origin": {
                "name": "unknown",
                "url": ""
            },
            "location": {
                "name": "Citadel of Ricks",
                "url": "https://rickandmortyapi.com/api/location/3"
            },
            "image": "https://rickandmortyapi.com/api/character/avatar/278.jpeg",
            "episode": [
                "https://rickandmortyapi.com/api/episode/28"
            ],
            "url": "https://rickandmortyapi.com/api/character/278",
            "created": "2017-12-31T14:19:36.487Z"
        },
        {
            "id": 279,
            "name": "Regular Legs",
            "status": "Alive",
            "species": "Human",
            "type": "",
            "gender": "Male",
            "origin": {
                "name": "unknown",
                "url": ""
            },
            "location": {
                "name": "Interdimensional Cable",
                "url": "https://rickandmortyapi.com/api/location/6"
            },
            "image": "https://rickandmortyapi.com/api/character/avatar/279.jpeg",
            "episode": [
                "https://rickandmortyapi.com/api/episode/8"
            ],
            "url": "https://rickandmortyapi.com/api/character/279",
            "created": "2017-12-31T14:20:31.936Z"
        },
        {
            "id": 280,
            "name": "Reverse Giraffe",
            "status": "Dead",
            "species": "Alien",
            "type": "Parasite",
            "gender": "Male",
            "origin": {
                "name": "unknown",
                "url": ""
            },
            "location": {
                "name": "Earth (Replacement Dimension)",
                "url": "https://rickandmortyapi.com/api/location/20"
            },
            "image": "https://rickandmortyapi.com/api/character/avatar/280.jpeg",
            "episode": [
                "https://rickandmortyapi.com/api/episode/15"
            ],
            "url": "https://rickandmortyapi.com/api/character/280",
            "created": "2017-12-31T14:22:46.285Z"
        }
    ]
}