{
    "info": {
        "count": 826,
        "pages": 42,
        "next": "https://rickandmortyapi.com/api/character?page=24",
        "prev": "https://rickandmortyapi.com/api/character?page=22"
    },
    "results": [
        {
            "id": 441,
            "name": "Bearded Jerry",
            "status": "Alive",
            "species": "Human",
            "type": "",
            "gender": "Male",
            "origin": {
                "name": "unknown",
                "url": ""
            },
            "location": {
                "name": "Jerryboree",
                "url": "https://rickandmortyapi.com/api/location/44"
            },
            "image": "https://rickandmortyapi.com/api/character/avatar/441.jpeg",
            "episode": [
                "https://rickandmortyapi.com/api/episode/13"
            ],
            "url": "https://rickandmortyapi.com/api/character/441",
            "created": "2018-05-01T12:09:22.636Z"
        },
        {
            "id": 442,
            "name": "Shaved Head Jerry",
            "status": "Alive",
            "species": "Human",
            "type": "",
            "gender": "Male",
            "origin": {
                "name": "unknown",
                "url": ""
            },
            "location": {
                "name": "Jerryboree",
                "url": "https://rickandmortyapi.com/api/location/44"
            },
            "image": "https://rickandmortyapi.com/api/character/avatar/442.jpeg",
            "episode": [
                "https://rickandmortyapi.com/api/episode/13"
            ],
            "url": "https://rickandmortyapi.com/api/character/442",
            "created": "2018-05-01T12:10:35.123Z"
        },
        {
            "id": 443,
            "name": "Tank Top Jerry",
            "status": "Alive",
            "species": "Human",
            "type": "",
            "gender": "Male",
            "origin": {
                "name": "unknown",
                "url": ""
            },
            "location": {
                "name": "Jerryboree",
                "url": "https://rickandmortyapi.com/api/location/44"
            },
            "image": "https://rickandmortyapi.com/api/character/avatar/443.jpeg",
            "episode": [
                "https://rickandmortyapi.com/api/episode/13"
            ],
            "url": "https://rickandmortyapi.com/api/character/443",
            "created": "2018-05-01T12:23:37.165Z"
        },
        {
            "id": 444,
            "name": "Pink Polo Shirt Jerry",
            "status": "Alive",
            "species": "Human",
            "type": "",
            "gender": "Male",
            "origin": {
                "name": "unknown",
                "url": ""
            },
            "location": {
                "name": "Jerryboree",
                "url": "https://rickandmortyapi.com/api/location/44"
            },
            "image": "https://rickandmortyapi.com/api/character/avatar/444.jpeg",
            "episode": [
                "https://rickandmortyapi.com/api/episode/13"
            ],
            "url": "https://rickandmortyapi.com/api/character/444",
            "created": "2018-05-01T12:27:08.632Z"
        },
        {
            "id": 445,
            "name": "Jerryboree Keeper",
            "status": "Alive",
            "species": "Alien",
            "type": "",
            "gender": "Female",
            "origin": {
                "name": "unknown",
                "url": ""
            },
            "location": {
                "name": "Jerryboree",
                "url": "https://rickandmortyapi.com/api/location/44"
            },
            "image": "https://rickandmortyapi.com/api/character/avatar/445.jpeg",
            "episode": [
                "https://rickandmortyapi.com/api/episode/13"
            ],
            "url": "https://rickandmortyapi.com/api/character/445",
            "created": "2018-05-01T13:09:57.921Z"
        },
        {
            "id": 446,
            "name": "Jerryboree Receptionist",
            "status": "Alive",
            "species": "Alien",
            "type": "",
            "gender": "Male",
            "origin": {
                "name": "unknown",
                "url": ""
            },
            "location": {
                "name": "Jerryboree",
                "url": "https://rickandmortyapi.com/api/location/44"
            },
            "image": "https://rickandmortyapi.com/api/character/avatar/446.jpeg",
            "episode": [
                "https://rickandmortyapi.com/api/episode/13"
            ],
            "url": "https://rickandmortyapi.com/api/character/446",
            "created": "2018-05-01T13:11:26.665Z"
        },
        {
            "id": 447,
            "name": "Anchor Gear",
            "status": "Alive",
            "species": "Alien",
            "type": "Gear-Person",
            "gender": "Male",
            "origin": {
                "name": "Gear World",
                "url": "https://rickandmortyapi.com/api/location/57"
            },
            "location": {
                "name": "Gear World",
                "url": "https://rickandmortyapi.com/api/location/57"
            },
            "image": "https://rickandmortyapi.com/api/character/avatar/447.jpeg",
            "episode": [
                "https://rickandmortyapi.com/api/episode/13"
            ],
            "url": "https://rickandmortyapi.com/api/character/447",
            "created": "2018-05-01T13:34:56.141Z"
        },
        {
            "id": 448,
            "name": "Gear Cop",
            "status": "Dead",
            "species": "Alien",
            "type": "Gear-Person",
            "gender": "Male",
            "origin": {
                "name": "Gear World",
                "url": "https://rickandmortyapi.com/api/location/57"
            },
            "location": {
                "name": "Gear World",
                "url": "https://rickandmortyapi.com/api/location/57"
            },
            "image": "https://rickandmortyapi.com/api/character/avatar/448.jpeg",
            "episode": [
                "https://rickandmortyapi.com/api/episode/13"
            ],
            "url": "https://rickandmortyapi.com/api/character/448",
            "created": "2018-05-01T13:38:21.237Z"
        },
        {
            "id": 449,
            "name": "Roy's Mum",
            "status": "Alive",
            "species": "Human",
            "type": "Game",
            "gender": "Female",
            "origin": {
                "name": "Roy: A Life Well Lived",
                "url": "https://rickandmortyapi.com/api/location/32"
            },
            "location": {
                "name": "Roy: A Life Well Lived",
                "url": "https://rickandmortyapi.com/api/location/32"
            },
            "image": "https://rickandmortyapi.com/api/character/avatar/449.jpeg",
            "episode": [
                "https://rickandmortyapi.com/api/episode/13"
            ],
            "url": "https://rickandmortyapi.com/api/character/449",
            "created": "2018-05-01T13:55:27.886Z"
        },
        {
            "id": 450,
            "name": "Roy's Wife",
            "status": "Alive",
            "species": "Human",
            "type": "Game",
            "gender": "Male",
            "origin": {
                "name": "Roy: A Life Well Lived",
                "url": "https://rickandmortyapi.com/api/location/32"
            },
            "location": {
                "name": "Roy: A Life Well Lived",
                "url": "https://rickandmortyapi.com/api/location/32"
            },
            "image": "https://rickandmortyapi.com/api/character/avatar/450.jpeg",
            "episode": [
                "https://rickandmortyapi.com/api/episode/13"
            ],
            "url": "https://rickandmortyapi.com/api/character/450",
            "created": "2018-05-01T13:57:55.888Z"
        },
        {
            "id": 451,
            "name": "Roy's Son",
            "status": "Alive",
            "species": "Human",
            "type": "Game",
            "gender": "Male",
            "origin": {
                "name": "Roy: A Life Well Lived",
                "url": "https://rickandmortyapi.com/api/location/32"
            },
            "location": {
                "name": "Roy: A Life Well Lived",
                "url": "https://rickandmortyapi.com/api/location/32"
            },
            "image": "https://rickandmortyapi.com/api/character/avatar/451.jpeg",
            "episode": [
                "https://rickandmortyapi.com/api/episode/13"
            ],
            "url": "https://rickandmortyapi.com/api/character/451",
            "created": "2018-05-01T13:59:18.964Z"
        },
        {
            "id": 452,
            "name": "Simon",
            "status": "Alive",
            "species": "Human",
            "type": "",
            "gender": "Male",
            "origin": {
                "name": "Earth (Replacement Dimension)",
                "url": "https://rickandmortyapi.com/api/location/20"
            },
            "location": {
                "name": "Earth (Replacement Dimension)",
                "url": "https://rickandmortyapi.com/api/location/20"
            },
            "image": "https://rickandmortyapi.com/api/character/avatar/452.jpeg",
            "episode": [
                "https://rickandmortyapi.com/api/episode/16"
            ],
            "url": "https://rickandmortyapi.com/api/character/452",
            "created": "2018-05-01T14:20:10.187Z"
        },
        {
            "id": 453,
            "name": "Vampire Master's Assistant",
            "status": "Alive",
            "species": "Mythological Creature",
            "type": "Vampire",
            "gender": "Male",
            "origin": {
                "name": "unknown",
                "url": ""
            },
            "location": {
                "name": "Earth (Replacement Dimension)",
                "url": "https://rickandmortyapi.com/api/location/20"
            },
            "image": "https://rickandmortyapi.com/api/character/avatar/453.jpeg",
            "episode": [
                "https://rickandmortyapi.com/api/episode/18"
            ],
            "url": "https://rickandmortyapi.com/api/character/453",
            "created": "2018-05-01T15:20:15.582Z"
        },
        {
            "id": 454,
            "name": "Arbolian Mentirososian",
            "status": "Alive",
            "species": "Alien",
            "type": "",
            "gender": "unknown",
            "origin": {
                "name": "Árboles Mentirosos",
                "url": "https://rickandmortyapi.com/api/location/75"
            },
            "location": {
                "name": "St. Gloopy Noops Hospital",
                "url": "https://rickandmortyapi.com/api/location/16"
            },
            "image": "https://rickandmortyapi.com/api/character/avatar/454.jpeg",
            "episode": [
                "https://rickandmortyapi.com/api/episode/16",
                "https://rickandmortyapi.com/api/episode/19",
                "https://rickandmortyapi.com/api/episode/21"
            ],
            "url": "https://rickandmortyapi.com/api/character/454",
            "created": "2018-05-01T15:30:21.493Z"
        },
        {
            "id": 455,
            "name": "St. Gloopy Noops Nurse",
            "status": "Alive",
            "species": "Alien",
            "type": "",
            "gender": "Female",
            "origin": {
                "name": "unknown",
                "url": ""
            },
            "location": {
                "name": "St. Gloopy Noops Hospital",
                "url": "https://rickandmortyapi.com/api/location/16"
            },
            "image": "https://rickandmortyapi.com/api/character/avatar/455.jpeg",
            "episode": [
                "https://rickandmortyapi.com/api/episode/19"
            ],
            "url": "https://rickandmortyapi.com/api/character/455",
            "created": "2018-05-01T15:34:19.679Z"
        },
        {
            "id": 456,
            "name": "Nano Doctor",
            "status": "Alive",
            "species": "Alien",
            "type": "Nano Alien",
            "gender": "Male",
            "origin": {
                "name": "unknown",
                "url": ""
            },
            "location": {
                "name": "St. Gloopy Noops Hospital",
                "url": "https://rickandmortyapi.com/api/location/16"
            },
            "image": "https://rickandmortyapi.com/api/character/avatar/456.jpeg",
            "episode": [
                "https://rickandmortyapi.com/api/episode/19"
            ],
            "url": "https://rickandmortyapi.com/api/character/456",
            "created": "2018-05-01T15:42:07.919Z"
        },
        {
            "id": 457,
            "name": "Funny Songs Presenter",
            "status": "Alive",
            "species": "Human",
            "type": "",
            "gender": "Male",
            "origin": {
                "name": "unknown",
                "url": ""
            },
            "location": {
                "name": "Interdimensional Cable",
                "url": "https://rickandmortyapi.com/api/location/6"
            },
            "image": "https://rickandmortyapi.com/api/character/avatar/457.jpeg",
            "episode": [
                "https://rickandmortyapi.com/api/episode/19"
            ],
            "url": "https://rickandmortyapi.com/api/character/457",
            "created": "2018-05-01T16:08:23.458Z"
        },
        {
            "id": 458,
            "name": "Tax Attorney",
            "status": "unknown",
            "species": "Human",
            "type": "",
            "gender": "Male",
            "origin": {
                "name": "unknown",
                "url": ""
            },
            "location": {
                "name": "Interdimensional Cable",
                "url": "https://rickandmortyapi.com/api/location/6"
            },
            "image": "https://rickandmortyapi.com/api/character/avatar/458.jpeg",
            "episode": [
                "https://rickandmortyapi.com/api/episode/19"
            ],
            "url": "https://rickandmortyapi.com/api/character/458",
            "created": "2018-05-01T16:11:17.925Z"
        },
        {
            "id": 459,
            "name": "Butthole Ice Cream Guy",
            "status": "Alive",
            "species": "Alien",
            "type": "",
            "gender": "Male",
            "origin": {
                "name": "unknown",
                "url": ""
            },
            "location": {
                "name": "Interdimensional Cable",
                "url": "https://rickandmortyapi.com/api/location/6"
            },
            "image": "https://rickandmortyapi.com/api/character/avatar/459.jpeg",
            "episode": [
                "https://rickandmortyapi.com/api/episode/19"
            ],
            "url": "https://rickandmortyapi.com/api/character/459",
            "created": "2018-05-01T16:53:23.462Z"
        },
        {
            "id": 460,
            "name": "Traflorkian Journalist",
            "status": "Alive",
            "species": "Alien",
            "type": "Traflorkian",
            "gender": "Male",
            "origin": {
                "name": "unknown",
                "url": ""
            },
            "location": {
                "name": "St. Gloopy Noops Hospital",
                "url": "https://rickandmortyapi.com/api/location/16"
            },
            "image": "https://rickandmortyapi.com/api/character/avatar/460.jpeg",
            "episode": [
                "https://rickandmortyapi.com/api/episode/19"
            ],
            "url": "https://rickandmortyapi.com/api/character/460",
            "created": "2018-05-01T17:03:39.846Z"
        }
    ]
}